Scheme
{
	Fonts
	{
		"LightGravity8"
		{
			"1"
			{
				"name"		"Gravity-Light"
				"tall"		"8"
				"additive"	"0"
				"antialias" "1"
			}
		}
		"LightGravity9"
		{
			"1"
			{
				"name"		"Gravity-Light"
				"tall"		"9"
				"additive"	"0"
				"antialias" "1"
			}
		}
		"LightGravity10"
		{
			"1"
			{
				"name"		"Gravity-Light"
				"tall"		"10"
				"additive"	"0"
				"antialias" "1"
			}
		}
		"LightGravity11"
		{
			"1"
			{
				"name"		"Gravity-Light"
				"tall"		"11"
				"additive"	"0"
				"antialias" "1"
			}
		}
		"LightGravity12"
		{
			"1"
			{
				"name"		"Gravity-Light"
				"tall"		"12"
				"additive"	"0"
				"antialias" "1"
			}
		}
		"LightGravity14"
		{
			"1"
			{
				"name"		"Gravity-Light"
				"tall"		"14"
				"additive"	"0"
				"antialias" "1"
			}
		}
		"LightGravity16"
		{
			"1"
			{
				"name"		"Gravity-Light"
				"tall"		"16"
				"additive"	"0"
				"antialias" "1"
			}
		}
		"LightGravity18"
		{
			"1"
			{
				"name"		"Gravity-Light"
				"tall"		"16"
				"additive"	"0"
				"antialias" "1"
			}
		}
		"LightGravity20"
		{
			"1"
			{
				"name"		"Gravity-Light"
				"tall"		"20"
				"additive"	"0"
				"antialias" "1"
			}
		}
		"LightGravity20Outline"
		{
			"1"
			{
				"name"		"Gravity-Light"
				"tall"		"20"
				"additive"	"0"
				"antialias" "1"
				"outline"	"1"
			}
		}
		"LightGravity24"
		{
			"1"
			{
				"name"		"Gravity-Light"
				"tall"		"24"
				"additive"	"0"
				"antialias" "1"
			}
		}
		"LightGravity24Outline"
		{
			"1"
			{
				"name"		"Gravity-Light"
				"tall"		"24"
				"additive"	"0"
				"antialias" "1"
				"outline"	"1"
			}
		}
		"LightGravity26"
		{
			"1"
			{
				"name"		"Gravity-Light"
				"tall"		"26"
				"additive"	"0"
				"antialias" "1"
			}
		}
		"LightGravity34"
		{
			"1"
			{
				"name"		"Gravity-Light"
				"tall"		"34"
				"additive"	"0"
				"antialias" "1"
			}
		}
		"LightGravity40"
		{
			"1"
			{
				"name"		"Gravity-Light"
				"tall"		"40"
				"additive"	"0"
				"antialias" "1"
			}
		}
		"LightGravity55"
		{
			"1"
			{
				"name"			"Gravity-Light"
				"tall"			"55"
				"additive"		"0"
				"antialias" 	"1"
			}
		}
		"LightGravityHUD"
		{
			"1"
			{
				"name"		"Gravity-Light"
				"tall"		"30"
				"additive"	"0"
				"antialias" "1"
				"italic"	"1"
			}
		}
		"DefaultOutline"
		{
			"1"
			{
				"name"			"Verdana"
				"tall"			"10"
				"weight"		"900"
				"range"			"0x0000 0x017F"
				"outline"		"1"
			}
		}

		"G_MenuArrowBig"
		{
			"1"
			{
				"name"			"FlawHUDIcons"
				"tall"			"26"
				"weight"		"400"
				"additive"		"0"
				"antialias" 	"1"
			}
		}
		
		"G_MenuArrowSmall"	// Small arrows used in various menus
		{
			"1"
			{
				"name"			"FlawHUDIcons"
				"tall"			"15"
				"weight"		"400"
				"additive"		"0"
				"antialias" 	"1"
			}
		}

		"ClassIcons"		// Class Icons found in the "Items" Page
		{
			"1"
			{
				"name"			"FlawHUDIcons"
				"tall"			"62"
				"weight"		"0"
				"additive"		"0"
				"antialias"		"1"
			}
		}

		"G_FontTargetIDHealth"	// Target ID Font
		{
			"1"
			{
				"name"			"Code-Pro-Bold"
				"tall"			"14"
				"weight"		"0"
				"additive"		"0"
				"antialias" 	"1"
			}
		}
		
		"SymbolS"			// Miscellaneous symbols
		{
			"1"
			{
				"name"			"FlawHUDIcons"
				"tall"			"25"
				"additive"		"0"
				"antialias"		"1"
			}
		}

		"G_FontDamage"		// Font for Damage Numbers
		{
			"1"
			{
				"name"			"Code-Pro-Bold"
				"tall"			"20"
				"weight"		"0"
				"additive"		"0"
				"antialias"		"1"
				"outline"		"1"
			}
		}
		
		"G_FontCritDamage"	// Font for "Critical Hit" Damage Numbers
		{
			"1"
			{
				"name"			"Code-Pro-Bold"
				"tall"			"22"
				"weight"		"0"
				"additive"		"0"
				"antialias"		"1"
				"outline"		"1"
			}
		}

		"G_HeadsIcon"		// Icons for weapons that "store" crits, kills etc.
		{
			"1"
			{
				"name"			"FlawHUDIcons"
				"tall"			"12"
				"weight"		"400"
				"additive"		"0"
				"antialias" 	"1"
			}
		}
		
		"G_Stickys"			// Sticky Counter Icons (don't work atm)
		{
			"1"
			{
				"name"			"FlawHUDIcons"
				"tall"			"60"
				"weight"		"400"
				"additive"		"0"
				"antialias"		"1"
			}
		}
		
		"G_ChargeLabel"
		{
			"1"
			{
				"name"			"Code-Pro-Bold"
				"tall"			"22"
				"additive"		"0"
				"antialias" 	"1"
				"outline"		"1"
			}
		}
		
		"G_FontNumberButton" // Key Button Text
		{
			"1"
			{
				"name"			"Verdana"
				"tall"			"9"
				"weight"		"500"
				"antialias" 	"1"
			}
		}

		"G_FontHuge"		// Primary Font
		{
			"1"
			{
				"name"			"Code-Pro-Bold"
				"tall"			"52"
				"weight"		"0"
				"additive"		"0"
				"antialias"		"1"
			}
		}
		
		"G_FontBig"			// Primary Font
		{
			"1"
			{
				"name"			"Code-Pro-Bold"
				"tall"			"37"
				"weight"		"0"
				"additive"		"0"
				"antialias"		"1"
			}
		}
		
		"G_FontMedium"		// Primary Font
		{
			"1"
			{
				"name"			"Code-Pro-Bold"
				"tall"			"22"
				"weight"		"0"
				"additive"		"0"
				"antialias"		"1"
			}
		}
		
		"G_FontMediumSmall"	// Primary Font
		{
			"1"
			{
				"name"			"Code-Pro-Bold"
				"tall"			"18"
				"weight"		"0"
				"additive"		"0"
				"antialias" 	"1"
			}
		}
		
		"G_FontSmall"		// Primary Font
		{
			"1"
			{
				"name"			"Code-Pro-Bold"
				"tall"			"14"
				"weight"		"0"
				"additive"		"0"
				"antialias" 	"1"
			}
		}
		
		"G_FontTiny"		// Primary Font
		{
			"1"
			{
				"name"			"Code-Pro-Bold"
				"tall"			"12"
				"weight"		"0"
				"additive"		"0"
				"antialias" 	"1"
			}
		}

		"G_FontHuge_2"		// Secondary Font
		{
			"1"
			{
				"name"			"Code-Pro-LC"
				"tall"			"23"
				"weight"		"0"
				"additive"		"0"
				"antialias" 	"1"
			}
		}
		
		"G_FontBig_2"		// Secondary Font
		{
			"1"
			{
				"name"			"Code-Pro-LC"
				"tall"			"16"
				"weight"		"0"
				"additive"		"0"
				"antialias" 	"1"
			}
		}
		
		"G_FontMedium_2"	// Secondary Font
		{
			"1"
			{
				"name"			"Code-Pro-LC"
				"tall"			"13"
				"weight"		"0"
				"additive"		"0"
				"antialias" 	"1"
			}
		}
		
		"G_FontSmall_2"		// Secondary Font
		{
			"1"
			{
				"name"			"Code-Pro-LC"
				"tall"			"10"
				"weight"		"0"
				"additive"		"0"
				"antialias" 	"1"
			}
		}
		
		"G_FontTiny_2"		// Secondary Font
		{
			"1"
			{
				"name"			"Code-Pro-LC"
				"tall"			"8"
				"weight"		"0"
				"additive"		"0"
				"antialias" 	"1"
				"dropshadow"	"0"
			}
		}

		"Default"
		{
			"1"
			{
				"name"			"Gravity-Light"
				"tall"			"10"
				"additive"		"0"
				"antialias" 	"1"
			}
			"2"
			{
				"name"			"Arial"
				"tall"			"12"
				"range"			"0x0000 0x00FF"
				"weight"		"800"
			}
		}
		"DefaultUnderline"
		{
			"1"
			{
				"name"			"Tahoma"
				"tall"			"12"
				"weight"		"500"
				"underline" 	"1"
				"range"			"0x0000 0x017F"
			}
			"2"
			{
				"name"			"Arial"
				"tall"			"11"
				"range" 		"0x0000 0x00FF"
				"weight"		"800"
			}
		}
		"DefaultSmall"
		{
			"1"
			{
				"name"			"Verdana"
				"tall"			"12"
				"weight"		"0"
				"range"			"0x0000 0x017F"
				"yres"			"480 599"
			}
			"2"
			{
				"name"			"Verdana"
				"tall"			"13"
				"weight"		"0"
				"range"			"0x0000 0x017F"
				"yres"			"600 767"
			}
			"3"
			{
				"name"			"Verdana"
				"tall"			"14"
				"weight"		"0"
				"range"			"0x0000 0x017F"
				"yres"			"768 1023"
				"antialias"		"1"
			}
			"4"
			{
				"name"			"Verdana"
				"tall"			"20"
				"weight"		"0"
				"range"			"0x0000 0x017F"
				"yres"			"1024 1199"
				"antialias"		"1"
			}
			"5"
			{
				"name"			"Verdana"
				"tall"			"22"
				"weight"		"0"
				"range"			"0x0000 0x017F"
				"yres"			"1200 6000"
				"antialias"		"1"
			}
			"6"
			{
				"name"			"Arial"
				"tall"			"12"
				"range" 		"0x0000 0x00FF"
				"weight"		"0"
			}
		}
		"DefaultVerySmall"
		{
			"1"
			{
				"name"			"Verdana"
				"tall"			"12"
				"weight"		"0"
				"range"			"0x0000 0x017F"
				"yres"			"480 599"
			}
			"2"
			{
				"name"			"Verdana"
				"tall"			"12"
				"weight"		"0"
				"range"			"0x0000 0x017F"
				"yres"			"600 767"
			}
			"3"
			{
				"name"			"Verdana"
				"tall"			"12"
				"weight"		"0"
				"range"			"0x0000 0x017F"
				"yres"			"768 1023"
				"antialias"		"1"
			}
			"4"
			{
				"name"			"Verdana"
				"tall"			"14"
				"weight"		"0"
				"range"			"0x0000 0x017F"
				"yres"			"1024 1199"
				"antialias"		"1"
			}
			"5"
			{
				"name"			"Verdana"
				"tall"			"16"
				"weight"		"0"
				"range"			"0x0000 0x017F"
				"yres"			"1200 6000"
				"antialias"		"1"
			}
		}
		DefaultLarge
		{
			"1"
			{
				"name"			"Verdana"
				"tall"			"18"
				"weight"		"900"
				"range"			"0x0000 0x017F"
				"yres"			"480 599"
			}
			"2"
			{
				"name"			"Verdana"
				"tall"			"21"
				"weight"		"900"
				"range"			"0x0000 0x017F"
				"yres"			"600 767"
			}
			"3"
			{
				"name"			"Verdana"
				"tall"			"22"
				"weight"		"900"
				"range"			"0x0000 0x017F"
				"yres"			"768 1023"
				"antialias"		"1"
			}
			"4"
			{
				"name"			"Verdana"
				"tall"			"28"
				"weight"		"900"
				"range"			"0x0000 0x017F"
				"yres"			"1024 1199"
				"antialias"		"1"
			}
			"5"
			{
				"name"			"Verdana"
				"tall"			"30"
				"weight"		"900"
				"range"			"0x0000 0x017F"
				"yres"			"1200 6000"
				"antialias"		"1"
			}
			"6"
			{
				"name"			"Verdana"
				"tall"			"20"
				"range" 		"0x0000 0x00FF"
				"weight"		"900"
			}
			"7"
			{
				"name"			"Arial"
				"tall"			"20"
				"range" 		"0x0000 0x00FF"
				"weight"		"800"
			}
		}

		CenterPrintText
		{
			// note that this scales with the screen resolution
			"1"
			{
				"name"			"Trebuchet MS" [!$OSX]
				"name"			"Helvetica" [$OSX]
				"tall"			"18"
				"weight"		"900"
				"antialias" 	"1"
				"additive"		"1"
			}
		}

		"PlayerPanelPlayerName"
		{
			"1"
			{
				"name"			"Verdana"
				"tall"			"6"
				"weight"		"500"
				"additive"		"0"
				"antialias" 	"1"
			}
		}

		HudHintText
		{
			"1"
			{
				"name"			"Gravity-Light"
				"tall"			"10"
				"weight"		"0"
				"additive"		"0"
				"antialias"		"1"
			}
			"2"
			{
				"name"			"Verdana"
				"tall"			"13"
				"weight"		"700"
				"yres"			"600 767"
			}
			"3"
			{
				"name"			"Verdana"
				"tall"			"14"
				"weight"		"700"
				"yres"			"768 1023"
			}
			"4"
			{
				"name"			"Verdana"
				"tall"			"20"
				"weight"		"700"
				"yres"			"1024 1199"
			}
			"5"
			{
				"name"			"Verdana"
				"tall"			"24"
				"weight"		"700"
				"yres"			"1200 10000"
			}
		}
		"HudFontGiant"
		{
			"1"
			{
				"name"			"Gravity-Light"
				"tall"			"24"
				"weight"		"500"
				"additive"		"0"
				"antialias" 	"1"
				"yres"			"480 599"
			}
			"2"
			{
				"name"			"Gravity-Light"
				"tall"			"32"
				"weight"		"500"
				"additive"		"0"
				"antialias" 	"1"
				"yres"			"600 767"
			}
			"3"
			{
				"name"			"Gravity-Light"
				"tall"			"44"
				"weight"		"500"
				"additive"		"0"
				"antialias" 	"1"
				"yres"			"768 1023"
			}
			"4"
			{
				"name"			"Gravity-Light"
				"tall"			"48"
				"weight"		"500"
				"additive"		"0"
				"antialias" 	"1"
				"yres"			"1024 1199"
			}
			"5"
			{
				"name"			"Gravity-Light"
				"tall"			"52"
				"weight"		"500"
				"additive"		"0"
				"antialias" 	"1"
				"yres"			"1200 10000"
			}
		}
		"HudFontGiantBold"
		{
			"1"
			{
				"name"			"Gravity-Light"
				"tall"			"44"
				"weight"		"500"
				"additive"		"0"
				"antialias" 	"1"
			}
		}
		"HudFontBiggerBold"
		{
			"1"
			{
				"name"			"Gravity-Light"
				"tall"			"35"
				"weight"		"500"
				"additive"		"0"
				"antialias"		"1"
			}
		}
		"HudFontBig"
		{
			"1"
			{
				"name"			"Gravity-Light"
				"tall"			"36"
				"weight"		"500"
				"additive"		"0"
				"antialias" 	"1"
			}
		}
		"HudFontMediumBig"
		{
			"1"
			{
				"name"			"Gravity-Light"
				"tall"			"30"
				"weight"		"500"
				"additive"		"0"
				"antialias" 	"1"
			}
		}	
		"HudFontMediumBigBold"
		{
			"1"
			{
				"name"			"Gravity-Light"
				"tall"			"30"
				"weight"		"500"
				"additive"		"0"
				"antialias" 	"1"
			}
		}		
		"HudFontMedium"
		{
			"1"
			{
				"name"			"Gravity-Light"
				"tall"			"24"
				"weight"		"500"
				"additive"		"0"
				"antialias"		"1"
			}
		}
		"HudFontMediumSecondary"
		{
			"1"
			{
				"name"			"Gravity-Light"
				"tall"			"24"
				"weight"		"500"
				"additive"		"0"
				"antialias" 	"1"
			}
		}
		"HudFontMediumBold"
		{
			"1"
			{
				"name"			"Gravity-Light"
				"tall"			"24"
				"weight"		"500"
				"additive"		"0"
				"antialias" 	"1"
			}
		}
		"HudFontMediumSmallBold"
		{
			"1"
			{
				"name"			"Gravity-Light"
				"tall"			"18"
				"weight"		"500"
				"additive"		"0"
				"antialias" 	"1"
			}
		}
		"HudFontMediumSmall"
		{
			"1"
			{
				"name"			"Gravity-Light"
				"tall"			"18"
				"weight"		"500"
				"additive"		"0"
				"antialias" 	"1"
			}
		}
		"HudFontMediumSmallSecondary"
		{
			"1"
			{
				"name"			"Gravity-Light"
				"tall"			"18"
				"weight"		"500"
				"additive"		"0"
				"antialias" 	"1"
			}
		}
		"HudFontSmall"
		{
			"1"
			{
				"name"			"Gravity-Light"
				"tall"			"14"
				"weight"		"500"
				"additive"		"0"
				"antialias" 	"1"
			}
		}	
		"HudFontSmallishBold"
		{
			"1"
			{
				"name"			"Gravity-Light"
				"tall"			"16"
				"weight"		"500"
				"additive"		"0"
				"antialias" 	"1"
			}
		}
		"HudFontSmallBold"
		{
			"1"
			{
				"name"			"Gravity-Light"
				"tall"			"14"
				"weight"		"500"
				"additive"		"0"
				"antialias" 	"1"
			}
		}
		"HudFontSmallBoldShadow"
		{
			"1"
			{
				"name"			"Gravity-Light"
				"tall"			"14"
				"weight"		"500"
				"additive"		"0"
				"antialias" 	"1"
				"dropshadow"	"1"
			}
		}
		"HudFontSmallest"
		{
			"1"
			{
				"name"			"Gravity-Light"
				"tall"			"11"
				"weight"		"500"
				"additive"		"0"
				"antialias" 	"1"
			}
		}
		"HudFontSmallestShadow"
		{
			"1"
			{
				"name"			"Gravity-Light"
				"tall"			"11"
				"weight"		"500"
				"additive"		"0"
				"antialias" 	"1"
				"dropshadow"	"1"
			}
		}
		"HudFontSmallestBold"
		{
			"1"
			{
				"name"			"Gravity-Light"
				"tall"			"11"
				"weight"		"500"
				"additive"		"0"
				"antialias" 	"1"
			}
		}

		"PerformanceModeSmall"
		{
			"1"
			{
				"name"			"Gravity-Light"
				"tall"			"4"
				"weight"		"500"
				"additive"		"0"
				"antialias" 	"1"
			}
		}

		"StorePromotionsTitle"
		{
			"1"
			{
				"name"			"Gravity-Light"
				"tall"			"10"
				"additive"		"0"
				"antialias" 	"1"
			}
		}

		"FontCartPrice"
		{
			"1"
			{
				"name"			"Gravity-Light"
				"tall"			"16"
				//"weight"		"500"
				"additive"		"0"
				"antialias" 	"1"
			}
		}
		"FontStorePrice"
		{
			"1"
			{
				"name"			"Gravity-Light"
				"tall"			"9"
				"weight"		"0"
				"additive"		"0"
				"antialias" 	"1"
			}
		}
		"FontStoreOriginalPrice"
		{
			"1"
			{
				"name"			"Gravity-Light"
				"tall"			"9"
				"weight"		"0"
				"additive"		"0"
				"antialias" 	"1"
			}
		}
		"FontStorePriceSmall"
		{
			"1"
			{
				"name"			"Gravity-Light"
				"tall"			"6"
				"weight"		"0"
				"additive"		"0"
				"antialias" 	"1"
			}
		}
		"FontStorePromotion"
		{
			"1"
			{
				"name"			"Gravity-Light"
				"tall"			"12"
				"weight"		"400"
				"additive"		"0"
				"antialias" 	"1"
			}
		}

		"TextTooltipFont"
		{
			"1"
			{
				"name"			"Gravity-Light"
				"tall"			"11"
				"weight"		"500"
				"additive"		"0"
				"antialias" 	"1"
			}
		}

		GameUIButtons
		{
			"1"	//[$X360]
			{
				"bitmap"	"1"
				"name"		"Buttons"
				"scalex"	"0.5"
				"scaley"	"0.5"
			}
		}
		GameUIButtonsSmall
		{
			"1"	[$X360]
			{
				"bitmap"	"1"
				"name"		"Buttons"
				"scalex"	"0.5"
				"scaley"	"0.5"
			}
		}
		GameUIButtonsSmallest
		{
			"1"	[$X360]
			{
				"bitmap"	"1"
				"name"		"Buttons"
				"scalex"	"0.4"
				"scaley"	"0.4"
			}
		}
		GameUIButtonsSteamController
		{
			"1"
			{
				"bitmap"		"1"
				"name"			"ButtonsSC"
				"scalex"		"0.5"
				"scaley"		"0.5"
			}
		}
		GameUIButtonsSteamControllerSmall
		{
			"1"
			{
				"bitmap"		"1"
				"name"			"ButtonsSC"
				"scalex"		"0.25"
				"scaley"		"0.25"
			}
		}
		GameUIButtonsSteamControllerSmallest
		{
			"1"
			{
				"bitmap"		"1"
				"name"			"ButtonsSC"
				"scalex"		"0.15"
				"scaley"		"0.15"
			}
		}
		"GameUIButtonText"
		{
			"1"
			{
				"name"			"Gravity-Light"
				"tall"			"18"
				"weight"		"500"
				"additive"		"0"
				"antialias" 	"1"
			}
		}

		"HudClassHealth"
		{
			"1"
			{
				"name"			"Gravity-Light"
				"tall"			"18"
				"tall_hidef"	"24"
				"tall_lodef"	"18"
				"weight"		"500"
				"additive"		"0"
				"antialias" 	"1"
			}
		}
		"HudClassHealth"
		{
			"1"
			{
				"name"			"TF2"
				"tall"			"16"
				"weight"		"500"
				"additive"		"0"
				"antialias" 	"1"
			}
		}

		"SpectatorKeyHints"
		{
			"1"
			{
				"name"			"Verdana"
				"tall"			"8"
				"weight"		"500"
				"additive"		"0"
				"antialias" 	"1"
			}
		}

		"ClockSubText"
		{
			"1"
			{
				"name"			"Verdana"
				"tall"			"9"
				"weight"		"500"
				"additive"		"0"
				"antialias" 	"1"
			}
		}
		"ClockSubTextSuddenDeath"
		{
			"1"
			{
				"name"			"Verdana"
				"tall"			"8"
				"weight"		"500"
				"additive"		"0"
				"antialias" 	"1"
			}
		}
		"ClockSubTextTiny"
		{
			"1"
			{
				"name"			"Verdana"
				"tall"			"8"
				"weight"		"500"
				"additive"		"0"
				"antialias" 	"1"
			}
		}

		"HudSelectionText"
		{
			"1"
			{
				"name"			"Gravity-Light"
				"tall"			"15"
				"weight"		"700"
				"antialias" 	"1"
				"yres"			"1 599"
				"range"			"0x0000 0x017F"
				"additive"		"1"
			}
			"2"
			{
				"name"			"Gravity-Light"
				"tall"			"15"
				"weight"		"700"
				"antialias" 	"1"
				"yres"			"600 767"
				"range"			"0x0000 0x017F"
				"additive"		"1"
			}
			"3"
			{
				"name"			"Gravity-Light"
				"tall"			"18"
				"weight"		"900"
				"antialias" 	"1"
				"yres"			"768 1023"
				"range"			"0x0000 0x017F"
			}
			"4"
			{
				"name"			"Gravity-Light"
				"tall"			"21"
				"weight"		"900"
				"antialias" 	"1"
				"yres"			"1024 1199"
				"range"			"0x0000 0x017F"
			}
			"5"
			{
				"name"			"Gravity-Light"
				"tall"			"24"
				"weight"		"1000"
				"antialias" 	"1"
				"yres"			"1200 10000"
				"range"			"0x0000 0x017F"
			}
		}

		DebugOverlay
		{
			"1"
			{
				"name"			"Courier New"
				"tall"			"14"
				"weight"		"400"
				"outline"		"1"
				"range"			"0x0000 0x017F"
			}
		}

		TFTypeDeath
		{
			"1"
			{
				"name"  		"tfd"
				"tall"  		"28"
				"weight" 		"0"
				"additive" 		"0"
				"antialias" 	"1"
			}
		}
		
		Icons
		{
			"1"
			 {
				"name"  		"Team Fortress"
				"tall"  		"28"
				"weight" 		"0"
				"additive" 		"1"
				"antialias" 	"1"
			}
		}

		"BetaFont"
		{
			"1"
			{
				"name"			"Courier New"
				"tall"			"90"
				"weight"		"900"
				"range"			"0x0000 0x007F"
				"antialias" 	"1"
				"additive"		"0"
			}
		}

		HudNumbers
		{
			"1"
			{
				"name"  		"Team Fortress"
				"tall"  		"28"
				"weight" 		"0"
				"additive" 		"1"
				"antialias" 	"1"
			}
			"2"
			{
				"name"  		"Verdana"
				"tall"  		"28"
				"weight" 		"0"
				"additive" 		"1"
				"antialias" 	"1"
			}
		}

		"CloseCaption_Normal"
		{
			"1"
			{
				"name"			"Code-Pro-LC"
				"tall"			"24"
				"antialias" 	"1"
				"weight"		"500"
				"range"			"0x0000 0x017F"
			}
		}
		"CloseCaption_Italic"
		{
			"1"
			{
				"name"			"Code-Pro-LC"
				"tall"			"24"
				"antialias" 	"1"
				"weight"		"500"
				"italic"		"1"
				"range"			"0x0000 0x017F"
			}
		}
		"CloseCaption_Bold"
		{
			"1"
			{
				"name"			"Code-Pro-LC"
				"tall"			"24"
				"antialias" 	"1"
				"weight"		"900"
				"range"			"0x0000 0x017F"
			}
		}
		"CloseCaption_BoldItalic"
		{
			"1"
			{
				"name"			"Code-Pro-LC"
				"tall"			"24"
				"antialias" 	"1"
				"weight"		"900"
				"italic"		"1"
				"range"			"0x0000 0x017F"
			}
		}
		"CloseCaption_Small"
		{
			"1"
			{
				"name"			"Code-Pro-LC"
				"tall"			"16"
				"antialias" 	"1"
				"weight"		"900"
				"range"			"0x0000 0x017F"
			}
		}

		"Marlett"
		{
			"1"
			{
				"name"			"Marlett"
				"tall"			"20"
				"weight"		"0"
				"symbol"		"1"
				"range"			"0x0000 0x007F"
			}
		}
		"MarlettSmall"
		{
			"1"
			{
				"name"			"Marlett"
				"tall"			"14"
				"weight"		"0"
				"symbol"		"1"
				"range"			"0x0000 0x007F"
			}
		}

		"MenuMainTitle"
		{
			"1"
			{
				"name"			"Gravity-Light"
				"tall"			"24"
				"antialias" 	"1"
				"weight"		"500"
			}
		}
		"MenuClassBuckets"
		{
			"1"
			{
				"name"			"Gravity-Light"
				"tall"			"11"
				"antialias" 	"1"
				"weight"		"500"
			}
		}
		"MenuKeys"
		{
			"1"
			{
				"name"			"Gravity-Light"
				"tall"			"12"
				"antialias" 	"1"
				"weight"		"500"
			}
		}
		
		"GoalText"
		{
			"1"
			{
				"name"			"Verdana"
				"tall"			"13"
				"weight"		"800"
				"additive"		"0"
				"antialias" 	"1"
			}
		}		

		"ChalkboardTitle"
		{
			"1"
			{
				"name"			"TF2 Professor"
				"tall"			"28"
				"antialias"		"1" 
				"custom"		"1" [$OSX]
				"weight"		"500"
			}
		}
		"ChalkboardTitleBig"
		{
			"1"
			{
				"name"			"TF2 Professor"
				"tall"			"40"
				"antialias"		"1"
				"custom"		"1" [$OSX]
				"weight"		"500"
			}
		}
		"ChalkboardTitleMedium"
		{
			"1"
			{
				"name"			"TF2 Professor"
				"tall"			"24"
				"antialias" 	"1"
				"custom"		"1" [$OSX]
				"weight"		"500"
			}
		}
		"ChalkboardText"
		{
			"1"
			{
				"name"			"TF2 Professor"
				"tall"			"14" [!$OSX]
				"tall"			"15" [$OSX]
				"antialias"		"1"
				"custom"		"1" [$OSX]
				"weight"		"500"
			}
		}

		"ScoreboardSmallest"
		{
			"1"
			{
				"name"			"Verdana"
				"tall"			"6"
				"weight"		"400"
				"additive"		"0"
				"antialias" 	"1"
			}
		}
		"ScoreboardVerySmall"
		{
			"1"
			{
				"name"			"Gravity-Light"
				"tall"			"8"
				"weight"		"400"
				"additive"		"0"
				"antialias" 	"1"
			}
		}
		"ScoreboardSmall"
		{
			"1"
			{
				"name"			"Gravity-Light"
				"tall"			"10"
				"weight"		"400"
				"additive"		"0"
				"antialias"		"1"
			}
		}
		"ScoreboardMediumSmall"
		{
			"1"
			{
				"name"			"Gravity-Light"
				"tall"			"10"
				"weight"		"500"
				"range"			"0x0000 0x007F"
				"antialias" 	"1"
				"additive"		"0"
			}
		}
		"ScoreboardMedium"
		{
			"1"
			{
				"name"			"Gravity-Light"
				"tall"			"20"
				"weight"		"500"
				"range"			"0x0000 0x007F"
				"antialias" 	"1"
				"additive"		"0"
			}
		}
		"ScoreboardTeamName"
		{
			"1"
			{
				"name"			"Gravity-Light"
				"tall"			"20"
				"weight"		"500"
				"range"			"0x0000 0x007F"
				"antialias" 	"1"
				"additive"		"0"
			}
		}
		"ScoreboardTeamCountNew"
		{
			"1"
			{
				"name"			"Gravity-Light"
				"tall"			"14"
				"weight"		"500"
				"range"			"0x0000 0x007F"
				"antialias" 	"1"
				"additive"		"0"
			}
		}
		"ScoreboardTeamNameNew"
		{
			"1"
			{
				"name"			"Gravity-Light"
				"tall"			"14"
				"weight"		"500"
				"range"			"0x0000 0x007F"
				"antialias"		"1"
				"additive"		"0"
			}
		}
		"ScoreboardTeamNameLarge"
		{
			"1"
			{
				"name"			"Gravity-Light"
				"tall"			"34"
				"weight"		"500"
				"range"			"0x0000 0x007F"
				"antialias" 	"1"
				"additive"		"0"
			}
		}
		"ScoreboardTeamScoreNew"
 		{
			"1"
			{
				"name"			"Gravity-Light"
				"tall"			"36"
				"weight"		"500"
				"additive"		"0"
				"antialias" 	"1"
			}
		}
		"ScoreboardTeamScore"
		{
			"1"
			{
				"name"			"Gravity-Light"
				"tall"			"52"
				"range" 		"0x0000 0x00FF"
				"weight"		"400"
				"yres"			"1 599"
				"antialias"		"1"
			}
			"2"
			{
				"name"			"Gravity-Light"
				"tall"			"72"
				"range" 		"0x0000 0x00FF"
				"weight"		"400"
				"yres"			"600 767"
				"antialias" 	"1"
			}
			"3"
			{
				"name"			"Gravity-Light"
				"tall"			"100"
				"range" 		"0x0000 0x00FF"
				"weight"		"400"
				"yres"			"768 1023"
				"antialias" 	"1"
			}
			"4"
			{
				"name"			"Gravity-Light"
				"tall"			"140"
				"range" 		"0x0000 0x00FF"
				"weight"		"400"
				"yres"			"1024 1199"
				"antialias" 	"1"
			}
			"5"
			{
				"name"			"Gravity-Light"
				"tall"			"180"
				"range" 		"0x0000 0x00FF"
				"weight"		"400"
				"yres"			"1200 10000"
				"antialias" 	"1"
			}
		}

		"MatchSummaryTeamScores"
		{
			"1"
			{
				"name"			"Code-Pro-Bold"
				"tall"			"36"
				"weight"		"500"
				"range"			"0x0000 0x007F"
				"antialias" 	"1"
				"additive"		"0"
			}
		}
		"MatchSummaryStatsAndMedals"
		{
			"1"
			{
				"name"			"Gravity-Light"
				"tall"			"14"
				"weight"		"400"
				"additive"		"0"
				"antialias"	 	"1"
			}
		}
		"MatchSummaryWinner"
		{
			"1"
			{
				"name"			"Gravity-Light"
				"tall"			"20"
				"weight"		"400"
				"additive"		"0"
				"antialias" 	"1"
			}
		}

		"CompMatchStartTeamNames"
		{
			"1"
			{
				"name"			"Gravity-Light"
				"tall"			"14"
				"weight"		"400"
				"additive"		"0"
				"antialias" 	"1"
			}
		}

		"ControlPointTimer"
		{
			"1"
			{
				"name"			"Gravity-Light"
				"tall"			"10"
				"weight"		"400"
				"additive"		"0"
				"antialias"	 	"1"
			}
		}
		"ControlPointTimerSmaller"
		{
			"1"
			{
				"name"			"Gravity-Light"
				"tall"			"7"
				"weight"		"400"
				"additive"		"0"
				"antialias" 	"1"
			}
		}

		"Link"
		{
			"1"
			{
				"name"			"Gravity-Light"
				"tall"			"10"
				"weight"		"400"
				"additive"		"0"
				"antialias" 	"1"
			}
		}

		"TargetID"
		{
			"1"
			{
				"name"			"Verdana"
				"tall"			"12"
				"weight"		"700"
				"yres"			"480 599"
				"dropshadow"	"0"
			}
			"2"
			{
				"name"			"Verdana"
				"tall"			"13"
				"weight"		"700"
				"yres"			"600 767"
				"dropshadow"	"0"
			}
			"3"
			{
				"name"			"Verdana"
				"tall"			"14"
				"weight"		"700"
				"yres"			"768 1023"
				"dropshadow"	"0"
			}
			"4"
			{
				"name"			"Verdana"
				"tall"			"20"
				"weight"		"700"
				"yres"			"1024 1199"
				"dropshadow"	"0"
			}
			"5"
			{
				"name"			"Verdana"
				"tall"			"24"
				"weight"		"700"
				"yres"			"1200 10000"
				"dropshadow"	"0"
			}
		}

		"ChatFont"
		{
			"1"
			{
				"name"			"Gravity-Light"
				"tall"			"12"
				"weight"		"700"
				"yres"			"480 599"
				"dropshadow"	"1"
			}
			"2"
			{
				"name"			"Verdana"
				"tall"			"13"
				"weight"		"700"
				"yres"			"600 767"
				"dropshadow"	"1"
			}
			"3"
			{
				"name"			"Verdana"
				"tall"			"14"
				"weight"		"700"
				"yres"			"768 1023"
				"dropshadow"	"1"
			}
			"4"
			{
				"name"			"Verdana"
				"tall"			"20"
				"weight"		"700"
				"yres"			"1024 1199"
				"dropshadow"	"1"
			}
			"5"
			{
				"name"			"Verdana"
				"tall"			"24"
				"weight"		"700"
				"yres"			"1200 10000"
				"dropshadow"	"1"
			}
		}
		"ChatMiniFont"
		{
			"1"
			{
				"name"			"Verdana"
				"tall"			"10"
				"weight"		"700"
				"yres"			"480 599"
				"dropshadow"	"1"
			}
			"2"
			{
				"name"			"Verdana"
				"tall"			"10"
				"weight"		"700"
				"yres"			"600 767"
				"dropshadow"	"1"
			}
			"3"
			{
				"name"			"Verdana"
				"tall"			"13"
				"weight"		"700"
				"yres"			"768 1023"
				"dropshadow"	"1"
			}
			"4"
			{
				"name"			"Verdana"
				"tall"			"14"
				"weight"		"700"
				"yres"			"1024 1199"
				"dropshadow"	"1"
			}
			"5"
			{
				"name"			"Verdana"
				"tall"			"15"
				"weight"		"700"
				"yres"			"1200 10000"
				"dropshadow"	"1"
			}
		}

		MenuSmallestFont
		{
			"1"
			{
				"name"			"Arial Black"
				"tall"			"8"
				"range" 		"0x0000 0x00FF"
				"weight"		"300"
				"antialias"		"1"
			}
		}
		MenuSmallFont
		{
			"1"
			{
				"name"			"Gravity-Light"
				"tall"			"14"
				"range" 		"0x0000 0x00FF"
				"weight"		"300"
				"antialias"		"1"
			}
		}

		CapPlayerFont
		{
			"1"
			{
				"name"			"Gravity-Light"
				"tall"			"12"
				"weight"		"500"
				"range"			"0x0000 0x017F"
				"TextColor"		"Black"
				"antialias" 	"1"
			}
		}
		CapPlayerFontSmall
		{
			"1"
			{
				"name"			"Gravity-Light"
				"tall"			"8"
				"weight"		"500"
				"range"			"0x0000 0x017F"
				"TextColor"		"Black"
				"antialias" 	"1"
			}
		}

		TFFontSmall
		{
			"1"
			{
				"name"			"Verdana"
				"tall"			"8"
				"weight"		"0"
				"additive"		"1"
				"antialias" 	"1"
			}
		}		
		TFFontMedium
		{
			"1"
			{
				"name"			"Verdana"
				"tall"			"9"
				"weight"		"400"
				"additive"		"0"
				"antialias" 	"1"
			}
		}

		InstructionalText
		{
			"1"
			{
				"name"			"Verdana"
				"tall"			"11"  	[!$OSX]
				"tall"			"9"  	[$OSX]
				"weight"		"800"
				"additive"		"0"
				"antialias" 	"1"
			}
		}
		
		MatchmakingDialogTitle
		{
			"1"
			{
				"name"			"Gravity-Light"
				"tall"			"36"
				"weight"		"500"
			}
		}
		MatchmakingDialogSessionOptionsTitle
		{
			"1"
			{
				"name"			"Gravity-Light"
				"tall"			"30"
				"weight"		"500"
			}
		}
		MatchmakingDialogMenuLarge
		{
			"1"
			{
				"name"			"Gravity-Light"
				"tall"			"28"
				"weight"		"500"
			}
		}
		MatchmakingDialogMenuBrowserHostname
		{
			"1"
			{
				"name"			"Trebuchet MS"
				"tall"			"22"
				"weight"		"900"
			}
		}
		MatchmakingDialogMenuBrowserDetails
		{
			"1"
			{
				"name"			"Trebuchet MS"
				"tall"			"18"
				"weight"		"900"
			}
		}		
		MatchmakingDialogMenuMedium
		{
			"1"
			{
				"name"			"Gravity-Light"
				"tall"			"22"
				"weight"		"500"
			}
		}
		MatchmakingDialogMenuMediumSmall
		{
			"1"
			{
				"name"			"Gravity-Light"
				"tall"			"18"
				"weight"		"500"
			}
		}
		MatchmakingDialogMenuSmall
		{
			"1"
			{
				"name"			"Verdana"
				"tall"			"22"
				"weight"		"900"
			}
		}
		MatchmakingDialogMenuSmallest
		{
			"1"
			{
				"name"			"Verdana"
				"tall"			"18"
				"weight"		"900"
			}
		}

		RankingDialogHeaders
		{
			"1"
			{
				"name"			"Verdana"
				"tall"			"15"
				"weight"		"900"
			}
		}

		"TeamMenuBold"
		{
			"1"
			{
				"name"			"Gravity-Light"
				"tall"			"36"
				"weight"		"500"
				"additive"		"0"
				"antialias" 	"1"
			}
		}
		"TeamMenu"
		{
			"1"
			{
				"name"			"Gravity-Light"
				"tall"			"11"
				"weight"		"600"
				"additive"		"0"
				"antialias" 	"1"
			}
		}

		"IntroMenuCaption"
		{
			"1"
			{
				"name"			"Gravity-Light"
				"tall"			"18"
				"weight"		"400"
				"additive"		"0"
				"antialias" 	"1"
			}
		}

		"AchievementNotification"
		{
			"1"
			{
				"name"			"Trebuchet MS"
				"tall"			"14"
				"weight"		"900"
				"antialias" 	"1"
			}
		}

		"ImportToolSmallestBold"
		{
			"1"
			{
				"name"			"Verdana"
				"tall"			"10"
				"weight"		"600"
				"additive"		"0"
				"antialias" 	"1"
			}
		}
		"ImportToolSmallest"
		{
			"1"
			{
				"name"			"Verdana"
				"tall"			"10"
				"weight"		"500"
				"additive"		"0"
				"antialias" 	"1"
			}
		}

		"SpectatorVerySmall"
		{
			"1"
			{
				"name"			"Gravity-Light"
				"tall"			"8"
				"weight"		"400"
				"additive"		"0"
				"antialias"		"1"
			}
		}

		// Used by scoreboard and spectator UI for names which don't map in the normal fashion
		"DefaultVerySmallFallBack"
		{
			"1"
			{
				"name"			"Verdana"
				"tall"			"10"
				"weight"		"0"
				"range"			"0x0000 0x017F"
				"yres"			"480 599"
				"antialias"		"1"
			}
			"2"
			{
				"name"			"Verdana"
				"tall"			"12"
				"weight"		"0"
				"range"			"0x0000 0x017F"
				"yres"			"600 1199"
				"antialias"		"1"
			}
			"3"
			{
				"name"			"Verdana"
				"tall"			"15"
				"weight"		"0"
				"range"			"0x0000 0x017F"
				"yres"			"1200 6000"
				"antialias"		"1"
			}
		}
		
		"ItemFontNameSmallest"
		{
			"1"
			{
				"name"			"Code-Pro-Bold"
				"tall"			"10"
				"weight"		"500"
				"additive"		"0"
				"antialias" 	"1"
			}
		}
		"ItemFontNameSmall"
		{
			"1"
			{
				"name"			"Code-Pro-Bold"
				"tall"			"10"
				"weight"		"500"
				"additive"		"0"
				"antialias" 	"1"
			}
		}
		"ItemFontNameLarge"
		{
			"1"
			{
				"name"			"Code-Pro-Bold"
				"tall"			"12"
				"weight"		"500"
				"additive"		"0"
				"antialias" 	"1"
			}
		}
		"ItemFontNameLarger"
		{
			"1"
			{
				"name"			"Code-Pro-Bold"
				"tall"			"18"
				"weight"		"500"
				"additive"		"0"
				"antialias" 	"1"
			}
		}
		"ItemFontAttribSmallest"
		{
			"1"
			{
				"name"			"Code-Pro-LC"
				"tall"			"8"
				"weight"		"500"
				"additive"		"0"
				"antialias" 	"1"
			}
		}
		ItemFontAttribSmallv2
		{
			"1"
			{
				"name"			"Code-Pro-LC"
				"tall"			"8"
				"antialias" 	"1"
				"weight"		"500"
			}
		}
		"ItemFontAttribSmall"
		{
			"1"
			{
				"name"			"Code-Pro-LC"
				"tall"			"8"
				"weight"		"500"
				"additive"		"0"
				"antialias" 	"1"
			}
		}
		"ItemFontAttribLarge"
		{
			"1"
			{
				"name"			"Code-Pro-LC"
				"tall"			"11"
				"weight"		"500"
				"additive"		"0"
				"antialias" 	"1"
			}
		}
		"ItemFontAttribLarger"
		{
			"1"
			{
				"name"			"Code-Pro-LC"
				"tall"			"14"
				"weight"		"500"
				"additive"		"0"
				"antialias" 	"1"
			}
		}
		"ItemMeterFontSmall"
		{
			"1"
			{
				"name"			"Code-Pro-LC"
				"tall"			"6"
				"weight"		"500"
				"additive"		"0"
				"antialias" 	"1"
			}
		}

		"AchievementTracker_Name"
		{
			"1"
			{
				"name"			"Gravity-Light"
				"tall"			"9"
				"weight"		"500"
				"additive"		"0"
				"antialias" 	"1"
			}
		}
		"AchievementTracker_NameGlow"
		{
			"1"
			{
				"name"			"Gravity-Light"
				"tall"			"9"
				"weight"		"500"
				"blur"			"3"
				"additive"		"1"
				"antialias" 	"1"
				"custom"		"1"
			}
		}
		"AchievementTracker_Desc"
		{
			"1"
			{
				"name"			"Verdana"
				"tall"			"7"
				"weight"		"0"
				"additive"		"1"
				"antialias" 	"1"
			}
		}

		"QuestObjectiveTracker_Desc"
		{
			"1"
			{
				"name"			"Verdana"
				"tall"			"7"
				"weight"		"0"
				"additive"		"1"
				"antialias" 	"1"
			}
		}
		"QuestObjectiveTracker_DescGlow"
		{
			"1"
			{
				"name"			"Verdana"
				"tall"			"7"
				"weight"		"0"
				"antialias" 	"1"
			}
		}
		"QuestObjectiveTracker_DescBlur"
		{
			"1"
			{
				"name"			"Verdana"
				"tall"			"7"
				"weight"		"0"
				"blur"			"3"
				"additive"		"1"
				"antialias" 	"1"
				"custom"		"1"
			}
		}

		"ItemTrackerScore_InGame"
		{
			"1"
			{
				"name"			"Verdana"
				"tall"			"7"
				"weight"		"0"
				"antialias" 	"1"
			}
		}

		"QuestFlavorText"
		{
			"1"
			{
				"name"			"ocra"
				"tall"			"10"
				"weight"		"400"
				"yres"			"480 599"
				"additive"		"0"
				"antialias"		"1"
			}
			"2"
			{
				"name"			"ocra"
				"tall"			"14"
				"weight"		"400"
				"additive"		"0"
				"yres"			"600 1023"
				"antialias"		"1"
			}
			"3"
			{
				"name"			"ocra"
				"tall"			"18"
				"weight"		"400"
				"additive"		"0"
				"yres"			"1024 6000"
				"antialias"		"1"
			}
		}
		"QuestObjectiveText"
		{
			"1"
			{
				"name"			"ocra"
				"tall"			"10"
				"weight"		"800"
				"yres"			"480 599"
				"additive"		"0"
				"antialias"		"1"
			}
			"2"
			{
				"name"			"ocra"
				"tall"			"14"
				"weight"		"800"
				"additive"		"0"
				"yres"			"600 1023"
				"antialias"		"1"
			}
			"3"
			{
				"name"			"ocra"
				"tall"			"18"
				"weight"		"800"
				"additive"		"0"
				"yres"			"1024 6000"
				"antialias"		"1"
			}
		}
		"QuestLargeText"
		{
			"1"
			{
				"name"			"ocra"
				"tall"			"16"
				"weight"		"400"
				"additive"		"0"
				"antialias" 	"1"
			}
		}
		"QuestStickyText"
		{
			"1"
			{
				"name"			"TF2 Professor"
				"tall"			"20"
				"antialias" 	"1"
				"custom"		"1" [$OSX]
				"weight"		"500"
			}
		}
		"QuestInstructionText_Merasmus"
		{
			"1"
			{
				"name"			"TF2 Secondary"
				"tall"			"10"
				"weight"		"400"
				"yres"			"480 599"
				"additive"		"0"
				"antialias"		"1"
			}
			"2"
			{
				"name"			"TF2 Secondary"
				"tall"			"14"
				"weight"		"400"
				"additive"		"0"
				"yres"			"600 1023"
				"antialias"		"1"
			}
			"3"
			{
				"name"			"TF2 Secondary"
				"tall"			"22"
				"weight"		"400"
				"additive"		"0"
				"yres"			"1024 6000"
				"antialias"		"1"
			}
		}
		"QuestFlavorText_Merasmus"
		{
			"1"
			{
				"name"			"TF2 Secondary"
				"tall"			"10"
				"weight"		"400"
				"yres"			"480 599"
				"additive"		"0"
				"antialias"		"1"
				"italic"		"1"
			}
			"2"
			{
				"name"			"TF2 Secondary"
				"tall"			"14"
				"weight"		"400"
				"additive"		"0"
				"yres"			"600 1023"
				"antialias"		"1"
				"italic"		"1"
			}
			"3"
			{
				"name"			"TF2 Secondary"
				"tall"			"22"
				"weight"		"400"
				"additive"		"0"
				"yres"			"1024 6000"
				"antialias"		"1"
				"italic"		"1"
			}
		}
		"QuestObjectiveText_Merasmus"
		{
			"1"
			{
				"name"			"TF2 Secondary"
				"tall"			"10"
				"weight"		"800"
				"yres"			"480 599"
				"additive"		"0"
				"antialias"		"1"
			}
			"2"
			{
				"name"			"TF2 Secondary"
				"tall"			"14"
				"weight"		"800"
				"additive"		"0"
				"yres"			"600 1023"
				"antialias"		"1"
			}
			"3"
			{
				"name"			"TF2 Secondary"
				"tall"			"18"
				"weight"		"800"
				"additive"		"0"
				"yres"			"1024 6000"
				"antialias"		"1"
			}
		}
		"QuestMediumText_Merasmus"
		{
			"1"
			{
				"name"			"TF2 Secondary"
				"tall"			"13"
				"weight"		"400"
				"additive"		"0"
				"antialias" 	"1"
			}
		}
		"QuestLargeText_Merasmus"
		{
			"1"
			{
				"name"			"TF2 Secondary"
				"tall"			"16"
				"weight"		"400"
				"additive"		"0"
				"antialias" 	"1"
			}
		}

		"AdFont_ItemName"
		{
			"1"
			{
				"name"			"TF2 Secondary"
				"tall"			"10"
				"weight"		"400"
				"additive"		"0"
				"antialias" 	"1"
			}
		}	
		"AdFont_AdText"
		{
			"1"
			{
				"name"			"Verdana"
				"tall"			"8"
				"weight"		"400"
				"additive"		"0"
				"antialias"	 	"1"
			}
		}
		"AdFont_PurchaseButton"
		{
			"1"
			{
				"name"			"Verdana"
				"tall"			"8"
				"weight"		"0"
				"antialias" 	"1"
			}
		}

		"TradeUp_Text"
		{
			"1"
			{
				"name"			"Verdana"
				"tall"			"8"
				"weight"		"400"
				"antialias"		"1"
				"additive"		"0"
			}
		}
		"TradeUp_Quote"
		{
			"1"
			{
				"name"			"Trebuchet MS"
				"tall"			"9"
				"weight"		"400"
				"antialias" 	"1"
				"additive"		"0"
				"italic"		"1"
			}
		}

		//////////////////// REPLAY FONTS //////////////////////////////
		"ReplayVerySmall"
		{
			"1"
			{
				"name"			"Verdana"
				"tall"			"12"
				"weight"		"0"
				"range"			"0x0000 0x017F"
				"yres"			"480 599"
			}
			"2"
			{
				"name"			"Verdana"
				"tall"			"12"
				"weight"		"0"
				"range"			"0x0000 0x017F"
				"yres"			"600 767"
			}
			"3"
			{
				"name"			"Verdana"
				"tall"			"12"
				"weight"		"0"
				"range"			"0x0000 0x017F"
				"yres"			"768 1023"
				"antialias"		"1"
			}
			"4"
			{
				"name"			"Verdana"
				"tall"			"14"
				"weight"		"0"
				"range"			"0x0000 0x017F"
				"yres"			"1024 1199"
				"antialias"		"1"
			}
			"5"
			{
				"name"			"Verdana"
				"tall"			"16"
				"weight"		"0"
				"range"			"0x0000 0x017F"
				"yres"			"1200 6000"
				"antialias"		"1"
			}
		}
		"ReplayBrowserSmallest"
		{
			"1"
			{
				"name"			"Gravity-Light"
				"tall"			"11"
				"weight"		"500"
				"additive"		"0"
				"antialias" 	"1"
			}
		}
		"ReplaySmaller"
		{
			"1"
			{
				"name"			"Verdana"
				"tall"			"12"
				"weight"		"0"
				"range"			"0x0000 0x017F"
				"yres"			"480 599"
			}
			"2"
			{
				"name"			"Verdana"
				"tall"			"13"
				"weight"		"0"
				"range"			"0x0000 0x017F"
				"yres"			"600 767"
			}
			"3"
			{
				"name"			"Verdana"
				"tall"			"14"
				"weight"		"0"
				"range"			"0x0000 0x017F"
				"yres"			"768 1023"
				"antialias"		"1"
			}
			"4"
			{
				"name"			"Verdana"
				"tall"			"20"
				"weight"		"0"
				"range"			"0x0000 0x017F"
				"yres"			"1024 1199"
				"antialias"		"1"
			}
			"5"
			{
				"name"			"Verdana"
				"tall"			"22"
				"weight"		"0"
				"range"			"0x0000 0x017F"
				"yres"			"1200 6000"
				"antialias"		"1"
			}
			"6"
			{
				"name"			"Arial"
				"tall"			"12"
				"range" 		"0x0000 0x00FF"
				"weight"		"0"
			}
		}
		"ReplayMediumSmall"
		{
			"1"
			{
				"name"			"Gravity-Light"
				"tall"			"11"
				"weight"		"500"
				"additive"		"0"
				"antialias" 	"1"
			}
		}
		"ReplayMedium"
		{
			"1"
			{
				"name"			"Gravity-Light"
				"tall"			"14"
				"weight"		"500"
				"additive"		"0"
				"antialias" 	"1"
			}
		}
		"ReplayMediumBig"
		{
			"1"
			{
				"name"			"Gravity-Light"
				"tall"			"18"
				"weight"		"500"
				"additive"		"0"
				"antialias" 	"1"
			}
		}
		"ReplayBrowserTab"
		{
			"1"
			{
				"name"			"Gravity-Light"
				"tall"			"24"
				"weight"		"500"
				"additive"		"0"
				"antialias" 	"1"
			}
		}
		"ReplayLarger"
		{
			"1"
			{
				"name"			"Gravity-Light"
				"tall"			"18"
				"weight"		"500"
				"additive"		"0"
				"antialias" 	"1"
			}
		}

		//////////////////// ECON FONTS //////////////////////////////
		"EconFontSmall"
		{
			"1"
			{
				"name"			"Gravity-Light"
				"tall"			"14"
				"weight"		"500"
				"additive"		"0"
				"antialias" 	"1"
			}
		}
		"EconFontMedium"
		{
			"1"
			{
				"name"			"Gravity-Light"
				"tall"			"24"
				"weight"		"500"
				"additive"		"0"
				"antialias" 	"1"
			}
		}

		ControllerHintText
		{
			"1"
			{
				"name"			"Gravity-Light"
				"tall"			"15"
				"weight"		"500"
				"range"			"0x0000 0x007F"
				"antialias" 	"1"
				"additive"		"0"
			}
		}

		"MMenuPlayListDesc"
		{
			"1"
			{
				"name"			"Gravity-Light"
				"tall"			"9"
				"weight"		"400"
				"additive"		"0"
				"antialias" 	"1"
			}
		}

		"XPSource"
		{
			"1"
			{
				"name"			"Gravity-Light"
				"tall"			"11"
				"weight"		"500"
				"antialias" 	"1"
				"custom"		"1"
			}
		}
		"XPSource_Glow"
		{
			"1"
			{
				"name"			"Gravity-Light"
				"tall"			"11"
				"weight"		"500"
				"blur"			"3"
				"additive"		"1"
				"antialias" 	"1"
			}
		}

		"MapVotesPercentage"
		{
			"1"
			{
				"name"			"Gravity-Light"
				"tall"			"12"
				"weight"		"500"
				"additive"		"0"
				"antialias" 	"1"
				"dropshadow"	"1"
			}
		}
		
		"QuestMap_Small_Blur"
		{
			"1"
			{
				"name"			"Code-Pro-LC"
				"tall"			"7"
				"weight"		"0"
				"blur"			"3"
				"additive"		"1"
				"antialias" 	"1"
			}
		}
		"QuestMap_Small"
		{
			"1"
			{
				"name"			"Code-Pro-LC"
				"tall"			"7"
				"weight"		"400"
				"additive"		"0"
				"antialias" 	"1"
			}
		}
		"QuestMap_Medium"
		{
			"1"
			{
				"name"			"Code-Pro-LC"
				"tall"			"10"
				"weight"		"400"
				"additive"		"0"
				"antialias" 	"1"
			}
		}
		"QuestMap_Large"
		{
			"1"
			{
				"name"			"Code-Pro-LC"
				"tall"			"14"
				"weight"		"400"
				"additive"		"0"
				"antialias" 	"1"
			}
		}
		"QuestMap_Huge"
		{
			"1"
			{
				"name"			"Code-Pro-LC"
				"tall"			"30"
				"weight"		"400"
				"additive"		"0"
				"antialias" 	"1"
			}
		}
	}
}