"Resource/UI/CharInfoLoadoutSubPanel.res"
{
	"CharInfoLoadoutSubPanel"
	{
		"ControlName"	"Frame"
		"fieldName"		"CharInfoLoadoutSubPanel"
		"xpos"			"0"
		"ypos"			"0"
		"wide"			"f0"
		"tall"			"480"
		"autoResize"	"0"
		"pinCorner"		"0"
		"visible"		"0"
		"enabled"		"1"
		"tabPosition"	"0"
		"settitlebarvisible"	"0"
		"PaintBackgroundType"	"0"
		"bgcolor_override"				"DarkGrey"
		"infocus_bgcolor_override" 		"DarkGrey"
		"outoffocus_bgcolor_override" 	"DarkGrey"
		
		"selectlabely_default"		"0"
		"selectlabely_onchanges"	"0"
		
		"class_ypos"				"70"
		"class_xdelta"				"10"
		"class_wide_min"			"60"
		"class_wide_max"			"60"
		"class_tall_min"			"30"
		"class_tall_max"			"30"
		"class_distance_min"		"7"
		"class_distance_max"		"100"

		"itemcountcolor"			"200 80 60 255"
		"itemcountcolor_noitems"	"117 107 94 255"
	}

	"scout"
	{
		"ControlName"		"ImageButton"
		"fieldName"			"scout"
		"xpos"				"c-290"
		"ypos"				"60"
		"zpos"				"6"
		"wide"				"60"
		"tall"				"60"
		"autoResize"		"0"
		"pinCorner"			"2"
		"visible"			"1"
		"enabled"			"1"
		"tabPosition"		"0"
		"labelText"			""
		"textAlignment"		"south-west"
		"Command"			"loadout scout"
		"Default"			"0"
		"font"				"MenuKeys"
		"scaleImage"		"1"
		"activeimage"		""
		"inactiveimage"		""
		"sound_depressed"	"UI/buttonclick.wav"
		"sound_released"	"UI/buttonclickrelease.wav"
	}
	"CustomScout"
	{
		"ControlName"	"CExImageButton"
		"fieldName"		"CustomScout"
		"xpos"			"c-310"
		"ypos"			"135"
		"zpos"			"10"
		"wide"			"60"
		"tall"			"60"
		"autoResize"	"0"
		"pinCorner"		"3"
		"visible"		"1"
		"enabled"		"1"
		"tabPosition"	"0"
		"labelText"		"a"
		"font"			"ClassIcons"
		"textAlignment"	"center"
		"textinsetx"	"0"
		"use_proportional_insets" "1"
		"dulltext"		"0"
		"brighttext"	"0"
		"default"		"0"
		"paintbackground" "0"
		"Command"		"loadout scout"

		// default style
		"defaultBgColor_override"	"DarkGrey"
		"defaultFgColor_override" 	"White"

		// armed style
		"armedBgColor_override"		"DarkGrey"
		"armedFgColor_override" 	"Blue"
    
		// depressed style    
		"depressedBgColor_override"	"DarkGrey"
		"depressedFgColor_override" "Blue"
		
		"image_drawcolor"	"235 226 202 255"	
	}

	"soldier"
	{
		"ControlName"		"ImageButton"
		"fieldName"			"soldier"
		"xpos"				"c-290"
		"ypos"				"60"
		"zpos"				"6"
		"wide"				"60"
		"tall"				"60"
		"autoResize"		"0"
		"pinCorner"			"2"
		"visible"			"1"
		"enabled"			"1"
		"tabPosition"		"0"
		"labelText"			""
		"textAlignment"		"south-west"
		"Command"			"loadout soldier"
		"Default"			"0"
		"font"				"MenuKeys"
		"scaleImage"		"1"
		"activeimage"		""
		"inactiveimage"		""
		"sound_depressed"	"UI/buttonclick.wav"
		"sound_released"	"UI/buttonclickrelease.wav"
	}
	"CustomSoldier"
	{
		"ControlName"	"CExImageButton"
		"fieldName"		"CustomSoldier"
		"xpos"			"c-240"
		"ypos"			"135"
		"zpos"			"10"
		"wide"			"60"
		"tall"			"60"
		"autoResize"	"0"
		"pinCorner"		"3"
		"visible"		"1"
		"enabled"		"1"
		"tabPosition"	"0"
		"labelText"		"b"
		"font"			"ClassIcons"
		"textAlignment"	"center"
		"textinsetx"	"0"
		"use_proportional_insets" "1"
		"dulltext"		"0"
		"brighttext"	"0"
		"default"		"0"
		"paintbackground" "0"
		"Command"		"loadout soldier"

		"fgcolor_override"			"White"

		// default style
		"defaultBgColor_override"	"DarkGrey"
		"defaultFgColor_override" 	"White"

		// armed style
		"armedBgColor_override"		"DarkGrey"
		"armedFgColor_override" 	"Blue"

		// depressed style    
		"depressedBgColor_override"	"DarkGrey"
		"depressedFgColor_override" "Blue"

		"image_drawcolor"	"235 226 202 255"		
	}

	"pyro"
	{
		"ControlName"		"ImageButton"
		"fieldName"			"pyro"
		"xpos"				"c-240"
		"ypos"				"60"
		"zpos"				"6"
		"wide"				"60"
		"tall"				"60"
		"autoResize"		"0"
		"pinCorner"			"2"
		"visible"			"1"
		"enabled"			"1"
		"tabPosition"		"0"
		"labelText"			""
		"textAlignment"		"south-west"
		"Command"			"loadout pyro"
		"Default"			"0"
		"font"				"MenuKeys"
		"scaleImage"		"1"
		"activeimage"		""
		"inactiveimage"		""
		"sound_depressed"	"UI/buttonclick.wav"
		"sound_released"	"UI/buttonclickrelease.wav"
	}
	"CustomPyro"
	{
		"ControlName"	"CExImageButton"
		"fieldName"		"CustomPyro"
		"xpos"			"c-170"
		"ypos"			"135"
		"zpos"			"10"
		"wide"			"60"
		"tall"			"60"
		"autoResize"	"0"
		"pinCorner"		"3"
		"visible"		"1"
		"enabled"		"1"
		"tabPosition"	"0"
		"labelText"		"c"
		"font"			"ClassIcons"
		"textAlignment"	"center"
		"textinsetx"	"0"
		"use_proportional_insets" "1"
		"dulltext"		"0"
		"brighttext"	"0"
		"default"		"0"
		"paintbackground" "0"
		"Command"		"loadout pyro"

		"fgcolor_override"			"White"

		// default style
		"defaultBgColor_override"	"DarkGrey"
		"defaultFgColor_override" 	"White"

		// armed style
		"armedBgColor_override"		"DarkGrey"
		"armedFgColor_override" 	"Blue"

		// depressed style    
		"depressedBgColor_override"	"DarkGrey"
		"depressedFgColor_override" "Blue"

		"image_drawcolor"	"235 226 202 255"			
	}

	"demoman"
	{
		"ControlName"		"ImageButton"
		"fieldName"			"demoman"
		"xpos"				"c-110"
		"ypos"				"60"
		"zpos"				"6"
		"wide"				"60"
		"tall"				"60"
		"autoResize"		"0"
		"pinCorner"			"2"
		"visible"			"1"
		"enabled"			"1"
		"tabPosition"		"0"
		"labelText"			""
		"textAlignment"		"south-west"
		"Command"			"loadout demoman"
		"Default"			"0"
		"font"				"MenuKeys"
		"scaleImage"		"1"
		"activeimage"		""
		"inactiveimage"		""
		"sound_depressed"	"UI/buttonclick.wav"
		"sound_released"	"UI/buttonclickrelease.wav"
	}
	"CustomDemo"
	{
		"ControlName"	"CExImageButton"
		"fieldName"		"CustomDemo"
		"xpos"			"c-100"
		"ypos"			"135"
		"zpos"			"10"
		"wide"			"60"
		"tall"			"60"
		"autoResize"	"0"
		"pinCorner"		"3"
		"visible"		"1"
		"enabled"		"1"
		"tabPosition"	"0"
		"labelText"		"d"
		"font"			"ClassIcons"
		"textAlignment"	"center"
		"textinsetx"	"0"
		"use_proportional_insets" "1"
		"dulltext"		"0"
		"brighttext"	"0"
		"default"		"0"
		"paintbackground" "0"
		"Command"		"loadout demoman"

		"fgcolor_override"			"White"

		// default style
		"defaultBgColor_override"	"DarkGrey"
		"defaultFgColor_override" 	"White"

		// armed style
		"armedBgColor_override"		"DarkGrey"
		"armedFgColor_override" 	"Blue"

		// depressed style    
		"depressedBgColor_override"	"DarkGrey"
		"depressedFgColor_override" "Blue"

		"image_drawcolor"	"235 226 202 255"			
	}

	"heavyweapons"
	{
		"ControlName"		"ImageButton"
		"fieldName"			"heavyweapons"
		"xpos"				"c-60"
		"ypos"				"60"
		"zpos"				"6"
		"wide"				"60"
		"tall"				"60"
		"autoResize"		"0"
		"pinCorner"			"2"
		"visible"			"1"
		"enabled"			"1"
		"tabPosition"		"0"
		"labelText"			""
		"textAlignment"		"south-west"
		"Command"			"loadout heavy"
		"Default"			"0"
		"font"				"MenuKeys"
		"scaleImage"		"1"
		"activeimage"		""
		"inactiveimage"		""
		"sound_depressed"	"UI/buttonclick.wav"
		"sound_released"	"UI/buttonclickrelease.wav"
	}
	"CustomHeavy"
	{
		"ControlName"	"CExImageButton"
		"fieldName"		"CustomHeavy"
		"xpos"			"c-30"
		"ypos"			"135"
		"zpos"			"10"
		"wide"			"60"
		"tall"			"60"
		"autoResize"	"0"
		"pinCorner"		"3"
		"visible"		"1"
		"enabled"		"1"
		"tabPosition"	"0"
		"labelText"		"e"
		"font"			"ClassIcons"
		"textAlignment"	"center"
		"textinsetx"	"0"
		"use_proportional_insets" "1"
		"dulltext"		"0"
		"brighttext"	"0"
		"default"		"0"
		"paintbackground" "0"
		"Command"		"loadout heavy"
		
		"fgcolor_override"			"White"
		
		// default style
		"defaultBgColor_override"	"DarkGrey"
		"defaultFgColor_override" 	"White"

		// armed style
		"armedBgColor_override"		"DarkGrey"
		"armedFgColor_override" 	"Blue"

		// depressed style    
		"depressedBgColor_override"	"DarkGrey"
		"depressedFgColor_override" "Blue"
		
		"image_drawcolor"	"235 226 202 255"
	}

	"engineer"
	{
		"ControlName"		"ImageButton"
		"fieldName"			"engineer"
		"xpos"				"c-10"
		"ypos"				"60"
		"zpos"				"6"
		"wide"				"60"
		"tall"				"60"
		"autoResize"		"0"
		"pinCorner"			"2"
		"visible"			"1"
		"enabled"			"1"
		"tabPosition"		"0"
		"labelText"			""
		"textAlignment"		"south-west"
		"Command"			"loadout engineer"
		"Default"			"0"
		"font"				"MenuKeys"
		"scaleImage"		"1"
		"activeimage"		""
		"inactiveimage"		""
		"sound_depressed"	"UI/buttonclick.wav"
		"sound_released"	"UI/buttonclickrelease.wav"
	}
	"CustomEngi"
	{
		"ControlName"	"CExImageButton"
		"fieldName"		"CustomEngi"
		"xpos"			"c40"
		"ypos"			"135"
		"zpos"			"10"
		"wide"			"60"
		"tall"			"60"
		"autoResize"	"0"
		"pinCorner"		"3"
		"visible"		"1"
		"enabled"		"1"
		"tabPosition"	"0"
		"labelText"		"f"
		"font"			"ClassIcons"
		"textAlignment"	"center"
		"textinsetx"	"0"
		"use_proportional_insets" "1"
		"dulltext"		"0"
		"brighttext"	"0"
		"default"		"0"
		"paintbackground" "0"
		"Command"		"loadout engineer"
		
		"fgcolor_override"			"White"
		
		// default style
		"defaultBgColor_override"	"DarkGrey"
		"defaultFgColor_override" 	"White"

		// armed style
		"armedBgColor_override"		"DarkGrey"
		"armedFgColor_override" 	"Blue"

		// depressed style    
		"depressedBgColor_override"	"DarkGrey"
		"depressedFgColor_override" "Blue"
		
		"image_drawcolor"	"235 226 202 255"
	}
	
	"medic"
	{
		"ControlName"		"ImageButton"
		"fieldName"			"medic"
		"xpos"				"c78"
		"ypos"				"60"
		"zpos"				"6"
		"wide"				"60"
		"tall"				"60"
		"autoResize"		"0"
		"pinCorner"			"2"
		"visible"			"1"
		"enabled"			"1"
		"tabPosition"		"0"
		"labelText"			""
		"textAlignment"		"south-west"
		"Command"			"loadout medic"
		"Default"			"0"
		"font"				"MenuKeys"
		"scaleImage"		"1"
		"activeimage"		""
		"inactiveimage"		""
		"sound_depressed"	"UI/buttonclick.wav"
		"sound_released"	"UI/buttonclickrelease.wav"
	}
	"CustomMedic"
	{
		"ControlName"	"CExImageButton"
		"fieldName"		"CustomMedic"
		"xpos"			"c110"
		"ypos"			"135"
		"zpos"			"10"
		"wide"			"60"
		"tall"			"60"
		"autoResize"	"0"
		"pinCorner"		"3"
		"visible"		"1"
		"enabled"		"1"
		"tabPosition"	"0"
		"labelText"		"g"
		"font"			"ClassIcons"
		"textAlignment"	"center"
		"textinsetx"	"0"
		"use_proportional_insets" "1"
		"dulltext"		"0"
		"brighttext"	"0"
		"default"		"0"
		"paintbackground" "0"
		"Command"		"loadout medic"

		"fgcolor_override"			"White"

		// default style
		"defaultBgColor_override"	"DarkGrey"
		"defaultFgColor_override" 	"White"

		// armed style
		"armedBgColor_override"		"DarkGrey"
		"armedFgColor_override" 	"Blue"
    
		// depressed style    
		"depressedBgColor_override"	"DarkGrey"
		"depressedFgColor_override" "Blue"
		
		"image_drawcolor"	"235 226 202 255"
	}

	"sniper"
	{
		"ControlName"		"ImageButton"
		"fieldName"			"sniper"
		"xpos"				"c128"
		"ypos"				"60"
		"zpos"				"6"
		"wide"				"60"
		"tall"				"60"
		"autoResize"		"0"
		"pinCorner"			"2"
		"visible"			"1"
		"enabled"			"1"
		"tabPosition"		"0"
		"labelText"			""
		"textAlignment"		"south-west"
		"Command"			"loadout sniper"
		"Default"			"0"
		"font"				"MenuKeys"
		"scaleImage"		"1"
		"activeimage"		""
		"inactiveimage"		""
		"sound_depressed"	"UI/buttonclick.wav"
		"sound_released"	"UI/buttonclickrelease.wav"
	}
	"CustomSniper"
	{
		"ControlName"	"CExImageButton"
		"fieldName"		"CustomSniper"
		"xpos"			"c180"
		"ypos"			"135"
		"zpos"			"10"
		"wide"			"60"
		"tall"			"60"
		"autoResize"	"0"
		"pinCorner"		"3"
		"visible"		"1"
		"enabled"		"1"
		"tabPosition"	"0"
		"labelText"		"h"
		"font"			"ClassIcons"
		"textAlignment"	"center"
		"textinsetx"	"0"
		"use_proportional_insets" "1"
		"dulltext"		"0"
		"brighttext"	"0"
		"default"		"0"
		"paintbackground" "0"
		"Command"		"loadout sniper"
		
		"fgcolor_override"			"White"
		
		// default style
		"defaultBgColor_override"	"DarkGrey"
		"defaultFgColor_override" 	"White"
        
		// armed style
		"armedBgColor_override"		"DarkGrey"
		"armedFgColor_override" 	"Blue"
    
		// depressed style    
		"depressedBgColor_override"	"DarkGrey"
		"depressedFgColor_override" "Blue"
		
		"image_drawcolor"	"235 226 202 255"			
	}
	
	"spy"
	{
		"ControlName"		"ImageButton"
		"fieldName"			"spy"
		"xpos"				"c178"
		"ypos"				"60"
		"zpos"				"6"
		"wide"				"60"
		"tall"				"60"
		"autoResize"		"0"
		"pinCorner"			"2"
		"visible"			"1"
		"enabled"			"1"
		"tabPosition"		"0"
		"labelText"			""
		"textAlignment"		"south-west"
		"Command"			"loadout spy"
		"Default"			"0"
		"font"				"MenuKeys"
		"scaleImage"		"1"
		"activeimage"		""
		"inactiveimage"		""
		"sound_depressed"	"UI/buttonclick.wav"
		"sound_released"	"UI/buttonclickrelease.wav"
	}
	"CustomSpy"
	{
		"ControlName"	"CExImageButton"
		"fieldName"		"CustomSpy"
		"xpos"			"c248"
		"ypos"			"135"
		"zpos"			"10"
		"wide"			"60"
		"tall"			"60"
		"autoResize"	"0"
		"pinCorner"		"3"
		"visible"		"1"
		"enabled"		"1"
		"tabPosition"	"0"
		"labelText"		"i"
		"font"			"ClassIcons"
		"textAlignment"	"center"
		"textinsetx"	"0"
		"use_proportional_insets" "1"
		"dulltext"		"0"
		"brighttext"	"0"
		"default"		"0"
		"paintbackground" "0"
		"Command"		"loadout spy"
		
		"fgcolor_override"			"White"
		
		// default style
		"defaultBgColor_override"	"DarkGrey"
		"defaultFgColor_override" 	"White"
        
		// armed style
		"armedBgColor_override"		"DarkGrey"
		"armedFgColor_override" 	"Blue"
    
		// depressed style    
		"depressedBgColor_override"	"DarkGrey"
		"depressedFgColor_override" "Blue"
		
		"image_drawcolor"	"235 226 202 255"			
	}
	
	"ShowBackpackButton"
	{
		"ControlName"		"ImageButton"
		"fieldName"			"ShowBackpackButton"
		"xpos"				"c-290"
		"ypos"				"235"
		"zpos"				"6"
		"wide"				"60"
		"tall"				"60"
		"autoResize"		"0"
		"pinCorner"			"0"
		"visible"			"1"
		"enabled"			"1"
		"tabPosition"		"0"
		"labelText"			""
		"textAlignment"		"south-west"
		"Command"			"backpack"
		"Default"			"0"
		"font"				"MenuKeys"
		"scaleImage"		"1"
		"activeimage"		"..\hud\backpack_01"
		"inactiveimage"		"..\hud\backpack_01_grey"
		"sound_depressed"	"UI/buttonclick.wav"
		"sound_released"	"UI/buttonclickrelease.wav"
	}	
	"ShowBackpackLabel"
	{
		"ControlName"	"CExLabel"
		"fieldName"		"ShowBackpackLabel"
		"font"			"G_FontSmall"
		"labelText"		"#BackpackTitle"
		"textAlignment"	"north"
		"xpos"			"0"
		"ypos"			"5"
		"zpos"			"7"
		"wide"			"120"
		"tall"			"20"
		"autoResize"	"0"
		"pinCorner"		"0"
		"visible"		"1"
		"enabled"		"1"

		"pin_to_sibling"               "ShowBackpackButton"
		"pin_corner_to_sibling"        "4"          
		"pin_to_sibling_corner"        "6"  
	}
	"ShowCraftingButton"
	{
		"ControlName"		"ImageButton"
		"fieldName"			"ShowCraftingButton"
		"xpos"				"c-160"
		"ypos"				"235"
		"zpos"				"6"
		"wide"				"60"
		"tall"				"60"
		"autoResize"		"0"
		"pinCorner"			"0"
		"visible"			"1"
		"enabled"			"1"
		"tabPosition"		"0"
		"labelText"			""
		"textAlignment"		"south-west"
		"Command"			"crafting"
		"Default"			"0"
		"font"				"MenuKeys"
		"scaleImage"		"1"
		"activeimage"		"crafting_anvil"
		"inactiveimage"		"crafting_anvil_gray"
		"sound_depressed"	"UI/buttonclick.wav"
		"sound_released"	"UI/buttonclickrelease.wav"
	}
	"ShowCraftingLabel"
	{
		"ControlName"	"CExLabel"
		"fieldName"		"ShowCraftingLabel"
		"font"			"G_FontSmall"
		"labelText"		"#CraftingExplanation_Title"
		"textAlignment"	"north"
		"xpos"			"0"
		"ypos"			"5"
		"zpos"			"7"
		"wide"			"120"
		"tall"			"20"
		"autoResize"	"0"
		"pinCorner"		"0"
		"visible"		"1"
		"enabled"		"1"

		"pin_to_sibling"               "ShowCraftingButton"
		"pin_corner_to_sibling"        "4"          
		"pin_to_sibling_corner"        "6"  
	}	
	"ShowArmoryButton"
	{
		"ControlName"		"ImageButton"
		"fieldName"			"ShowArmoryButton"
		"xpos"				"c-30"
		"ypos"				"235"
		"zpos"				"6"
		"wide"				"60"
		"tall"				"60"
		"autoResize"		"0"
		"pinCorner"			"0"
		"visible"			"1"
		"enabled"			"1"
		"tabPosition"		"0"
		"labelText"			""
		"textAlignment"		"south-west"
		"Command"			"armory"
		"Default"			"0"
		"font"				"MenuKeys"
		"scaleImage"		"1"
		"activeimage"		"catalog_book"
		"inactiveimage"		"catalog_book_gray"
		"sound_depressed"	"UI/buttonclick.wav"
		"sound_released"	"UI/buttonclickrelease.wav"
	}	
	"ShowArmoryLabel"
	{
		"ControlName"	"CExLabel"
		"fieldName"		"ShowArmoryLabel"
		"font"			"G_FontSmall"
		"labelText"		"#Armory"
		"textAlignment"	"north"
		"xpos"			"0"
		"ypos"			"5"
		"zpos"			"7"
		"wide"			"120"
		"tall"			"20"
		"autoResize"	"0"
		"pinCorner"		"0"
		"visible"		"1"
		"enabled"		"1"

		"pin_to_sibling"               "ShowArmoryButton"
		"pin_corner_to_sibling"        "4"          
		"pin_to_sibling_corner"        "6" 
	}
	"ShowTradeButton"
	{
		"ControlName"		"ImageButton"
		"fieldName"			"ShowTradeButton"
		"xpos"				"c100"
		"ypos"				"235"
		"zpos"				"6"
		"wide"				"60"
		"tall"				"60"
		"autoResize"		"0"
		"pinCorner"			"0"
		"visible"			"1"
		"enabled"			"1"
		"tabPosition"		"0"
		"labelText"			""
		"textAlignment"		"south-west"
		"Command"			"trading"
		"Default"			"0"
		"font"				"MenuKeys"
		"scaleImage"		"1"
		"activeimage"		"trading_parcel"
		"inactiveimage"		"trading_parcel_gray"
		"sound_depressed"	"UI/buttonclick.wav"
		"sound_released"	"UI/buttonclickrelease.wav"
	}	
	"ShowTradeLabel"
	{
		"ControlName"	"CExLabel"
		"fieldName"		"ShowTradeLabel"
		"font"			"G_FontSmall"
		"labelText"		"#TradingExplanation_Title"
		"textAlignment"	"north"
		"xpos"			"0"
		"ypos"			"5"
		"zpos"			"7"
		"wide"			"120"
		"tall"			"20"
		"autoResize"	"0"
		"pinCorner"		"0"
		"visible"		"1"
		"enabled"		"1"
		"wrap"			"0"

		"pin_to_sibling"               "ShowTradeButton"
		"pin_corner_to_sibling"        "4"          
		"pin_to_sibling_corner"        "6" 
	}

	"ShowPaintkitsButton"
	{
		"ControlName"		"ImageButton"
		"fieldName"			"ShowPaintkitsButton"
		"xpos"				"c230"
		"ypos"				"235"
		"zpos"				"6"
		"wide"				"60"
		"tall"				"60"
		"autoResize"		"0"
		"pinCorner"			"0"
		"visible"			"1"
		"enabled"			"1"
		"tabPosition"		"0"
		"labelText"			""
		"textAlignment"		"south-west"
		"Command"			"paintkit_preview"
		"Default"			"0"
		"font"				"MenuKeys"
		"scaleImage"		"1"
		"activeimage"		"paintkit_tool"
		"inactiveimage"		"paintkit_tool_bw"
		"sound_depressed"	"UI/buttonclick.wav"
		"sound_released"	"UI/buttonclickrelease.wav"
	}	
	"ShowPaintkitsLabel"
	{
		"ControlName"	"CExLabel"
		"fieldName"		"ShowPaintkitsLabel"
		"font"			"G_FontSmall"
		"labelText"		"#PaintkitTitle"
		"textAlignment"	"north"
		"xpos"			"0"
		"ypos"			"5"
		"zpos"			"7"
		"wide"			"120"
		"tall"			"20"
		"autoResize"	"0"
		"pinCorner"		"0"
		"visible"		"1"
		"enabled"		"1"
		"wrap"			"0"

		"pin_to_sibling"               "ShowPaintkitsButton"
		"pin_corner_to_sibling"        "4"          
		"pin_to_sibling_corner"        "6" 
	}
	
	"ClassLabel"
	{
		"ControlName"	"Label"
		"fieldName"		"ClassLabel"
		"font"			"LightGravity14"
		"labelText"		"classname"
		"textAlignment"	"north"
		"xpos"			"9999"
		"ypos"			"9999"
		"zpos"			"1"
		"wide"			"300"
		"tall"			"30"
		"autoResize"	"0"
		"pinCorner"		"0"
		"visible"		"0"
		"enabled"		"0"
	}
	"ItemsLabel"
	{
		"ControlName"	"CExLabel"
		"fieldName"		"ItemsLabel"
		"font"			"LightGravity10"
		"labelText"		"classname"
		"textAlignment"	"north"
		"xpos"			"0"
		"ypos"			"215"
		"zpos"			"1"
		"wide"			"300"
		"tall"			"30"
		"autoResize"	"0"
		"pinCorner"		"0"
		"visible"		"0"
		"enabled"		"1"
		"fgcolor"		"0 0 0 100"
		"centerwrap"	"1"
	}
	
	"NoSteamLabel"
	{
		"ControlName"	"CExLabel"
		"fieldName"		"NoSteamLabel"
		"font"			"LightGravity12"
		"labelText"		"#NoSteamNoItems"
		"textAlignment"	"north"
		"xpos"			"0"
		"ypos"			"250"
		"zpos"			"1"
		"wide"			"f0"
		"tall"			"30"
		"autoResize"	"0"
		"pinCorner"		"0"
		"visible"		"0"
		"enabled"		"1"
		"fgcolor_override" "Yellow"
	}
	"NoGCLabel"
	{
		"ControlName"	"CExLabel"
		"fieldName"		"NoGCLabel"
		"font"			"LightGravity12"
		"labelText"		"#NoGCNoItems"
		"textAlignment"	"north"
		"xpos"			"0"
		"ypos"			"250"
		"zpos"			"1"
		"wide"			"f0"
		"tall"			"30"
		"autoResize"	"0"
		"pinCorner"		"0"
		"visible"		"0"
		"enabled"		"1"
		"fgcolor_override" "Yellow"
	}
	"SelectLabel"
	{
		"ControlName"	"CExLabel"
		"fieldName"		"SelectLabel"
		"font"			"G_FontSmall"
		"labelText"		"#SelectClassLoadout"
		"textAlignment"	"center"
		"xpos"			"9999"
		"ypos"			"9999"
		"zpos"			"1"
		"wide"			"f0"
		"tall"			"30"
		"autoResize"	"0"
		"pinCorner"		"0"
		"visible"		"1"
		"enabled"		"1"
		"fgcolor_override" "DarkGrey"
	}
	"LoadoutChangesLabel"
	{
		"ControlName"	"CExLabel"
		"fieldName"		"LoadoutChangesLabel"
		"font"			"LightGravity10"
		"labelText"		"#LoadoutChangesUpdate"
		"textAlignment"	"north"
		"xpos"			"0"
		"ypos"			"35"
		"zpos"			"1"
		"wide"			"f0"
		"tall"			"30"
		"autoResize"	"0"
		"pinCorner"		"0"
		"visible"		"1"
		"enabled"		"1"
		"fgcolor_override" "Yellow"
	}
	
	"class_loadout_panel"
	{
		"ControlName"		"CClassLoadoutPanel"
		"fieldName"			"class_loadout_panel"
		"xpos"				"0"
		"ypos"				"0"
		"wide"				"f0"
		"tall"				"400"
		"zpos"				"500"
		"visible"			"0"
	}
	"backpack_panel"
	{
		"ControlName"		"CBackpackPanel"
		"fieldName"			"backpack_panel"
		"xpos"				"0"
		"ypos"				"0"
		"wide"				"f0"
		"tall"				"400"
		"zpos"				"500"
		"visible"			"0"
	}

	"ShowExplanationsButton"
	{
		"ControlName"	"CExButton"
		"fieldName"		"ShowExplanationsButton"
		"xpos"			"9999"
		"ypos"			"9999"
		"zpos"			"100"
		"wide"			"20"
		"tall"			"20"
		"autoResize"	"0"
		"pinCorner"		"0"
		"visible"		"0"
		"enabled"		"0"
		"tabPosition"	"0"
		"labelText"		"?"
		"font"			"HudFontSmallBold"
		"textAlignment"	"center"
		"dulltext"		"0"
		"brighttext"	"0"
		"default"		"0"
		"Command"		"show_explanations"
		"sound_depressed"	"UI/buttonclick.wav"
		"sound_released"	"UI/buttonclickrelease.wav"
	}
	
	"StartExplanation"
	{
		"ControlName"	"CExplanationPopup"
		"fieldName"		"StartExplanation"
		"xpos"			"0"
		"ypos"			"0"
		"zpos"			"10000"
		"wide"			"250"
		"tall"			"140"
		"visible"		"0"
		"PaintBackgroundType"	"2"
		"paintbackground" "0"
		"border"		"MainMenuHighlightBorder"
		
		"force_close"	"1"
		"end_x"			"c-150"
		"end_y"			"190"
		"end_wide"		"300"
		"end_tall"		"155"
		"callout_inparents_x"	"c0"
		"callout_inparents_y"	"150"
		"next_explanation"		"BackpackExplanation"
		
		"TitleLabel"
		{
			"ControlName"	"CExLabel"
			"fieldName"		"TitleLabel"
			"font"			"HudFontSmallBold"
			"labelText"		"#LoadoutExplanation_Title"
			"textAlignment"	"north"
			"xpos"			"20"
			"ypos"			"10"
			"wide"			"260"
			"tall"			"30"
			"autoResize"	"0"
			"pinCorner"		"0"
			"visible"		"1"
			"enabled"		"1"
			"wrap"			"1"
			"fgcolor_override" "46 43 42 255"
		}
		
		"TextLabel"
		{
			"ControlName"	"CExLabel"
			"fieldName"		"TextLabel"
			"font"			"HudFontSmall"
			"labelText"		"#LoadoutExplanation_Text"
			"textAlignment"	"north-west"
			"xpos"			"20"
			"ypos"			"45"
			"wide"			"260"
			"tall"			"85"
			"autoResize"	"0"
			"pinCorner"		"0"
			"visible"		"1"
			"enabled"		"1"
			"wrap"			"1"
			"fgcolor_override" "46 43 42 255"
		}
		
		"CloseButton"
		{
			"ControlName"	"CExImageButton"
			"fieldName"		"CloseButton"
			"xpos"			"280"
			"ypos"			"5"
			"zpos"			"10"
			"wide"			"14"
			"tall"			"14"
			"autoResize"	"0"
			"pinCorner"		"0"
			"visible"		"1"
			"enabled"		"1"
			"tabPosition"	"0"
			"labeltext"		""
			"font"			"HudFontSmallBold"
			"textAlignment"	"center"
			"dulltext"		"0"
			"brighttext"	"0"
			"default"		"0"
			"sound_depressed"	"UI/buttonclick.wav"
			"sound_released"	"UI/buttonclickrelease.wav"
			"Command"		"close"
			
			"paintbackground"	"0"
			
			"defaultFgColor_override" "46 43 42 255"
			"armedFgColor_override" "Yellow"
			"depressedFgColor_override" "46 43 42 255"
			
			"image_drawcolor"	"117 107 94 255"
			"image_armedcolor"	"Yellow"
			"SubImage"
			{
				"ControlName"	"ImagePanel"
				"fieldName"		"SubImage"
				"xpos"			"0"
				"ypos"			"0"
				"zpos"			"1"
				"wide"			"14"
				"tall"			"14"
				"visible"		"1"
				"enabled"		"1"
				"image"			"close_button"
				"scaleImage"	"1"
			}				
		}		
		"PositionLabel"
		{
			"ControlName"	"CExLabel"
			"fieldName"		"PositionLabel"
			"font"			"HudFontSmallBold"
			"labelText"		"%explanationnumber%"
			"textAlignment"	"center"
			"xpos"			"0"
			"ypos"			"125"
			"zpos"			"-1"
			"wide"			"300"
			"tall"			"30"
			"autoResize"	"0"
			"pinCorner"		"0"
			"visible"		"1"
			"enabled"		"1"
			"fgcolor_override" "Yellow"
		}
		"NextButton"
		{
			"ControlName"	"CExImageButton"
			"fieldName"		"NextButton"
			"xpos"			"260"
			"ypos"			"125"
			"zpos"			"10"
			"wide"			"30"
			"tall"			"30"
			"autoResize"	"0"
			"pinCorner"		"0"
			"visible"		"1"
			"enabled"		"1"
			"tabPosition"	"0"
			"labeltext"		""
			"font"			"HudFontSmallBold"
			"textAlignment"	"center"
			"dulltext"		"0"
			"brighttext"	"0"
			"default"		"0"
			"sound_depressed"	"UI/buttonclick.wav"
			"sound_released"	"UI/buttonclickrelease.wav"
			"Command"		"nextexplanation"
			
			"paintbackground"	"0"
			
			"defaultFgColor_override" "46 43 42 255"
			"armedFgColor_override" "Yellow"
			"depressedFgColor_override" "46 43 42 255"
			
			"image_drawcolor"	"235 226 202 255"
			"image_armedcolor"	"255 255 255 255"
			"SubImage"
			{
				"ControlName"	"ImagePanel"
				"fieldName"		"SubImage"
				"xpos"			"0"
				"ypos"			"0"
				"zpos"			"1"
				"wide"			"30"
				"tall"			"30"
				"visible"		"1"
				"enabled"		"1"
				"image"			"blog_forward"
				"scaleImage"	"1"
			}				
		}		
	}	
	
	"BackpackExplanation"
	{
		"ControlName"	"CExplanationPopup"
		"fieldName"		"BackpackExplanation"
		"xpos"			"0"
		"ypos"			"0"
		"zpos"			"10000"
		"wide"			"250"
		"tall"			"120"
		"visible"		"0"
		"PaintBackgroundType"	"2"
		"paintbackground" "0"
		"border"		"MainMenuHighlightBorder"
		
		"force_close"	"1"
		"end_x"			"c-320"
		"end_y"			"60"
		"end_wide"		"250"
		"end_tall"		"130"
		"callout_inparents_x"	"c-255"
		"callout_inparents_y"	"240"
		"next_explanation"		"CraftingExplanation"
		
		"TitleLabel"
		{
			"ControlName"	"CExLabel"
			"fieldName"		"TitleLabel"
			"font"			"HudFontSmallBold"
			"labelText"		"#BackpackExplanation_Title"
			"textAlignment"	"north"
			"xpos"			"20"
			"ypos"			"10"
			"wide"			"210"
			"tall"			"30"
			"autoResize"	"0"
			"pinCorner"		"0"
			"visible"		"1"
			"enabled"		"1"
			"wrap"			"1"
			"fgcolor_override" "46 43 42 255"
		}
		
		"TextLabel"
		{
			"ControlName"	"CExLabel"
			"fieldName"		"TextLabel"
			"font"			"HudFontSmall"
			"labelText"		"#BackpackExplanation_Text"
			"textAlignment"	"north-west"
			"xpos"			"20"
			"ypos"			"45"
			"wide"			"210"
			"tall"			"65"
			"autoResize"	"0"
			"pinCorner"		"0"
			"visible"		"1"
			"enabled"		"1"
			"wrap"			"1"
			"fgcolor_override" "46 43 42 255"
		}
		
		"CloseButton"
		{
			"ControlName"	"CExImageButton"
			"fieldName"		"CloseButton"
			"xpos"			"230"
			"ypos"			"5"
			"zpos"			"10"
			"wide"			"14"
			"tall"			"14"
			"autoResize"	"0"
			"pinCorner"		"0"
			"visible"		"1"
			"enabled"		"1"
			"tabPosition"	"0"
			"labeltext"		""
			"font"			"HudFontSmallBold"
			"textAlignment"	"center"
			"dulltext"		"0"
			"brighttext"	"0"
			"default"		"0"
			"sound_depressed"	"UI/buttonclick.wav"
			"sound_released"	"UI/buttonclickrelease.wav"
			"Command"		"close"
			
			"paintbackground"	"0"
			
			"defaultFgColor_override" "46 43 42 255"
			"armedFgColor_override" "Yellow"
			"depressedFgColor_override" "46 43 42 255"
			
			"image_drawcolor"	"117 107 94 255"
			"image_armedcolor"	"Yellow"
			"SubImage"
			{
				"ControlName"	"ImagePanel"
				"fieldName"		"SubImage"
				"xpos"			"0"
				"ypos"			"0"
				"zpos"			"1"
				"wide"			"14"
				"tall"			"14"
				"visible"		"1"
				"enabled"		"1"
				"image"			"close_button"
				"scaleImage"	"1"
			}				
		}		
		"PrevButton"
		{
			"ControlName"	"CExImageButton"
			"fieldName"		"PrevButton"
			"xpos"			"10"
			"ypos"			"100"
			"zpos"			"10"
			"wide"			"30"
			"tall"			"30"
			"autoResize"	"0"
			"pinCorner"		"0"
			"visible"		"1"
			"enabled"		"1"
			"tabPosition"	"0"
			"labeltext"		""
			"font"			"HudFontSmallBold"
			"textAlignment"	"center"
			"dulltext"		"0"
			"brighttext"	"0"
			"default"		"0"
			"sound_depressed"	"UI/buttonclick.wav"
			"sound_released"	"UI/buttonclickrelease.wav"
			"Command"		"prevexplanation"
			
			"paintbackground"	"0"
			
			"defaultFgColor_override" "46 43 42 255"
			"armedFgColor_override" "Yellow"
			"depressedFgColor_override" "46 43 42 255"
			
			"image_drawcolor"	"235 226 202 255"
			"image_armedcolor"	"255 255 255 255"
			"SubImage"
			{
				"ControlName"	"ImagePanel"
				"fieldName"		"SubImage"
				"xpos"			"0"
				"ypos"			"0"
				"zpos"			"1"
				"wide"			"30"
				"tall"			"30"
				"visible"		"1"
				"enabled"		"1"
				"image"			"blog_back"
				"scaleImage"	"1"
			}				
		}		
		"PositionLabel"
		{
			"ControlName"	"CExLabel"
			"fieldName"		"PositionLabel"
			"font"			"HudFontSmallBold"
			"labelText"		"%explanationnumber%"
			"textAlignment"	"center"
			"xpos"			"0"
			"ypos"			"100"
			"zpos"			"-1"
			"wide"			"250"
			"tall"			"30"
			"autoResize"	"0"
			"pinCorner"		"0"
			"visible"		"1"
			"enabled"		"1"
			"fgcolor_override" "Yellow"
		}
		"NextButton"
		{
			"ControlName"	"CExImageButton"
			"fieldName"		"NextButton"
			"xpos"			"210"
			"ypos"			"100"
			"zpos"			"10"
			"wide"			"30"
			"tall"			"30"
			"autoResize"	"0"
			"pinCorner"		"0"
			"visible"		"1"
			"enabled"		"1"
			"tabPosition"	"0"
			"labeltext"		""
			"font"			"HudFontSmallBold"
			"textAlignment"	"center"
			"dulltext"		"0"
			"brighttext"	"0"
			"default"		"0"
			"sound_depressed"	"UI/buttonclick.wav"
			"sound_released"	"UI/buttonclickrelease.wav"
			"Command"		"nextexplanation"
			
			"paintbackground"	"0"
			
			"defaultFgColor_override" "46 43 42 255"
			"armedFgColor_override" "Yellow"
			"depressedFgColor_override" "46 43 42 255"
			
			"image_drawcolor"	"235 226 202 255"
			"image_armedcolor"	"255 255 255 255"
			"SubImage"
			{
				"ControlName"	"ImagePanel"
				"fieldName"		"SubImage"
				"xpos"			"0"
				"ypos"			"0"
				"zpos"			"1"
				"wide"			"30"
				"tall"			"30"
				"visible"		"1"
				"enabled"		"1"
				"image"			"blog_forward"
				"scaleImage"	"1"
			}				
		}		
	}	
	
	"CraftingExplanation"
	{
		"ControlName"	"CExplanationPopup"
		"fieldName"		"CraftingExplanation"
		"xpos"			"0"
		"ypos"			"0"
		"zpos"			"10000"
		"wide"			"250"
		"tall"			"120"
		"visible"		"0"
		"PaintBackgroundType"	"2"
		"paintbackground" "0"
		"border"		"MainMenuHighlightBorder"
		
		"force_close"	"1"
		"end_x"			"c-210"
		"end_y"			"60"
		"end_wide"		"250"
		"end_tall"		"140"
		"callout_inparents_x"	"c-130"
		"callout_inparents_y"	"240"
		"next_explanation"		"ArmoryExplanation"
		
		"TitleLabel"
		{
			"ControlName"	"CExLabel"
			"fieldName"		"TitleLabel"
			"font"			"HudFontSmallBold"
			"labelText"		"#CraftingExplanation_Title"
			"textAlignment"	"north"
			"xpos"			"20"
			"ypos"			"10"
			"wide"			"210"
			"tall"			"30"
			"autoResize"	"0"
			"pinCorner"		"0"
			"visible"		"1"
			"enabled"		"1"
			"wrap"			"1"
			"fgcolor_override" "46 43 42 255"
		}
		
		"TextLabel"
		{
			"ControlName"	"CExLabel"
			"fieldName"		"TextLabel"
			"font"			"HudFontSmall"
			"labelText"		"#CraftingExplanation_Text"
			"textAlignment"	"north-west"
			"xpos"			"20"
			"ypos"			"45"
			"wide"			"210"
			"tall"			"65"
			"autoResize"	"0"
			"pinCorner"		"0"
			"visible"		"1"
			"enabled"		"1"
			"wrap"			"1"
			"fgcolor_override" "46 43 42 255"
		}
		
		"CloseButton"
		{
			"ControlName"	"CExImageButton"
			"fieldName"		"CloseButton"
			"xpos"			"230"
			"ypos"			"5"
			"zpos"			"10"
			"wide"			"14"
			"tall"			"14"
			"autoResize"	"0"
			"pinCorner"		"0"
			"visible"		"1"
			"enabled"		"1"
			"tabPosition"	"0"
			"labeltext"		""
			"font"			"HudFontSmallBold"
			"textAlignment"	"center"
			"dulltext"		"0"
			"brighttext"	"0"
			"default"		"0"
			"sound_depressed"	"UI/buttonclick.wav"
			"sound_released"	"UI/buttonclickrelease.wav"
			"Command"		"close"
			
			"paintbackground"	"0"
			
			"defaultFgColor_override" "46 43 42 255"
			"armedFgColor_override" "235 226 202 255"
			"depressedFgColor_override" "46 43 42 255"
			
			"image_drawcolor"	"117 107 94 255"
			"image_armedcolor"	"Yellow"
			"SubImage"
			{
				"ControlName"	"ImagePanel"
				"fieldName"		"SubImage"
				"xpos"			"0"
				"ypos"			"0"
				"zpos"			"1"
				"wide"			"14"
				"tall"			"14"
				"visible"		"1"
				"enabled"		"1"
				"image"			"close_button"
				"scaleImage"	"1"
			}				
		}		
		"PrevButton"
		{
			"ControlName"	"CExImageButton"
			"fieldName"		"PrevButton"
			"xpos"			"10"
			"ypos"			"110"
			"zpos"			"10"
			"wide"			"30"
			"tall"			"30"
			"autoResize"	"0"
			"pinCorner"		"0"
			"visible"		"1"
			"enabled"		"1"
			"tabPosition"	"0"
			"labeltext"		""
			"font"			"HudFontSmallBold"
			"textAlignment"	"center"
			"dulltext"		"0"
			"brighttext"	"0"
			"default"		"0"
			"sound_depressed"	"UI/buttonclick.wav"
			"sound_released"	"UI/buttonclickrelease.wav"
			"Command"		"prevexplanation"
			
			"paintbackground"	"0"
			
			"defaultFgColor_override" "46 43 42 255"
			"armedFgColor_override" "Yellow"
			"depressedFgColor_override" "46 43 42 255"
			
			"image_drawcolor"	"235 226 202 255"
			"image_armedcolor"	"255 255 255 255"
			"SubImage"
			{
				"ControlName"	"ImagePanel"
				"fieldName"		"SubImage"
				"xpos"			"0"
				"ypos"			"0"
				"zpos"			"1"
				"wide"			"30"
				"tall"			"30"
				"visible"		"1"
				"enabled"		"1"
				"image"			"blog_back"
				"scaleImage"	"1"
			}				
		}		
		"PositionLabel"
		{
			"ControlName"	"CExLabel"
			"fieldName"		"PositionLabel"
			"font"			"HudFontSmallBold"
			"labelText"		"%explanationnumber%"
			"textAlignment"	"center"
			"xpos"			"0"
			"ypos"			"110"
			"zpos"			"-1"
			"wide"			"250"
			"tall"			"30"
			"autoResize"	"0"
			"pinCorner"		"0"
			"visible"		"1"
			"enabled"		"1"
			"fgcolor_override" "Yellow"
		}
		"NextButton"
		{
			"ControlName"	"CExImageButton"
			"fieldName"		"NextButton"
			"xpos"			"210"
			"ypos"			"110"
			"zpos"			"10"
			"wide"			"30"
			"tall"			"30"
			"autoResize"	"0"
			"pinCorner"		"0"
			"visible"		"1"
			"enabled"		"1"
			"tabPosition"	"0"
			"labeltext"		""
			"font"			"HudFontSmallBold"
			"textAlignment"	"center"
			"dulltext"		"0"
			"brighttext"	"0"
			"default"		"0"
			"sound_depressed"	"UI/buttonclick.wav"
			"sound_released"	"UI/buttonclickrelease.wav"
			"Command"		"nextexplanation"
			
			"paintbackground"	"0"
			
			"defaultFgColor_override" "46 43 42 255"
			"armedFgColor_override" "Yellow"
			"depressedFgColor_override" "46 43 42 255"
			
			"image_drawcolor"	"235 226 202 255"
			"image_armedcolor"	"255 255 255 255"
			"SubImage"
			{
				"ControlName"	"ImagePanel"
				"fieldName"		"SubImage"
				"xpos"			"0"
				"ypos"			"0"
				"zpos"			"1"
				"wide"			"30"
				"tall"			"30"
				"visible"		"1"
				"enabled"		"1"
				"image"			"blog_forward"
				"scaleImage"	"1"
			}				
		}	
	}	
	
	"ArmoryExplanation"
	{
		"ControlName"	"CExplanationPopup"
		"fieldName"		"ArmoryExplanation"
		"xpos"			"0"
		"ypos"			"0"
		"zpos"			"10000"
		"wide"			"250"
		"tall"			"120"
		"visible"		"0"
		"PaintBackgroundType"	"2"
		"paintbackground" "0"
		"border"		"MainMenuHighlightBorder"
		
		"force_close"	"1"
		"end_x"			"c-120"
		"end_y"			"60"
		"end_wide"		"250"
		"end_tall"		"140"
		"callout_inparents_x"	"c0"
		"callout_inparents_y"	"240"
		"next_explanation"		"TradingExplanation"
		
		"TitleLabel"
		{
			"ControlName"	"CExLabel"
			"fieldName"		"TitleLabel"
			"font"			"HudFontSmallBold"
			"labelText"		"#ArmoryExplanation_Title"
			"textAlignment"	"north"
			"xpos"			"20"
			"ypos"			"10"
			"wide"			"210"
			"tall"			"30"
			"autoResize"	"0"
			"pinCorner"		"0"
			"visible"		"1"
			"enabled"		"1"
			"wrap"			"1"
			"fgcolor_override" "46 43 42 255"
		}
		
		"TextLabel"
		{
			"ControlName"	"CExLabel"
			"fieldName"		"TextLabel"
			"font"			"HudFontSmall"
			"labelText"		"#ArmoryExplanation_Text"
			"textAlignment"	"north-west"
			"xpos"			"20"
			"ypos"			"45"
			"wide"			"210"
			"tall"			"65"
			"autoResize"	"0"
			"pinCorner"		"0"
			"visible"		"1"
			"enabled"		"1"
			"wrap"			"1"
			"fgcolor_override" "46 43 42 255"
		}
		
		"CloseButton"
		{
			"ControlName"	"CExImageButton"
			"fieldName"		"CloseButton"
			"xpos"			"230"
			"ypos"			"5"
			"zpos"			"10"
			"wide"			"14"
			"tall"			"14"
			"autoResize"	"0"
			"pinCorner"		"0"
			"visible"		"1"
			"enabled"		"1"
			"tabPosition"	"0"
			"labeltext"		""
			"font"			"HudFontSmallBold"
			"textAlignment"	"center"
			"dulltext"		"0"
			"brighttext"	"0"
			"default"		"0"
			"sound_depressed"	"UI/buttonclick.wav"
			"sound_released"	"UI/buttonclickrelease.wav"
			"Command"		"close"
			
			"paintbackground"	"0"
			
			"defaultFgColor_override" "46 43 42 255"
			"armedFgColor_override" "235 226 202 255"
			"depressedFgColor_override" "46 43 42 255"
			
			"image_drawcolor"	"117 107 94 255"
			"image_armedcolor"	"Yellow"
			"SubImage"
			{
				"ControlName"	"ImagePanel"
				"fieldName"		"SubImage"
				"xpos"			"0"
				"ypos"			"0"
				"zpos"			"1"
				"wide"			"14"
				"tall"			"14"
				"visible"		"1"
				"enabled"		"1"
				"image"			"close_button"
				"scaleImage"	"1"
			}				
		}		
		"PrevButton"
		{
			"ControlName"	"CExImageButton"
			"fieldName"		"PrevButton"
			"xpos"			"10"
			"ypos"			"110"
			"zpos"			"10"
			"wide"			"30"
			"tall"			"30"
			"autoResize"	"0"
			"pinCorner"		"0"
			"visible"		"1"
			"enabled"		"1"
			"tabPosition"	"0"
			"labeltext"		""
			"font"			"HudFontSmallBold"
			"textAlignment"	"center"
			"dulltext"		"0"
			"brighttext"	"0"
			"default"		"0"
			"sound_depressed"	"UI/buttonclick.wav"
			"sound_released"	"UI/buttonclickrelease.wav"
			"Command"		"prevexplanation"
			
			"paintbackground"	"0"
			
			"defaultFgColor_override" "46 43 42 255"
			"armedFgColor_override" "Yellow"
			"depressedFgColor_override" "46 43 42 255"
			
			"image_drawcolor"	"235 226 202 255"
			"image_armedcolor"	"255 255 255 255"
			"SubImage"
			{
				"ControlName"	"ImagePanel"
				"fieldName"		"SubImage"
				"xpos"			"0"
				"ypos"			"0"
				"zpos"			"1"
				"wide"			"30"
				"tall"			"30"
				"visible"		"1"
				"enabled"		"1"
				"image"			"blog_back"
				"scaleImage"	"1"
			}				
		}		
		"PositionLabel"
		{
			"ControlName"	"CExLabel"
			"fieldName"		"PositionLabel"
			"font"			"HudFontSmallBold"
			"labelText"		"%explanationnumber%"
			"textAlignment"	"center"
			"xpos"			"0"
			"ypos"			"110"
			"zpos"			"-1"
			"wide"			"250"
			"tall"			"30"
			"autoResize"	"0"
			"pinCorner"		"0"
			"visible"		"1"
			"enabled"		"1"
			"fgcolor_override" "Yellow"
		}
		"NextButton"
		{
			"ControlName"	"CExImageButton"
			"fieldName"		"NextButton"
			"xpos"			"210"
			"ypos"			"110"
			"zpos"			"10"
			"wide"			"30"
			"tall"			"30"
			"autoResize"	"0"
			"pinCorner"		"0"
			"visible"		"1"
			"enabled"		"1"
			"tabPosition"	"0"
			"labeltext"		""
			"font"			"HudFontSmallBold"
			"textAlignment"	"center"
			"dulltext"		"0"
			"brighttext"	"0"
			"default"		"0"
			"sound_depressed"	"UI/buttonclick.wav"
			"sound_released"	"UI/buttonclickrelease.wav"
			"Command"		"nextexplanation"
			
			"paintbackground"	"0"
			
			"defaultFgColor_override" "46 43 42 255"
			"armedFgColor_override" "Yellow"
			"depressedFgColor_override" "46 43 42 255"
			
			"image_drawcolor"	"235 226 202 255"
			"image_armedcolor"	"255 255 255 255"
			"SubImage"
			{
				"ControlName"	"ImagePanel"
				"fieldName"		"SubImage"
				"xpos"			"0"
				"ypos"			"0"
				"zpos"			"1"
				"wide"			"30"
				"tall"			"30"
				"visible"		"1"
				"enabled"		"1"
				"image"			"blog_forward"
				"scaleImage"	"1"
			}				
		}	
	}
	
	"TradingExplanation"
	{
		"ControlName"	"CExplanationPopup"
		"fieldName"		"TradingExplanation"
		"xpos"			"0"
		"ypos"			"0"
		"zpos"			"10000"
		"wide"			"250"
		"tall"			"120"
		"visible"		"0"
		"PaintBackgroundType"	"2"
		"paintbackground" "0"
		"border"		"MainMenuHighlightBorder"
		
		"force_close"	"1"
		"end_x"			"c-30"
		"end_y"			"60"
		"end_wide"		"250"
		"end_tall"		"140"
		"callout_inparents_x"	"c130"
		"callout_inparents_y"	"240"
		"next_explanation"		"PatternsExplanation"
		
		"TitleLabel"
		{
			"ControlName"	"CExLabel"
			"fieldName"		"TitleLabel"
			"font"			"HudFontSmallBold"
			"labelText"		"#TradingExplanation_Title"
			"textAlignment"	"north"
			"xpos"			"20"
			"ypos"			"10"
			"wide"			"210"
			"tall"			"30"
			"autoResize"	"0"
			"pinCorner"		"0"
			"visible"		"1"
			"enabled"		"1"
			"wrap"			"1"
			"fgcolor_override" "46 43 42 255"
		}
		
		"TextLabel"
		{
			"ControlName"	"CExLabel"
			"fieldName"		"TextLabel"
			"font"			"HudFontSmall"
			"labelText"		"#TradingExplanation_Text"
			"textAlignment"	"north-west"
			"xpos"			"20"
			"ypos"			"45"
			"wide"			"210"
			"tall"			"65"
			"autoResize"	"0"
			"pinCorner"		"0"
			"visible"		"1"
			"enabled"		"1"
			"wrap"			"1"
			"fgcolor_override" "46 43 42 255"
		}
		
		"CloseButton"
		{
			"ControlName"	"CExImageButton"
			"fieldName"		"CloseButton"
			"xpos"			"230"
			"ypos"			"5"
			"zpos"			"10"
			"wide"			"14"
			"tall"			"14"
			"autoResize"	"0"
			"pinCorner"		"0"
			"visible"		"1"
			"enabled"		"1"
			"tabPosition"	"0"
			"labeltext"		""
			"font"			"HudFontSmallBold"
			"textAlignment"	"center"
			"dulltext"		"0"
			"brighttext"	"0"
			"default"		"0"
			"sound_depressed"	"UI/buttonclick.wav"
			"sound_released"	"UI/buttonclickrelease.wav"
			"Command"		"close"
			
			"paintbackground"	"0"
			
			"defaultFgColor_override" "46 43 42 255"
			"armedFgColor_override" "235 226 202 255"
			"depressedFgColor_override" "46 43 42 255"
			
			"image_drawcolor"	"117 107 94 255"
			"image_armedcolor"	"Yellow"
			"SubImage"
			{
				"ControlName"	"ImagePanel"
				"fieldName"		"SubImage"
				"xpos"			"0"
				"ypos"			"0"
				"zpos"			"1"
				"wide"			"14"
				"tall"			"14"
				"visible"		"1"
				"enabled"		"1"
				"image"			"close_button"
				"scaleImage"	"1"
			}				
		}		
		"PrevButton"
		{
			"ControlName"	"CExImageButton"
			"fieldName"		"PrevButton"
			"xpos"			"10"
			"ypos"			"110"
			"zpos"			"10"
			"wide"			"30"
			"tall"			"30"
			"autoResize"	"0"
			"pinCorner"		"0"
			"visible"		"1"
			"enabled"		"1"
			"tabPosition"	"0"
			"labeltext"		""
			"font"			"HudFontSmallBold"
			"textAlignment"	"center"
			"dulltext"		"0"
			"brighttext"	"0"
			"default"		"0"
			"sound_depressed"	"UI/buttonclick.wav"
			"sound_released"	"UI/buttonclickrelease.wav"
			"Command"		"prevexplanation"
			
			"paintbackground"	"0"
			
			"defaultFgColor_override" "46 43 42 255"
			"armedFgColor_override" "Yellow"
			"depressedFgColor_override" "46 43 42 255"
			
			"image_drawcolor"	"235 226 202 255"
			"image_armedcolor"	"255 255 255 255"
			"SubImage"
			{
				"ControlName"	"ImagePanel"
				"fieldName"		"SubImage"
				"xpos"			"0"
				"ypos"			"0"
				"zpos"			"1"
				"wide"			"30"
				"tall"			"30"
				"visible"		"1"
				"enabled"		"1"
				"image"			"blog_back"
				"scaleImage"	"1"
			}				
		}		
		"PositionLabel"
		{
			"ControlName"	"CExLabel"
			"fieldName"		"PositionLabel"
			"font"			"HudFontSmallBold"
			"labelText"		"%explanationnumber%"
			"textAlignment"	"center"
			"xpos"			"0"
			"ypos"			"110"
			"zpos"			"-1"
			"wide"			"250"
			"tall"			"30"
			"autoResize"	"0"
			"pinCorner"		"0"
			"visible"		"1"
			"enabled"		"1"
			"fgcolor_override" "Yellow"
		}
		"NextButton"
		{
			"ControlName"	"CExImageButton"
			"fieldName"		"NextButton"
			"xpos"			"210"
			"ypos"			"110"
			"zpos"			"10"
			"wide"			"30"
			"tall"			"30"
			"autoResize"	"0"
			"pinCorner"		"0"
			"visible"		"1"
			"enabled"		"1"
			"tabPosition"	"0"
			"labeltext"		""
			"font"			"HudFontSmallBold"
			"textAlignment"	"center"
			"dulltext"		"0"
			"brighttext"	"0"
			"default"		"0"
			"sound_depressed"	"UI/buttonclick.wav"
			"sound_released"	"UI/buttonclickrelease.wav"
			"Command"		"nextexplanation"
			
			"paintbackground"	"0"
			
			"defaultFgColor_override" "46 43 42 255"
			"armedFgColor_override" "Yellow"
			"depressedFgColor_override" "46 43 42 255"
			
			"image_drawcolor"	"235 226 202 255"
			"image_armedcolor"	"255 255 255 255"
			"SubImage"
			{
				"ControlName"	"ImagePanel"
				"fieldName"		"SubImage"
				"xpos"			"0"
				"ypos"			"0"
				"zpos"			"1"
				"wide"			"30"
				"tall"			"30"
				"visible"		"1"
				"enabled"		"1"
				"image"			"blog_forward"
				"scaleImage"	"1"
			}				
		}	
	}

	"PatternsExplanation"
	{
		"ControlName"	"CExplanationPopup"
		"fieldName"		"PatternsExplanation"
		"xpos"			"0"
		"ypos"			"0"
		"zpos"			"10000"
		"wide"			"250"
		"tall"			"120"
		"visible"		"0"
		"PaintBackgroundType"	"2"
		"paintbackground" "0"
		"border"		"MainMenuHighlightBorder"
		
		"force_close"	"1"
		"end_x"			"c130"
		"end_y"			"60"
		"end_wide"		"250"
		"end_tall"		"140"
		"callout_inparents_x"	"c255"
		"callout_inparents_y"	"240"
		"next_explanation"		"ExplanationExplanation"
		
		"TitleLabel"
		{
			"ControlName"	"CExLabel"
			"fieldName"		"TitleLabel"
			"font"			"HudFontSmallBold"
			"labelText"		"#WeaponPatternsExplanation_Title"
			"textAlignment"	"north"
			"xpos"			"20"
			"ypos"			"10"
			"wide"			"210"
			"tall"			"30"
			"autoResize"	"0"
			"pinCorner"		"0"
			"visible"		"1"
			"enabled"		"1"
			"wrap"			"1"
			"fgcolor_override" "46 43 42 255"
		}
		
		"TextLabel"
		{
			"ControlName"	"CExLabel"
			"fieldName"		"TextLabel"
			"font"			"HudFontSmall"
			"labelText"		"#WeaponPatternsExplanation_Text"
			"textAlignment"	"north-west"
			"xpos"			"20"
			"ypos"			"35"
			"wide"			"210"
			"tall"			"75"
			"autoResize"	"0"
			"pinCorner"		"0"
			"visible"		"1"
			"enabled"		"1"
			"wrap"			"1"
			"fgcolor_override" "46 43 42 255"
		}
		
		"CloseButton"
		{
			"ControlName"	"CExImageButton"
			"fieldName"		"CloseButton"
			"xpos"			"230"
			"ypos"			"5"
			"zpos"			"10"
			"wide"			"14"
			"tall"			"14"
			"autoResize"	"0"
			"pinCorner"		"0"
			"visible"		"1"
			"enabled"		"1"
			"tabPosition"	"0"
			"labeltext"		""
			"font"			"HudFontSmallBold"
			"textAlignment"	"center"
			"dulltext"		"0"
			"brighttext"	"0"
			"default"		"0"
			"sound_depressed"	"UI/buttonclick.wav"
			"sound_released"	"UI/buttonclickrelease.wav"
			"Command"		"close"
			
			"paintbackground"	"0"
			
			"defaultFgColor_override" "46 43 42 255"
			"armedFgColor_override" "235 226 202 255"
			"depressedFgColor_override" "46 43 42 255"
			
			"image_drawcolor"	"117 107 94 255"
			"image_armedcolor"	"Yellow"
			"SubImage"
			{
				"ControlName"	"ImagePanel"
				"fieldName"		"SubImage"
				"xpos"			"0"
				"ypos"			"0"
				"zpos"			"1"
				"wide"			"14"
				"tall"			"14"
				"visible"		"1"
				"enabled"		"1"
				"image"			"close_button"
				"scaleImage"	"1"
			}				
		}		
		"PrevButton"
		{
			"ControlName"	"CExImageButton"
			"fieldName"		"PrevButton"
			"xpos"			"10"
			"ypos"			"110"
			"zpos"			"10"
			"wide"			"30"
			"tall"			"30"
			"autoResize"	"0"
			"pinCorner"		"0"
			"visible"		"1"
			"enabled"		"1"
			"tabPosition"	"0"
			"labeltext"		""
			"font"			"HudFontSmallBold"
			"textAlignment"	"center"
			"dulltext"		"0"
			"brighttext"	"0"
			"default"		"0"
			"sound_depressed"	"UI/buttonclick.wav"
			"sound_released"	"UI/buttonclickrelease.wav"
			"Command"		"prevexplanation"
			
			"paintbackground"	"0"
			
			"defaultFgColor_override" "46 43 42 255"
			"armedFgColor_override" "Yellow"
			"depressedFgColor_override" "46 43 42 255"
			
			"image_drawcolor"	"235 226 202 255"
			"image_armedcolor"	"255 255 255 255"
			"SubImage"
			{
				"ControlName"	"ImagePanel"
				"fieldName"		"SubImage"
				"xpos"			"0"
				"ypos"			"0"
				"zpos"			"1"
				"wide"			"30"
				"tall"			"30"
				"visible"		"1"
				"enabled"		"1"
				"image"			"blog_back"
				"scaleImage"	"1"
			}				
		}		
		"PositionLabel"
		{
			"ControlName"	"CExLabel"
			"fieldName"		"PositionLabel"
			"font"			"HudFontSmallBold"
			"labelText"		"%explanationnumber%"
			"textAlignment"	"center"
			"xpos"			"0"
			"ypos"			"110"
			"zpos"			"-1"
			"wide"			"250"
			"tall"			"30"
			"autoResize"	"0"
			"pinCorner"		"0"
			"visible"		"1"
			"enabled"		"1"
			"fgcolor_override" "Yellow"
		}
		"NextButton"
		{
			"ControlName"	"CExImageButton"
			"fieldName"		"NextButton"
			"xpos"			"210"
			"ypos"			"110"
			"zpos"			"10"
			"wide"			"30"
			"tall"			"30"
			"autoResize"	"0"
			"pinCorner"		"0"
			"visible"		"1"
			"enabled"		"1"
			"tabPosition"	"0"
			"labeltext"		""
			"font"			"HudFontSmallBold"
			"textAlignment"	"center"
			"dulltext"		"0"
			"brighttext"	"0"
			"default"		"0"
			"sound_depressed"	"UI/buttonclick.wav"
			"sound_released"	"UI/buttonclickrelease.wav"
			"Command"		"nextexplanation"
			
			"paintbackground"	"0"
			
			"defaultFgColor_override" "46 43 42 255"
			"armedFgColor_override" "200 80 60 255"
			"depressedFgColor_override" "46 43 42 255"
			
			"image_drawcolor"	"235 226 202 255"
			"image_armedcolor"	"255 255 255 255"
			"SubImage"
			{
				"ControlName"	"ImagePanel"
				"fieldName"		"SubImage"
				"xpos"			"0"
				"ypos"			"0"
				"zpos"			"1"
				"wide"			"30"
				"tall"			"30"
				"visible"		"1"
				"enabled"		"1"
				"image"			"blog_forward"
				"scaleImage"	"1"
			}				
		}	
	}
	
	"ExplanationExplanation"
	{
		"ControlName"	"CExplanationPopup"
		"fieldName"		"ExplanationExplanation"
		"xpos"			"0"
		"ypos"			"0"
		"zpos"			"10000"
		"wide"			"250"
		"tall"			"120"
		"visible"		"0"
		"PaintBackgroundType"	"2"
		"paintbackground" "0"
		"border"		"MainMenuHighlightBorder"
		
		"force_close"	"1"
		"end_x"			"c100"
		"end_y"			"100"
		"end_wide"		"250"
		"end_tall"		"120"
		"callout_inparents_x"	"c285"
		"callout_inparents_y"	"30"
		
		"TitleLabel"
		{
			"ControlName"	"CExLabel"
			"fieldName"		"TitleLabel"
			"font"			"HudFontSmallBold"
			"labelText"		"#ExplanationExplanation_Title"
			"textAlignment"	"north"
			"xpos"			"20"
			"ypos"			"10"
			"wide"			"210"
			"tall"			"30"
			"autoResize"	"0"
			"pinCorner"		"0"
			"visible"		"1"
			"enabled"		"1"
			"wrap"			"1"
			"fgcolor_override" "46 43 42 255"
		}
		
		"TextLabel"
		{
			"ControlName"	"CExLabel"
			"fieldName"		"TextLabel"
			"font"			"HudFontSmall"
			"labelText"		"#ExplanationExplanation_Text"
			"textAlignment"	"north-west"
			"xpos"			"20"
			"ypos"			"45"
			"wide"			"210"
			"tall"			"65"
			"autoResize"	"0"
			"pinCorner"		"0"
			"visible"		"1"
			"enabled"		"1"
			"wrap"			"1"
			"fgcolor_override" "46 43 42 255"
		}
		
		"CloseButton"
		{
			"ControlName"	"CExImageButton"
			"fieldName"		"CloseButton"
			"xpos"			"230"
			"ypos"			"5"
			"zpos"			"10"
			"wide"			"14"
			"tall"			"14"
			"autoResize"	"0"
			"pinCorner"		"0"
			"visible"		"1"
			"enabled"		"1"
			"tabPosition"	"0"
			"labeltext"		""
			"font"			"HudFontSmallBold"
			"textAlignment"	"center"
			"dulltext"		"0"
			"brighttext"	"0"
			"default"		"0"
			"sound_depressed"	"UI/buttonclick.wav"
			"sound_released"	"UI/buttonclickrelease.wav"
			"Command"		"close"
			
			"paintbackground"	"0"
			
			"defaultFgColor_override" "46 43 42 255"
			"armedFgColor_override" "235 226 202 255"
			"depressedFgColor_override" "46 43 42 255"
			
			"image_drawcolor"	"117 107 94 255"
			"image_armedcolor"	"200 80 60 255"
			"SubImage"
			{
				"ControlName"	"ImagePanel"
				"fieldName"		"SubImage"
				"xpos"			"0"
				"ypos"			"0"
				"zpos"			"1"
				"wide"			"14"
				"tall"			"14"
				"visible"		"1"
				"enabled"		"1"
				"image"			"close_button"
				"scaleImage"	"1"
			}				
		}		
		"PrevButton"
		{
			"ControlName"	"CExImageButton"
			"fieldName"		"PrevButton"
			"xpos"			"10"
			"ypos"			"90"
			"zpos"			"10"
			"wide"			"30"
			"tall"			"30"
			"autoResize"	"0"
			"pinCorner"		"0"
			"visible"		"1"
			"enabled"		"1"
			"tabPosition"	"0"
			"labeltext"		""
			"font"			"HudFontSmallBold"
			"textAlignment"	"center"
			"dulltext"		"0"
			"brighttext"	"0"
			"default"		"0"
			"sound_depressed"	"UI/buttonclick.wav"
			"sound_released"	"UI/buttonclickrelease.wav"
			"Command"		"prevexplanation"
			
			"paintbackground"	"0"
			
			"defaultFgColor_override" "46 43 42 255"
			"armedFgColor_override" "200 80 60 255"
			"depressedFgColor_override" "46 43 42 255"
			
			"image_drawcolor"	"235 226 202 255"
			"image_armedcolor"	"255 255 255 255"
			"SubImage"
			{
				"ControlName"	"ImagePanel"
				"fieldName"		"SubImage"
				"xpos"			"0"
				"ypos"			"0"
				"zpos"			"1"
				"wide"			"30"
				"tall"			"30"
				"visible"		"1"
				"enabled"		"1"
				"image"			"blog_back"
				"scaleImage"	"1"
			}				
		}		
		"PositionLabel"
		{
			"ControlName"	"CExLabel"
			"fieldName"		"PositionLabel"
			"font"			"HudFontSmallBold"
			"labelText"		"%explanationnumber%"
			"textAlignment"	"center"
			"xpos"			"0"
			"ypos"			"90"
			"zpos"			"-1"
			"wide"			"250"
			"tall"			"30"
			"autoResize"	"0"
			"pinCorner"		"0"
			"visible"		"1"
			"enabled"		"1"
			"fgcolor_override" "200 80 60 255"
		}
	}
	"armory_panel"
	{
		"ControlName"		"CArmoryPanel"
		"fieldName"			"armory_panel"
		"xpos"				"0"
		"ypos"				"0"
		"wide"				"f0"
		"tall"				"400"
		"zpos"				"500"
		"visible"			"0"
	}

	"InspectionPanel"
	{
		"fieldName"		"InspectionPanel"
		"xpos"			"cs-0.5"
		"ypos"			"0"
		"zpos"			"2000"
		"wide"			"f0"
		"tall"			"f100"
		"visible"		"0"
		"proportionaltoparent"	"1"
		"bgcolor_override"	"DarkGrey"
	}

	"G_Scout_title"
	{
		"ControlName"	"CExLabel"
		"fieldName"		"G_Scout_title"
		"font"			"G_FontSmall"
		"labelText"		"Scout"
		"textAlignment"	"center"
		"xpos"			"c-315"
		"ypos"			"120"
		"zpos"			"5"
		"wide"			"70"
		"tall"			"15"
		"autoResize"	"0"
		"pinCorner"		"0"
		"visible"		"1"
		"enabled"		"1"
		"wrap"			"1"
		"fgcolor" 		"White"
		"centerwrap"	"1"
	}	

	"G_Soldier_title"
	{
		"ControlName"	"CExLabel"
		"fieldName"		"G_Soldier_title"
		"font"			"G_FontSmall"
		"labelText"		"Soldier"
		"textAlignment"	"center"
		"xpos"			"c-245"
		"ypos"			"120"
		"zpos"			"5"
		"wide"			"70"
		"tall"			"15"
		"autoResize"	"0"
		"pinCorner"		"0"
		"visible"		"1"
		"enabled"		"1"
		"wrap"			"1"
		"fgcolor" 		"White"
		"centerwrap"	"1"
	}			

	"G_Pyro_title"
	{
		"ControlName"	"CExLabel"
		"fieldName"		"G_Pyro_title"
		"font"			"G_FontSmall"
		"labelText"		"Pyro"
		"textAlignment"	"center"
		"xpos"			"c-175"
		"ypos"			"120"
		"zpos"			"5"
		"wide"			"70"
		"tall"			"15"
		"autoResize"	"0"
		"pinCorner"		"0"
		"visible"		"1"
		"enabled"		"1"
		"wrap"			"1"
		"fgcolor" 		"White"
		"centerwrap"	"1"
	}	

	"G_Demoman_title"
	{
		"ControlName"	"CExLabel"
		"fieldName"		"G_Demoman_title"
		"font"			"G_FontSmall"
		"labelText"		"Demoman"
		"textAlignment"	"center"
		"xpos"			"c-105"
		"ypos"			"120"
		"zpos"			"5"
		"wide"			"70"
		"tall"			"15"
		"autoResize"	"0"
		"pinCorner"		"0"
		"visible"		"1"
		"enabled"		"1"
		"wrap"			"1"
		"fgcolor" 		"White"
		"centerwrap"	"1"
	}

	"G_Heavy_title"
	{
		"ControlName"	"CExLabel"
		"fieldName"		"G_Heavy_title"
		"font"			"G_FontSmall"
		"labelText"		"Heavy"
		"textAlignment"	"center"
		"xpos"			"c-35"
		"ypos"			"120"
		"zpos"			"5"
		"wide"			"70"
		"tall"			"15"
		"autoResize"	"0"
		"pinCorner"		"0"
		"visible"		"1"
		"enabled"		"1"
		"wrap"			"1"
		"fgcolor" 		"White"
		"centerwrap"	"1"
	}

	"G_Engineer_title"
	{
		"ControlName"	"CExLabel"
		"fieldName"		"G_Engineer_title"
		"font"			"G_FontSmall"
		"labelText"		"Engineer"
		"textAlignment"	"center"
		"xpos"			"c35"
		"ypos"			"120"
		"zpos"			"5"
		"wide"			"70"
		"tall"			"15"
		"autoResize"	"0"
		"pinCorner"		"0"
		"visible"		"1"
		"enabled"		"1"
		"wrap"			"1"
		"fgcolor" 		"White"
		"centerwrap"	"1"
	}

	"G_Medic_title"
	{
		"ControlName"	"CExLabel"
		"fieldName"		"G_Medic_title"
		"font"			"G_FontSmall"
		"labelText"		"Medic"
		"textAlignment"	"center"
		"xpos"			"c105"
		"ypos"			"120"
		"zpos"			"5"
		"wide"			"70"
		"tall"			"15"
		"autoResize"	"0"
		"pinCorner"		"0"
		"visible"		"1"
		"enabled"		"1"
		"wrap"			"1"
		"fgcolor" 		"White"
		"centerwrap"	"1"
	}

	"G_Sniper_title"
	{
		"ControlName"	"CExLabel"
		"fieldName"		"G_Sniper_title"
		"font"			"G_FontSmall"
		"labelText"		"Sniper"
		"textAlignment"	"center"
		"xpos"			"c175"
		"ypos"			"120"
		"zpos"			"5"
		"wide"			"70"
		"tall"			"15"
		"autoResize"	"0"
		"pinCorner"		"0"
		"visible"		"1"
		"enabled"		"1"
		"wrap"			"1"
		"fgcolor" 		"White"
		"centerwrap"	"1"
	}

	"G_Spy_title"
	{
		"ControlName"	"CExLabel"
		"fieldName"		"G_Spy_title"
		"font"			"G_FontSmall"
		"labelText"		"Spy"
		"textAlignment"	"center"
		"xpos"			"c245"
		"ypos"			"120"
		"zpos"			"5"
		"wide"			"70"
		"tall"			"15"
		"autoResize"	"0"
		"pinCorner"		"0"
		"visible"		"1"
		"enabled"		"1"
		"wrap"			"1"
		"fgcolor" 		"White"
		"centerwrap"	"1"
	}

	"Wall_Classes"
	{
		"ControlName"	"EditablePanel"
		"fieldName"		"Wall_Classes"
		"xpos"			"0"
		"ypos"			"50"
		"zpos"			"-5"		
		"wide"			"f0"
		"tall"			"100"
		"autoResize"	"0"
		"pinCorner"		"0"
		"visible"		"1"
		"enabled"		"1"
		"paintbackground"	"1"
		"bgcolor_override"	"G_MenuShader"
	}
	
	"Wall_Backpack_etc"
	{
		"ControlName"	"EditablePanel"
		"fieldName"		"Wall_Backpack_etc"
		"xpos"			"0"
		"ypos"			"225"
		"zpos"			"-5"		
		"wide"			"f0"
		"tall"			"95"
		"autoResize"	"0"
		"pinCorner"		"0"
		"visible"		"1"
		"enabled"		"1"
		"paintbackground"	"1"
		"bgcolor_override"	"G_MenuShader"
	}
}