"Resource/UI/ItemModelPanel.res"
{
	"itemmodelpanel"
	{
		"ControlName"	"CEmbeddedItemModelPanel"
		"fieldName"		"itemmodelpanel"
		"xpos"			"0"
		"ypos"			"0"
		"zpos"			"1"		
		"wide"			"100"
		"tall"			"100"
		"autoResize"	"0"
		"pinCorner"		"0"
		"visible"		"1"
		"enabled"		"1"
		"useparentbg"	"1"
		"fov"			"54"
		"start_framed"	"1"

		"disable_manipulation"	"1"

		"model"
		{
			"angles_x"		"10"
			"angles_y"		"130"
			"angles_z"		"0"
		}
	}

	"DisguiseStatusBG"
	{
		"ControlName"	"CTFImagePanel"
		"fieldName"		"DisguiseStatusBG"
		"xpos"			"0"
		"ypos"			"36"
		"zpos"			"-1"
		"wide"			"640"
		"tall"			"4"
		"autoResize"	"0"
		"pinCorner"		"0"
		"visible"		"1"
		"enabled"		"1"
		"scaleImage"	"1"
		"image"			"../hud/color_panel_brown"
		"teambg_1"		"../hud/color_panel_brown"
		"teambg_2"		"../hud/color_panel_red"
		"teambg_3"		"../hud/color_panel_blu"
		"paintborder"	"1"
		"border"		"G_TargetBorder"
		"src_corner_height"		"23"
		"src_corner_width"		"23"
		"draw_corner_width"		"0"
		"draw_corner_height" 	"0"	
	}

	"DisguiseNameLabel"
	{	
		"ControlName"		"Label"
		"fieldName"			"DisguiseNameLabel"
		"font"				"LightGravity12"
		"xpos"				"45"
		"ypos"				"15"
		"zpos"				"1"
		"wide"				"115"
		"tall"				"14"
		"autoResize"		"0"
		"pinCorner"			"0"
		"visible"			"1"
		"enabled"			"1"
		"labelText"			"%disguisename%"
		"textAlignment"		"west"
		"dulltext"			"0"
		"brighttext"		"0"
		"fgcolor_override"	"White"
	}

	"DisguiseNameLabelShadow"
	{	
		"ControlName"		"Label"
		"fieldName"			"DisguiseNameLabelShadow"
		"font"				"LightGravity12"
		"xpos"				"46"
		"ypos"				"16"
		"zpos"				"1"
		"wide"				"115"
		"tall"				"14"
		"autoResize"		"0"
		"pinCorner"			"0"
		"visible"			"1"
		"enabled"			"1"
		"labelText"			"%disguisename%"
		"textAlignment"		"west"
		"dulltext"			"0"
		"brighttext"		"0"
		"fgcolor_override"	"ShadowBlack"
	}

	"WeaponNameLabel"
	{	
		"ControlName"		"Label"
		"fieldName"			"WeaponNameLabel"
		"font"				"LightGravity8"
		"xpos"				"45"
		"ypos"				"25"
		"zpos"				"1"
		"wide"				"115"
		"tall"				"12"
		"autoResize"		"0"
		"pinCorner"			"0"
		"visible"			"1"
		"enabled"			"1"
		"labelText"			"%weaponname%"
		"textAlignment"		"west"
		"dulltext"			"0"
		"brighttext"		"0"
		"fgcolor_override"	"White"
	}

	"WeaponNameLabelShadow"
	{	
		"ControlName"	"Label"
		"fieldName"		"WeaponNameLabelShadow"
		"font"			"LightGravity8"
		"xpos"			"46"
		"ypos"			"26"
		"zpos"			"1"
		"wide"			"115"
		"tall"			"12"
		"autoResize"	"0"
		"pinCorner"		"0"
		"visible"		"1"
		"enabled"		"1"
		"labelText"		"%weaponname%"
		"textAlignment"	"west"
		"dulltext"		"0"
		"brighttext"	"0"
		"fgcolor_override"	"ShadowBlack"
	}

	"SpectatorGUIHealth"
	{
		"ControlName"		"EditablePanel"
		"fieldName"			"SpectatorGUIHealth"
		"xpos"				"0"
		"ypos"				"13"
		"wide"				"44"
		"tall"				"30"
		"visible"			"1"
		"enabled"			"1"	
		"HealthBonusPosAdj"	"10"
		"HealthDeathWarning"	"0.49"
		"TFFont"					"HudFontSmall"
		"HealthDeathWarningColor"	"HUDDeathWarning"
		"TextColor"					"HudOffWhite"
	}
}