"Resource/UI/HudObjectiveTimePanel.res"
{	
	"TimePanelBG"
	{
		"ControlName"	"ImagePanel"
		"fieldName"		"TimePanelBG"
		"xpos"			"28"
		"ypos"			"0"
		"zpos"			"2"
		"wide"			"50"
		"tall"			"18"
		"visible"		"1"
		"enabled"		"1"
		"fillcolor"			"Black"
		"scaleImage"			"1"	
		"src_corner_height"		"3"
		"src_corner_width"		"3"
		"draw_corner_width"		"0"
		"draw_corner_height" 	"0"
		
		if_match
		{
			"visible"	"0"
		}
	}
	"TimePanelProgressBar"
	{
		"ControlName"		"CTFProgressBar"
		"fieldName"			"TimePanelProgressBar"
		"xpos"				"67"
		"ypos"				"16"
		"zpos"				"4"	
		"wide"				"20"
		"tall"				"20"
		"visible"			"0"
		"enabled"			"1"
		"scaleImage"		"1"
		"image"				"../hud/objectives_timepanel_progressbar"
		"color_active"		"TimerProgress.Active"
		"color_inactive"	"TimerProgress.InActive"
		"color_warning"		"TimerProgress.Warning"
		"percent_warning"	"0.75"
		
		if_match
		{
			"visible"	"0"
		}
	}

	"WaitingForPlayersLabel"
	{
		"ControlName"	"CExLabel"
		"fieldName"		"WaitingForPlayersLabel"
		"xpos"			"30"
		"ypos"			"14"
		"zpos"			"5"
		"wide"			"40"
		"tall"			"19"
		"visible"		"0"
		"enabled"		"1"
		"labelText"		"#game_WaitingForPlayers"
		"textAlignment"	"center"
		"dulltext"		"0"
		"brighttext"	"0"
		"wrap"			"0"
		"font"			"G_FontTiny_2"
		"fgcolor"		"White"

		if_match
		{
			"ypos"					"21"
			"wide"					"p1"
		}
	}
	"WaitingForPlayersBG"
	{
		"ControlName"	"ImagePanel"
		"fieldName"		"WaitingForPlayersBG"
		"xpos"			"9999"
		"ypos"			"9999"
		"zpos"			"1"
		"wide"			"0"
		"tall"			"15"
		"visible"		"0"
		"enabled"		"1"
		"image"			"../hud/objectives_timepanel_suddendeath"
	}

	"OvertimeLabel"
	{
		"ControlName"	"CExLabel"
		"fieldName"		"OvertimeLabel"
		"xpos"			"33"
		"ypos"			"16"
		"zpos"			"5"
		"wide"			"40"
		"tall"			"14"
		"visible"		"0"
		"enabled"		"1"
		"labelText"		"#game_Overtime"
		"textAlignment"	"center"
		"dulltext"		"0"
		"brighttext"	"0"
		"wrap"			"0"
		"font"			"G_FontTiny_2"
		"fgcolor"		"White"

		if_match
		{
			"xpos"			"29"
			"ypos"			"21"
			"wide"			"p1"
		}
	}
	"OvertimeBG"
	{
		"ControlName"	"ImagePanel"
		"fieldName"		"OvertimeBG"
		"xpos"			"9999"
		"ypos"			"9999"
		"zpos"			"1"
		"wide"			"38"
		"tall"			"12"
		"visible"		"0"
		"enabled"		"1"
		"fillcolor"		"HudBlack"
	}

	"SuddenDeathLabel"
	{
		"ControlName"	"CExLabel"
		"fieldName"		"SuddenDeathLabel"
		"xpos"			"20"
		"ypos"			"13"
		"zpos"			"5"
		"wide"			"60"
		"tall"			"18"
		"visible"		"1"
		"enabled"		"1"
		"labelText"		"#game_SuddenDeath"
		"textAlignment"	"center"
		"dulltext"		"0"
		"brighttext"	"0"
		"wrap"			"0"
		"font"			"G_FontTiny_2"
		"fgcolor"		"White"

		if_match
		{
			"ypos"					"21"
			"wide"					"p1"
		}
	}
	"SuddenDeathBG"
	{
		"ControlName"	"CTFImagePanel"
		"fieldName"		"SuddenDeathBG"
		"xpos"			"9999"
		"ypos"			"9999"
		"zpos"			"1"
		"wide"			"0"
		"tall"			"20"
		"visible"		"0"
		"enabled"		"1"
		"image"			"../hud/objectives_/_suddendeath"
	}

	"SetupLabel"
	{
		"ControlName"	"CExLabel"
		"fieldName"		"SetupLabel"
		"xpos"			"33"
		"ypos"			"15"
		"zpos"			"5"
		"wide"			"40"
		"tall"			"15"
		"visible"		"0"
		"enabled"		"1"
		"labelText"		"#game_Setup"
		"textAlignment"	"center"
		"dulltext"		"0"
		"brighttext"	"0"
		"wrap"			"0"
		"font"			"G_FontTiny_2"
		"fgcolor"		"White"

		if_match
		{
			"xpos"				"29"
			"ypos"				"21"
			"wide"				"p1"
		}
	}
	"SetupBG"
	{
		"ControlName"	"ImagePanel"
		"fieldName"		"SetupBG"
		"xpos"			"9999"
		"ypos"			"9999"
		"zpos"			"1"
		"wide"			"50"
		"tall"			"10"
		"visible"		"0"
		"enabled"		"1"
		"fillcolor"		"HudBlack"
	}

	"ServerTimeLimitLabel"
	{
		"ControlName"	"CExLabel"
		"fieldName"		"ServerTimeLimitLabel"
		"xpos"			"15"
		"ypos"			"16"
		"zpos"			"5"
		"wide"			"78"
		"tall"			"15"
		"visible"		"1"
		"enabled"		"1"
		"labelText"		"%servertimeleft%"
		"textAlignment"	"center"
		"dulltext"		"0"
		"brighttext"	"0"
		"wrap"			"0"
		"font"			"G_FontTiny_2"
		"fgcolor"		"White"

		if_match
		{
			"xpos"		"9999"
			"wide"		"p1"
		}
	}
	"ServerTimeLimitLabelBG"
	{
		"ControlName"	"ImagePanel"
		"fieldName"		"ServerTimeLimitLabelBG"
		"xpos"			"9999"
		"ypos"			"9999"
		"zpos"			"1"
		"wide"			"39"
		"tall"			"14"
		"visible"		"0"
		"enabled"		"0"
		"fillcolor"	"HudBlack"
		"PaintBackgroundType"	"0"	
	}
}