#base "HudItemEffectMeter.res"
"Resource/UI/HudRocketPack.res"
{
	HudItemEffectMeter
	{
		"fieldName"		"HudItemEffectMeter"
		"visible"		"1"
		"enabled"		"1"
		"xpos"			"c102"	
		"ypos"			"374"
		"wide"			"100"
		"tall"			"30"
	}

	"ItemEffectMeterBG"
	{
		"ControlName"	"CTFImagePanel"
		"fieldName"		"ItemEffectMeterBG"
		"xpos"			"9999"
		"ypos"			"9999"
		"zpos"			"1"
		"wide"			"90"
		"tall"			"45"
		"visible"		"0"
		"enabled"		"0"
		"scaleImage"	"1"	
		"image"			"../hud/ammo_blue_bg"
		"teambg_2"		"../hud/ammo_red_bg"
		"teambg_3"		"../hud/ammo_blue_bg"
	}

	"ItemEffectIcon"
	{
		"ControlName"	"CTFImagePanel"
		"fieldName"		"ItemEffectIcon"
		"xpos"			"2"
		"ypos"			"-2"
		"zpos"			"2"
		"wide"			"32"
		"tall"			"32"
		"visible"		"0"
		"enabled"		"0"
		"image"			"../hud/pyro_jetpack_off2"
		"scaleImage"	"1"	
	}

	"ItemEffectMeterLabel"
	{
		"ControlName"	"CExLabel"
		"fieldName"		"ItemEffectMeterLabel"
		"xpos"			"0"
		"ypos"			"7"
		"zpos"			"2"
		"wide"			"100"
		"tall"			"8"
		"autoResize"	"1"
		"pinCorner"		"2"
		"visible"		"1"
		"enabled"		"1"
		"tabPosition"	"0"
		"labelText"		"#TF_RocketPack_Disabled"
		"textAlignment"	"center"
		"dulltext"		"0"
		"brighttext"	"0"
		"font"			"G_FontTiny"
		"fgcolor"		"White"
	}

	"ItemEffectMeter"
	{	
		"ControlName"	"ContinuousProgressBar"
		"fieldName"		"ItemEffectMeter"
		"font"			"Default"
		"xpos"			"28"
		"ypos"			"19"
		"zpos"			"2"
		"wide"			"20"
		"tall"			"6"				
		"autoResize"	"0"
		"pinCorner"		"0"
		"visible"		"1"
		"enabled"		"1"
		"textAlignment"	"center"
		"dulltext"		"0"
		"brighttext"	"0"
		"fgcolor"		"White"
		"bgcolor_override"	"0 0 0 100"
	}

	"ItemEffectMeter2"
	{	
		"ControlName"	"ContinuousProgressBar"
		"fieldName"		"ItemEffectMeter2"
		"font"			"Default"
		"xpos"			"52"
		"ypos"			"19"
		"zpos"			"2"
		"wide"			"20"
		"tall"			"6"				
		"autoResize"	"0"
		"pinCorner"		"0"
		"visible"		"1"
		"enabled"		"1"
		"textAlignment"	"center"
		"dulltext"		"0"
		"brighttext"	"0"
		"fgcolor"		"White"
		"bgcolor_override"	"0 0 0 100"
	}
}
