"Resource/UI/HudSpellSelection.res"
{		
	"ItemEffectMeterBG"
	{
		"ControlName"	"CTFImagePanel"
		"fieldName"		"ItemEffectMeterBG"
		"xpos"			"0"
		"ypos"			"10"
		"wide"			"80"
		"tall"			"40"
		"visible"		"0"
		"enabled"		"0"
		"image"			"../hud/ammo_blue_bg"
		"scaleImage"	"1"	
		"teambg_2"		"../hud/ammo_red_bg"
		"teambg_3"		"../hud/ammo_blue_bg"
	}
	
	"Spellbook"
	{
		"ControlName"	"CTFImagePanel"
		"fieldName"		"Spellbook"
		"xpos"			"10"
		"ypos"			"0"
		"zpos"			"0"
		"wide"			"64"
		"tall"			"56"
		"visible"		"0"
		"enabled"		"0"
		"image"			"spellbook_book"
		"scaleImage"	"1"		
	}
	
	"SpellIcon"
	{
		"ControlName"	"ImagePanel"
		"fieldName"		"SpellIcon"
		"xpos"			"16"
		"ypos"			"15"
		"ypos_minmode"	"35"
		"zpos"			"7"
		"wide"			"24"
		"tall"			"24"
		"visible"		"1"
		"enabled"		"1"
		"scaleImage"	"1"	
		"image"			"../signs/death_wheel_whammy"
		"fgcolor"		"White"
	}
	
	"ActionText"
	{
		"ControlName"	"CExLabel"
		"fieldName"		"ActionText"
		"font"			"Default"
		"labelText"		"%actiontext%"
		"textAlignment" "west"
		"xpos"			"18"
		"ypos"			"43"
		"wide"			"100"
		"tall"			"10"
		"fgcolor"		"White"
		"visible"		"1"
	}
	
	"SpellText"
	{
		"ControlName"	"CExLabel"
		"fieldName"		"SpellText"
		"font"			"Default"
		"labelText"		"%selectedspell%"
		"textAlignment" "west"
		"xpos"			"35"
		"ypos"			"25"
		"wide"			"100"
		"tall"			"10"
		"fgcolor"		"tanlight"
		"visible"		"0"
	}

	"CountText"
	{
		"ControlName"	"CExLabel"
		"fieldName"		"CountText"
		"font"			"LightGravity20"
		"labelText"		"%counttext%"
		"textAlignment" "center"
		"xpos"			"46"
		"ypos"			"17"
		"ypos_minmode"	"37"
		"wide"			"20"
		"tall"			"19"
		"fgcolor"		"White"
	}

	"CountTextShadow"
	{
		"ControlName"	"CExLabel"
		"fieldName"		"CountTextShadow"
		"font"			"LightGravity20"
		"labelText"		"%counttext%"
		"textAlignment" "center"
		"xpos"			"47"
		"ypos"			"18"
		"ypos_minmode"	"38"
		"wide"			"20"
		"tall"			"20"
		"fgcolor"		"ShadowBlack"
	}
}