"Resource/UI/MainMenuOverride.res"
{
	MainMenuOverride
	{
		"fieldName"		"MainMenuOverride"
		"visible"		"1"
		"enabled"		"1"
		"xpos"			"0"
		"ypos"			"0"
		"zpos"			"0"
		"wide"			"f0"
		"tall"			"480"

		"update_url"	"http://store.steampowered.com/news/?filter=updates&appids=440"
		"blog_url"		"http://www.teamfortress.com/"
		
		"button_x_offset"	"-285"
		"button_y"			"120"
		"button_y_delta"	"5"
		"button_kv"
		{
			"xpos"			"0"
			"ypos"			"150"
			"wide"			"250"
			"tall"			"26"
			"visible"		"1"

			"SubButton"
			{
				"ControlName"	"CExImageButton"
				"fieldName"		"SubButton"
				"xpos"			"0"
				"ypos"			"0"
				"wide"			"250"
				"tall"			"26"
				"autoResize"	"0"
				"pinCorner"		"3"
				"visible"		"1"
				"enabled"		"1"
				"tabPosition"	"0"
				"textinsetx"	"0"
				"use_proportional_insets" "1"
				"font"			"LightGravity12"
				"textAlignment"	"west"
				"dulltext"		"0"
				"brighttext"	"0"
				"default"		"1"
				"sound_depressed"	"UI/buttonclick.wav"
				"sound_released"	"UI/buttonclickrelease.wav"
				
				"border_default"	"MainMenuButtonDefault"
				"border_armed"		"MainMenuButtonArmed"
				"paintbackground"	"2"
				
				"defaultFgColor_override"	"White"
				"armedFgColor_override"		"169 123 53 255"
				"depressedFgColor_override" "75 125 255 255"
				
				"image_drawcolor"	"0 0 0 175"
				"image_armedcolor"	"0 0 0 255"

				"SubImage"
				{
					"ControlName"	"ImagePanel"
					"fieldName"		"SubImage"
					"xpos"			"0"
					"ypos"			"0"
					"zpos"			"0"
					"wide"			"0"
					"tall"			"0"
					"visible"		"0"
					"enabled"		"0"
					"scaleImage"	"0"
				}
			}		
		}
		
		"SaxxySettings"
		{
			"xpos"			"0"
			"ypos"			"0"
			"zpos"			"-101"		
			"wide"			"f0"
			"tall"			"480"
			
			"autoResize"	"0"
			"pinCorner"		"0"
			"visible"		"1"
			"enabled"		"1"
			
			"flashbounds_x"	"50"
			"flashbounds_y"	"65"
			"flashbounds_w"	"250"
			"flashbounds_h"	"120"
			
			"flashstartsize_min"	"8"
			"flashstartsize_max"	"12"
			
			"flash_maxscale"		"4"
			
			"flash_lifelength_min"	".1"
			"flash_lifelength_max"	".2"
			
			"curtain_anim_duration"		"4.0"
			"curtain_open_time"		"2.8"
			"flash_start_time"		"4.0"
			
			"initial_freakout_duration"		"15.0"
			"clap_sound_duration"	"10.0"
			
			"CameraFlashSettings"
			{
				"visible"		"1"
				"enabled"		"1"
				"tileImage"		"0"
				"scaleImage"	"1"
				"zpos"			"9"
			}
		}
	}

	"mouseoveritempanel"
	{
		"ControlName"	"CItemModelPanel"
		"fieldName"		"mouseoveritempanel"
		"xpos"			"c-70"
		"ypos"			"270"
		"zpos"			"100"
		"wide"			"300"
		"tall"			"300"
		"visible"		"0"
		"bgcolor_override"		"0 0 0 0"
		"noitem_textcolor"		"117 107 94 255"
		"PaintBackgroundType"	"2"
		"paintborder"	"1"
		"border"		"MainMenuBGBorder"
		
		"text_ypos"			"20"
		"text_center"		"1"
		"model_hide"		"1"
		"resize_to_text"	"1"
		"padding_height"	"15"
		
		"attriblabel"
		{
			"font"			"ItemFontAttribLarge"
			"xpos"			"0"
			"ypos"			"30"
			"zpos"			"2"
			"wide"			"140"
			"tall"			"60"
			"autoResize"	"0"
			"pinCorner"		"0"
			"visible"		"1"
			"enabled"		"1"
			"labelText"		"%attriblist%"
			"textAlignment"	"center"
			"fgcolor"		"117 107 94 255"
			"centerwrap"	"1"
		}
	}
	
	"Background"
	{
		"ControlName"	"ScalableImagePanel"
		"fieldName"		"Background"
		"xpos"			"cs-0.5"
		"ypos"			"0"
		"zpos"			"-200"
		"wide"			"o1.6"
		"tall"			"f0"
		"visible"		"0"
		"enabled"		"1"
		"image"			""
		"scaleImage"	"1"
		"proportionaltoparent"	"1"
		"image"			"../console/background_upward"

		if_wider
		{
			"wide"			"f0"
			"tall"			"o0.628"
		}

		if_taller
		{
			"wide"			"o1.6"
			"tall"			"f0"
		}
	}
	
	"MainMenuSideBG"
	{
		"ControlName"	"ImagePanel"
		"fieldName"		"MainMenuSideBG"
		"xpos"			"40"
		"ypos"			"120"
		"zpos"			"-55"
		"wide"			"260"
		"tall"			"130"
		"autoResize"	"0"
		"pinCorner"		"0"
		"visible"		"1"
		"enabled"		"1"
		"fillcolor"		"HudBlack"
	}

	"RankModelPanel"
	{
		"ControlName"	"CPvPRankPanel"
		"fieldName"		"RankModelPanel"
		"xpos"			"145"
		"ypos"			"cs-0.5-90"
		"zpos"			"-51"
		"wide"			"170"
		"tall"			"1000"
		"visible"		"0"
		"proportionaltoparent"	"1"
		"mouseinputenabled"	"1"
		"matchgroup"	"MatchGroup_Casual_12v12"
		"show_progress"	"0"
	}
	
	"CycleRankTypeButton"
	{
		"ControlName"	"CExImageButton"
		"fieldName"		"CycleRankTypeButton"
		"xpos"			"279"
		"ypos"			"cs-0.5-109"
		"wide"			"15"
		"tall"			"15"
		"autoResize"	"0"
		"pinCorner"		"3"
		"visible"		"1"
		"enabled"		"1"
		"tabPosition"	"0"
		"textinsetx"	"25"
		"labelText"		""
		"use_proportional_insets" "1"
		"font"			"HudFontSmallBold"
		"command"		"open_rank_type_menu"
		"textAlignment"	"west"
		"dulltext"		"0"
		"brighttext"	"0"
		"default"		"1"
		"sound_depressed"	"UI/buttonclick.wav"
		"sound_released"	"vo/null.mp3"
		"actionsignallevel" "1"
		"proportionaltoparent"	"1"
	
		"sound_depressed"	"UI/buttonclick.wav"
		"sound_released"	"UI/buttonclickrelease.wav"
		"paintbackground"	"1"
		"paintborder"		"0"
		"image_drawcolor"	"235 226 202 255"
		"image_armedcolor"	"255 255 255 255"

		"SubImage"
		{
			"ControlName"	"ImagePanel"
			"fieldName"		"SubImage"
			"xpos"			"cs-0.5"
			"ypos"			"cs-0.5"
			"zpos"			"1"
			"wide"			"f2"
			"tall"			"f2"
			"visible"		"1"
			"enabled"		"1"
			"scaleImage"	"1"
			"image"			"glyph_options"

			"proportionaltoparent"	"1"
			"mouseinputenabled"	"0"
			"keyboardinputenabled" "0"
		}		
	}

	"RankTooltipPanel"
	{
		"ControlName"	"ImagePanel"
		"fieldName"		"RankTooltipPanel"
		"xpos"			"c-285"
		"ypos"			"99"
		"zpos"			"-1"
		"wide"			"0"
		"tall"			"8"
		"visible"		"1"
		"proportionaltoparent"	"1"
		"mouseinputenabled"	"1"
		"image"			"info"
		"scaleImage"	"1"	
		"alpha"			"75"
	}
	
	"RankPanel"
	{
		"ControlName"	"CPvPRankPanel"
		"fieldName"		"RankPanel"
		"xpos"			"45"
		"ypos"			"cs-0.5-65"
		"zpos"			"-52"
		"wide"			"170"
		"tall"			"100"
		"visible"		"0"
		"proportionaltoparent"	"1"
		"mouseinputenabled"	"0"
		"matchgroup"	"MatchGroup_Casual_12v12"
		"show_model"	"0"
	}
	
	"NoGCMessage"
	{
		"ControlName"	"Label"
		"fieldName"		"NoGCMessage"
		"xpos"			"33"
		"ypos"			"122"
		"zpos"			"5"
		"wide"			"260"
		"tall"			"100"
		"visible"		"1"
		"proportionaltoparent"	"1"
		"mouseinputenabled"	"0"
		"wrap"			"1"
		"textinsetx"	"40"
		"textinsety"	"10"

		"font"			"HudFontSmallestBold"
		"fgcolor_override"	"TanLight"
		"labelText"		"#TF_MM_NoGC_Rank"
		"textAlignment"	"north-west"
		"use_proportional_insets"	"1"
	}

	"NoGCImage"
	{
		"ControlName"	"ImagePanel"
		"fieldName"		"NoGCImage"
		"xpos"			"255"
		"ypos"			"150"
		"zpos"			"5"
		"wide"			"30"
		"tall"			"30"
		"visible"		"1"
		"enabled"		"1"
		"image"			"gc_dc"
		"scaleImage"	"1"
		"proportionaltoparent" "1"
	}	

	"RankBorder"
	{
		"ControlName"	"EditablePanel"
		"fieldName"		"RankBorder"
		"xpos"			"40"
		"ypos"			"130"
		"zpos"			"-55"
		"wide"			"260"
		"tall"			"130"
		"visible"		"0"
		"PaintBackgroundType"	"2"
		"border"		"MainMenuBGBorder"
		"proportionaltoparent"	"1"
	}

	"TooltipPanel"
	{
		"ControlName"			"EditablePanel"
		"fieldName"				"TooltipPanel"
		"xpos"					"0"
		"ypos"					"0"
		"zpos"					"10000"
		"wide"					"150"
		"tall"					"16"
		"visible"				"0"
		"PaintBackgroundType"	"0"
		"bgcolor_override"		"DarkerGrey"
		"border"				"PanelBorder"
		
		"TipSubLabel"
		{
			"ControlName"	"CExLabel"
			"fieldName"		"TipSubLabel"
			"font"			"LightGravity9"
			"labelText"		"%tipsubtext%"
			"textAlignment"	"center"
			"xpos"			"20"
			"ypos"			"30"
			"zpos"			"2"
			"wide"			"250"
			"tall"			"16"
			"autoResize"	"0"
			"pinCorner"		"0"
			"visible"		"1"
			"enabled"		"1"
			"fgcolor_override"	"117 107 94 255"
			"wrap"			"1"
		}
		
		"TipLabel"
		{
			"ControlName"	"CExLabel"
			"fieldName"		"TipLabel"
			"font"			"LightGravity9"
			"labelText"		"%tiptext%"
			"textAlignment"	"center"
			"xpos"			"20"
			"ypos"			"5"
			"zpos"			"2"
			"wide"			"140"
			"tall"			"10"
			"autoResize"	"0"
			"pinCorner"		"0"
			"visible"		"1"
			"enabled"		"1"
			"fgcolor_override"	"White"
			"auto_wide_tocontents" "1"
		}
	}

	"Notifications_ShowButtonPanel"
	{
		"ControlName"	"EditablePanel"
		"fieldName"		"Notifications_ShowButtonPanel"
		"xpos"			"r28"
		"ypos"			"40"
		"zpos"			"1"
		"wide"			"24"
		"tall"			"20"
		"autoResize"	"0"
		"pinCorner"		"3"
		"visible"		"1"
		"enabled"		"1"
		"bgcolor_override"	"HudBlack"

		"SubImage"
		{
			"ControlName"	"ImagePanel"
			"fieldName"		"SubImage"
			"xpos"			"16"
			"ypos"			"0"
			"zpos"			"3"
			"wide"			"16"
			"tall"			"16"
			"visible"		"0"
			"enabled"		"0"
			"image"			"glyph_achievements"
			"scaleImage"	"1"
			"drawcolor" "210 125 33 255"
		}

		"Notifications_CountLabel"
		{
			"ControlName"	"CExLabel"
			"fieldName"		"Notifications_CountLabel"
			"font"			"LightGravity10"
			"labelText"		"%noticount%"
			"textAlignment"	"center"
			"xpos"			"11"
			"ypos"			"-2"
			"zpos"			"4"
			"wide"			"16"
			"tall"			"16"
			"autoResize"	"0"
			"pinCorner"		"0"
			"visible"		"0"
			"enabled"		"0"
			"fgcolor_override"	"White"
		}

		"Notifications_ShowButtonPanel_SB"
		{
			"ControlName"	"CExImageButton"
			"fieldName"		"Notifications_ShowButtonPanel_SB"
			"xpos"			"0"
			"ypos"			"0"
			"zpos"			"1"
			"wide"			"24"
			"tall"			"20"
			"autoResize"	"0"
			"pinCorner"		"3"
			"visible"		"1"
			"enabled"		"1"
			"tabPosition"	"0"
			"labelText"		""
			"font"			""
			"textAlignment"	"center"
			"dulltext"		"0"
			"brighttext"	"0"
			"default"		"1"
			"actionsignallevel" "2"

			"Command"		"noti_show"
			"navActivate"	"QuickplayButton"

			"sound_depressed"	"UI/buttonclick.wav"
			"sound_released"	"UI/buttonclickrelease.wav"
			"paintbackground"	"0"

			"defaultFgColor_override" 	"255 255 0 255"
			"armedFgColor_override"   	"0 191 255 255"

			"image_drawcolor"	"255 255 0 255"
			"image_armedcolor"	"0 191 255 255"
			"SubImage"
			{
				"ControlName"	"ImagePanel"
				"fieldName"		"SubImage"
				"xpos"			"5"
				"ypos"			"3"
				"zpos"			"1"
				"wide"			"14"
				"tall"			"14"
				"visible"		"1"
				"enabled"		"1"
				"scaleImage"	"1"
				"image"			"replay/thumbnails/buttons/alert"
			}
		}
	}

	"QuestLogButtonNew"
	{
		"ControlName"	"EditablePanel"
		"fieldName"		"QuestLogButtonNew"
		"xpos"			"r28"
		"ypos"			"60"
		"zpos"			"1"
		"wide"			"30"
		"tall"			"24"
		"autoResize"	"0"
		"pinCorner"		"3"
		"visible"		"1"
		"enabled"		"1"
		"tabPosition"	"0"
		
		"navUp"			"Notifications_Panel"
		"navLeft"		"SettingsButton"

		"SubButton"
		{
			"ControlName"	"CExImageButton"
			"fieldName"		"SubButton"
			"xpos"			"0"
			"ypos"			"0"
			"wide"			"24"
			"tall"			"20"
			"autoResize"	"0"
			"pinCorner"		"3"
			"visible"		"1"
			"enabled"		"1"
			"tabPosition"	"0"
			"textinsetx"	"0"
			"labelText"		""
			"font"			""
			"command"		"questlog"
			"textAlignment"	"center"
			"dulltext"		"0"
			"brighttext"	"0"
			"default"		"1"
			"sound_depressed"	"UI/buttonclick.wav"
			"sound_released"	"vo/null.mp3"
			"actionsignallevel" "2"
			"proportionaltoparent"	"1"
				
			"sound_depressed"	"UI/buttonclick.wav"
			"sound_released"	"UI/buttonclickrelease.wav"
			"paintbackground"	"0"
			"paintborder"		"0"

			"defaultFgColor_override" 	"White"
			"armedFgColor_override"   	"0 191 255 255"

			"image_drawcolor"	"White"
			"image_armedcolor"	"0 191 255 255"

			"SubImage"
			{
				"ControlName"	"ImagePanel"
				"fieldName"		"SubImage"
				"xpos"			"5"
				"ypos"			"3"
				"zpos"			"1"
				"wide"			"14"
				"tall"			"14"
				"visible"		"1"
				"enabled"		"1"
				"scaleImage"	"1"
				"image"			"replay/thumbnails/buttons/contracts"

				"proportionaltoparent"	"1"
				"mouseinputenabled"	"0"
				"keyboardinputenabled" "0"
			}
		}
	}

	"FavoriteServer"
	{
		"ControlName"			"EditablePanel"
		"fieldName"				"FavoriteServer"
		"xpos"					"r28"
		"ypos"					"85"
		"zpos"					"1"
		"wide"					"24"
		"tall"					"20"
		"visible"				"1"
		"PaintBackgroundType"	"2"
		
		"SubButton"
		{
			"ControlName"				"CExImageButton"
			"fieldName"					"SubButton"
			"xpos"						"0"
			"ypos"						"0"
			"wide"						"24"
			"tall"						"20"
			"autoResize"				"0"
			"pinCorner"					"3"
			"visible"					"1"
			"enabled"					"1"
			"tabPosition"				"0"
			"use_proportional_insets"	"1"
			"font"						""
			"textAlignment"				"center"
			"dulltext"					"0"
			"brighttext"				"0"
			"default"					"1"
			"sound_depressed"			"ui/buttonclick.wav"
			"sound_released"			"ui/buttonclickrelease.wav"
			"border_default"			""
			"border_armed"				""
			"paintbackground"			"0"
			
			"defaultFgColor_override" 	"White"
			"armedFgColor_override"   	"255 45 38 255"
			"depressedFgColor_override" "75 125 255 255"

			"image_drawcolor"	"White"
			"image_armedcolor"	"255 45 38 255"
			"SubImage"
			{
				"ControlName"	"ImagePanel"
				"fieldName"		"SubImage"
				"xpos"			"5"
				"ypos"			"3"
				"zpos"			"1"
				"wide"			"14"
				"tall"			"14"
				"visible"		"1"
				"enabled"		"1"
				"scaleImage"	"1"
				"image"			"replay/thumbnails/buttons/heart"
			}
		}
	}

	"WatchStreamButton"
	{
		"ControlName"	"EditablePanel"
		"fieldName"		"WatchStreamButton"
		"xpos"			"r28"
		"ypos"			"110"
		"zpos"			"0"
		"wide"			"24"
		"tall"			"20"
		"autoResize"	"0"
		"pinCorner"		"3"
		"visible"		"1"
		"enabled"		"1"
		"tabPosition"	"0"
		
		"navUp"			"Notifications_Panel"
		"navLeft"		"SettingsButton"

		"SubButton"
		{
			"ControlName"	"CExImageButton"
			"fieldName"		"SubButton"
			"xpos"			"0"
			"ypos"			"0"
			"wide"			"24"
			"tall"			"20"
			"autoResize"	"0"
			"pinCorner"		"3"
			"visible"		"1"
			"enabled"		"1"
			"tabPosition"	"0"
			"textinsetx"	"0"
			"labelText"		""
			"use_proportional_insets" "1"
			"font"			""
			"command"		"watch_stream"
			"textAlignment"	"center"
			"dulltext"		"0"
			"brighttext"	"0"
			"default"		"1"
			"sound_depressed"	"UI/buttonclick.wav"
			"sound_released"	"vo/null.mp3"
			"actionsignallevel" "2"
				
			"sound_depressed"	"UI/buttonclick.wav"
			"sound_released"	"UI/buttonclickrelease.wav"
			"paintbackground"	"0"
			"paintborder"		"0"

			"defaultFgColor_override" 	"White"
			"armedFgColor_override"   	"0 191 255 255"

			"image_drawcolor"	"White"
			"image_armedcolor"	"100 65 165 255"

			"SubImage"
			{
				"ControlName"	"ImagePanel"
				"fieldName"		"SubImage"
				"xpos"			"2"
				"ypos"			"0"
				"zpos"			"1"
				"wide"			"20"
				"tall"			"20"
				"visible"		"1"
				"enabled"		"1"
				"scaleImage"	"1"
				"image"			"replay/thumbnails/buttons/twitch"
			}
		}
	}

	"StreamListPanel"
	{
		"ControlName"	"CTFStreamListPanel"
		"fieldName"		"StreamListPanel"
		"xpos"			"r83"
		"ypos"			"140"
		"zpos"			"1"
		"wide"			"83"
		"tall"			"260"
		"visible"		"0"
		"PaintBackgroundType"	"0"
		"paintbackground"		"0"
	}

	"MOTD_Panel"
	{
		"ControlName"	"EditablePanel"
		"fieldName"		"MOTD_Panel"
		"xpos"			"0"
		"ypos"			"0"
		"zpos"			"0"
		"wide"			"0"
		"tall"			"0"
		"visible"		"0"
		"PaintBackgroundType"	"2"
		"paintbackground"		"0"
		"border"				""
	}

	"Notifications_Panel"
	{
		"ControlName"	"EditablePanel"
		"fieldName"		"Notifications_Panel"
		"xpos"			"c0"
		"ypos"			"40"
		"zpos"			"1"
		"wide"			"210"
		"tall"			"80"
		"visible"		"0"
		"PaintBackgroundType"	"2"
		"paintbackground"		"0"
		"border"				"MainMenuHighlightBorder"
		
		"Notifications_CloseButton"
		{
			"ControlName"	"CExImageButton"
			"fieldName"		"Notifications_CloseButton"
			"xpos"			"186"
			"ypos"			"8"
			"zpos"			"10"
			"wide"			"14"
			"tall"			"14"
			"autoResize"	"0"
			"pinCorner"		"0"
			"visible"		"1"
			"enabled"		"1"
			"tabPosition"	"0"
			"labeltext"		""
			"font"			"LightGravity12"
			"textAlignment"	"center"
			"dulltext"		"0"
			"brighttext"	"0"
			"default"		"0"
			"actionsignallevel"	"2"

			"Command"		"noti_hide"
			"navActivate"	"<QuickplayButton"

			"sound_depressed"	"UI/buttonclick.wav"
			"sound_released"	"UI/buttonclickrelease.wav"

			"paintbackground"	"0"
			
			"defaultFgColor_override" 	"46 43 42 255"
			"armedFgColor_override" 	"235 226 202 255"
			"depressedFgColor_override" "46 43 42 255"

			"image_drawcolor"	"117 107 94 255"
			"image_armedcolor"	"200 80 60 255"

			"SubImage"
			{
				"ControlName"	"ImagePanel"
				"fieldName"		"SubImage"
				"xpos"			"0"
				"ypos"			"0"
				"zpos"			"1"
				"wide"			"14"
				"tall"			"14"
				"visible"		"1"
				"enabled"		"1"
				"image"			"close_button"
				"scaleImage"	"1"
			}				
		}		
	
		"Notifications_TitleLabel"
		{
			"ControlName"	"CExLabel"
			"fieldName"		"Notifications_TitleLabel"
			"font"			"LightGravity12"
			"labelText"		"%notititle%"
			"textAlignment"	"north-west"
			"xpos"			"12"
			"ypos"			"8"
			"wide"			"250"
			"tall"			"20"
			"autoResize"	"0"
			"pinCorner"		"0"
			"visible"		"1"
			"enabled"		"1"
			"fgcolor_override"	"46 43 42 255"
			"wrap"			"1"
		}
		
		"Notifications_Scroller"
		{
			"ControlName"	"ScrollableEditablePanel"
			"fieldName"		"Notifications_Scroller"
			"xpos"			"8"
			"ypos"			"25"
			"wide"			"210"
			"tall"			"135"
			"PaintBackgroundType"	"2"
			"fgcolor_override"	"117 107 94 255"
			
			"Notifications_Control"
			{
				"ControlName"	"CMainMenuNotificationsControl"
				"fieldName"		"Notifications_Control"
				"xpos"			"0"
				"ypos"			"0"
				"wide"			"220"
				"tall"			"135"
				"visible"		"1"
			}
		}
	}

	"CompetitiveAccessInfoPanel"
	{
		"ControlName"	"CCompetitiveAccessInfoPanel"
		"fieldName"		"CompetitiveAccessInfoPanel"
		"xpos"			"cs-0.5"
		"ypos"			"cs-0.5"
		"zpos"			"1000"
		"wide"			"f0"
		"tall"			"f0"
		"visible"		"0"
	}

	"FriendsContainer"
	{
		"ControlName"	"EditablePanel"
		"fieldname"		"FriendsContainer"
		"xpos"			"40"
		"ypos"			"249"
		"zpos"			"-1"
		"wide"			"260"
		"tall"			"190"
		"visible"		"1"

		"border"		"NoBorder"
		"bgcolor_override"	"HudBlack"

		"TitleLabel"
		{
			"ControlName"	"CExLabel"
			"fieldName"		"TitleLabel"
			"font"			"HudFontSmallBold"
			"labelText"		"#TF_Competitive_Friends"
			"textAlignment"	"west"
			"xpos"			"12"
			"ypos"			"0"
			"wide"			"f0"
			"tall"			"30"
			"autoResize"	"0"
			"pinCorner"		"0"
			"visible"		"1"
			"enabled"		"1"
			"textinsetx"	"0"
			"fgcolor_override"	"235 227 203 255"
		}

		"InnerShadow"
		{
			"ControlName"	"EditablePanel"
			"fieldname"		"InnerShadow"
			"xpos"			"cs-0.5"
			"ypos"			"rs1-15"
			"zpos"			"501"
			"wide"			"f20"
			"tall"			"150"
			"visible"		"1"	
			"PaintBackgroundType"	"0"
			"proportionaltoparent"	"1"
			"mouseinputenabled"	"0"

			"paintborder"	"1"
			"border"		"InnerShadowBorder"
		}

		"SteamFriendsList"
		{
			"ControlName"	"CSteamFriendsListPanel"
			"fieldname"		"SteamFriendsList"
			"xpos"			"cs-0.5"
			"ypos"			"rs1-15"
			"zpos"			"500"
			"wide"			"f20"
			"tall"			"150"
			"visible"		"1"
			"proportionaltoparent"	"1"

			"columns_count"	"2"
			"inset_x"		"10"
			"inset_y"		"5"
			"row_gap"		"5"
			"column_gap"	"20"
			"restrict_width"	"0"

			"friendpanel_kv"
			{
				"wide"		"100"
				"tall"		"20"
			}

			"ScrollBar"
			{
				"ControlName"	"ScrollBar"
				"FieldName"		"ScrollBar"
				"xpos"			"rs1-1"
				"ypos"			"0"
				"tall"			"f0"
				"wide"			"5" // This gets slammed from client schme.  GG.
				"zpos"			"1000"
				"nobuttons"		"1"
				"proportionaltoparent"	"1"

				"Slider"
				{
					"fgcolor_override"	"TanDark"
				}
		
				"UpButton"
				{
					"ControlName"	"Button"
					"FieldName"		"UpButton"
					"visible"		"0"
				}
		
				"DownButton"
				{
					"ControlName"	"Button"
					"FieldName"		"DownButton"
					"visible"		"0"
				}
			}
		}

		"BelowDarken"
		{
			"ControlName"	"EditablePanel"
			"fieldname"		"BelowDarken"
			"xpos"			"cs-0.5"
			"ypos"			"rs1-15"
			"zpos"			"499"
			"wide"			"f20"
			"tall"			"150"
			"visible"		"1"	
			"PaintBackgroundType"	"0"
			"proportionaltoparent"	"1"
			"mouseinputenabled"	"0"

			"bgcolor_override"	"0 0 0 100"
		}
	}

	"TFLogoImage"
	{
		"ControlName"	"ImagePanel"
		"fieldName"		"TFLogoImage"
		"xpos"			"40"
		"ypos"			"60"
		"zpos"			"1"
		"wide"			"256"
		"tall"			"64"
		"visible"		"1"
		"enabled"		"1"
		"image"			"../logo/new_tf2_logo"
		"scaleImage"	"1"
		"mouseinputenabled"	"0"
	}

	"TFCharacterImage"
	{
		"ControlName"	"ImagePanel"
		"fieldName"		"TFCharacterImage"
		"xpos"			"9999"
		"ypos"			"-80"
		"zpos"			"-99"
		"wide"			"600"
		"tall"			"600"
		"visible"		"0"
		"enabled"		"0"
		"scaleImage"	"1"
	}
	
	"VersionLabel"
	{
		"ControlName"	"CExLabel"
		"fieldName"		"VersionLabel"
		"font"			"LightGravity10"
		"labelText"		"FlawHUD v2018.0430"
		"xpos"			"r80"
		"ypos"			"r13"
		"wide"			"80"
		"tall"			"10"
		"autoResize"	"0"
		"pinCorner"		"0"
		"visible"		"1"
		"enabled"		"1"
		"fgcolor_override"	"White"
	}

	"CharacterSetupButton"
	{
		"ControlName"	"EditablePanel"
		"fieldname"		"CharacterSetupButton"
		"xpos"			"55"
		"ypos"			"175"
		"zpos"			"11"
		"wide"			"80"
		"tall"			"14"
		"visible"		"1"
		"PaintBackgroundType"	"2"
		"SubButton"
		{
			"ControlName"	"CExImageButton"
			"fieldName"		"SubButton"
			"xpos"			"0"
			"ypos"			"0"
			"wide"			"80"
			"tall"			"14"
			"autoResize"	"0"
			"pinCorner"		"3"
			"visible"		"1"
			"enabled"		"1"
			"tabPosition"	"0"
			"font"			"G_FontSmall"
			"textAlignment"	"west"
			"textinsetx"	"10"
			"use_proportional_insets" "1"
			"dulltext"		"0"
			"brighttext"	"0"
			"default"		"1"
			"sound_depressed"	"UI/buttonclick.wav"
			"sound_released"	"UI/buttonclickrelease.wav"
			
			"border_default"	""
			"border_armed"		"MenuBorder"
			"paintbackground"	"0"

			"defaultFgColor_override" "White"
			"armedFgColor_override"   "White"
			"depressedFgColor_override" "75 125 255 255"

			"image_drawcolor"	"0 0 0 175"
			"image_armedcolor"	"0 0 0 255"
			"SubImage"
			{
				"ControlName"	"ImagePanel"
				"fieldName"		"SubImage"
				"xpos"			"0"
				"ypos"			"0"
				"zpos"			"0"
				"wide"			"0"
				"tall"			"0"
				"visible"		"0"
				"enabled"		"0"
				"scaleImage"	"0"
			}
		}
	}

	"GeneralStoreButton"
	{
		"ControlName"	"EditablePanel"
		"fieldname"		"GeneralStoreButton"
		"xpos"			"55"
		"ypos"			"195"
		"zpos"			"11"
		"wide"			"110"
		"tall"			"14"
		"visible"		"1"
		"PaintBackgroundType"	"2"
		"SubButton"
		{
			"ControlName"	"CExImageButton"
			"fieldName"		"SubButton"
			"xpos"			"0"
			"ypos"			"0"
			"wide"			"110"
			"tall"			"14"
			"autoResize"	"0"
			"pinCorner"		"3"
			"visible"		"1"
			"enabled"		"1"
			"tabPosition"	"0"
			"textinsetx"	"10"
			"use_proportional_insets" "1"
			"font"			"G_FontSmall"
			"textAlignment"	"west"
			"dulltext"		"0"
			"brighttext"	"0"
			"default"		"1"
			"sound_depressed"	"UI/buttonclick.wav"
			"sound_released"	"UI/buttonclickrelease.wav"

			"border_default"	""
			"border_armed"		"MenuBorder"
			"paintbackground"	"0"

			"defaultFgColor_override" "White"
			"armedFgColor_override"   "White"
			"depressedFgColor_override" "75 125 255 255"

			"image_drawcolor"	"0 0 0 175"
			"image_armedcolor"	"0 0 0 255"
			"SubImage"
			{
				"ControlName"	"ImagePanel"
				"fieldName"		"SubImage"
				"xpos"			"0"
				"ypos"			"0"
				"zpos"			"0"
				"wide"			"0"
				"tall"			"0"
				"visible"		"0"
				"enabled"		"0"
				"scaleImage"	"0"
			}
		}
	}

	"SettingsButton"
	{
		"ControlName"	"EditablePanel"
		"fieldName"		"SettingsButton"
		"xpos"			"55"
		"ypos"			"215"
		"zpos"			"11"
		"wide"			"70"
		"tall"			"14"
		"PaintBackgroundType"	"2"

		"SubButton"
		{
			"ControlName"	"CExImageButton"
			"fieldName"		"SubButton"
			"xpos"			"0"
			"ypos"			"0"
			"wide"			"70"
			"tall"			"14"
			"autoResize"	"0"
			"pinCorner"		"3"
			"visible"		"1"
			"enabled"		"1"
			"tabPosition"	"0"
			"textinsetx"	"10"
			"use_proportional_insets" "1"
			"font"			"G_FontSmall"
			"textAlignment"	"west"
			"dulltext"		"0"
			"brighttext"	"0"
			"default"		"1"
			"sound_depressed"	"UI/buttonclick.wav"
			"sound_released"	"UI/buttonclickrelease.wav"

			"border_default"	""
			"border_armed"		"MenuBorder"
			"paintbackground"	"0"

			"defaultFgColor_override" "White"
			"armedFgColor_override"   "White"
			"depressedFgColor_override" "75 125 255 255"

			"image_drawcolor"	"0 0 0 175"
			"image_armedcolor"	"0 0 0 255"
			"SubImage"
			{
				"ControlName"	"ImagePanel"
				"fieldName"		"SubImage"
				"xpos"			"0"
				"ypos"			"0"
				"zpos"			"0"
				"wide"			"0"
				"tall"			"0"
				"visible"		"0"
				"enabled"		"0"
				"scaleImage"	"0"
			}
		}
	}

	"TF2SettingsButton"
	{
		"ControlName"	"EditablePanel"
		"fieldName"		"TF2SettingsButton"
		"xpos"			"55"
		"ypos"			"235"
		"zpos"			"11"
		"wide"			"100"
		"tall"			"14"
		"PaintBackgroundType"	"2"

		"SubButton"
		{
			"ControlName"	"CExImageButton"
			"fieldName"		"SubButton"
			"xpos"			"0"
			"ypos"			"0"
			"wide"			"100"
			"tall"			"14"
			"autoResize"	"0"
			"pinCorner"		"3"
			"visible"		"1"
			"enabled"		"1"
			"tabPosition"	"0"
			"textinsetx"	"10"
			"use_proportional_insets" "1"
			"font"			"G_FontSmall"
			"textAlignment"	"west"
			"dulltext"		"0"
			"brighttext"	"0"
			"default"		"1"
			"sound_depressed"	"UI/buttonclick.wav"
			"sound_released"	"UI/buttonclickrelease.wav"

			"border_default"	""
			"border_armed"		"MenuBorder"
			"paintbackground"	"0"

			"defaultFgColor_override" "White"
			"armedFgColor_override"   "White"
			"depressedFgColor_override" "75 125 255 255"

			"image_drawcolor"	"0 0 0 175"
			"image_armedcolor"	"0 0 0 255"
			"SubImage"
			{
				"ControlName"	"ImagePanel"
				"fieldName"		"SubImage"
				"xpos"			"0"
				"ypos"			"0"
				"zpos"			"0"
				"wide"			"0"
				"tall"			"0"
				"visible"		"0"
				"enabled"		"0"
				"scaleImage"	"0"
			}
		}
	}

	"AchievementsButton"
	{
		"ControlName"	"EditablePanel"
		"fieldname"		"AchievementsButton"
		"xpos"			"0"
		"ypos"			"460"
		"zpos"			"12"
		"wide"			"20"
		"tall"			"20"
		"visible"		"1"

		"navUp"			"CompetitiveButton"
		"navRight"		"SettingsButton"
		
		"SubButton"
		{
			"ControlName"	"CExImageButton"
			"fieldName"		"SubButton"
			"xpos"			"0"
			"ypos"			"0"
			"wide"			"20"
			"tall"			"20"
			"autoResize"	"0"
			"pinCorner"		"3"
			"visible"		"1"
			"enabled"		"1"
			"tabPosition"	"0"
			"textinsetx"	"100"
			"use_proportional_insets" "1"
			"font"			"HudFontSmallBold"
			"textAlignment"	"west"
			"dulltext"		"0"
			"brighttext"	"0"
			"default"		"1"
			"sound_depressed"	"UI/buttonclick.wav"
			"sound_released"	"UI/buttonclickrelease.wav"
			"Command"			"OpenAchievementsDialog"
			"border_default"	"NoBorder"
			"border_armed"		"NoBorder"
			"paintbackground"	"0"
			
			"image_drawcolor"	"G_White"
			"image_armedcolor"	"214 206 200 255"
			
			"SubImage"
			{
				"ControlName"	"ImagePanel"
				"fieldName"		"SubImage"
				"xpos"			"4"
				"ypos"			"4"
				"zpos"			"1"
				"wide"			"12"
				"tall"			"12"
				"visible"		"1"
				"enabled"		"1"
				"image"			"glyph_tf2"
				"scaleImage"	"1"
			}
		}
	}

	"CreateServerButton"
	{
		"ControlName"	"EditablePanel"
		"fieldname"		"CreateServerButton"
		"xpos"			"15"
		"ypos"			"460"
		"zpos"			"12"
		"wide"			"20"
		"tall"			"20"
		"visible"		"1"
		"SubButton"
		{
			"ControlName"	"CExImageButton"
			"fieldName"		"SubButton"
			"xpos"			"0"
			"ypos"			"0"
			"wide"			"20"
			"tall"			"20"
			"autoResize"	"0"
			"pinCorner"		"3"
			"visible"		"1"
			"enabled"		"1"
			"tabPosition"	"0"
			"textinsetx"	"100"
			"use_proportional_insets" "1"
			"font"			"HudFontSmallBold"
			"textAlignment"	"west"
			"dulltext"		"0"
			"brighttext"	"0"
			"default"		"1"
			"sound_depressed"	"UI/buttonclick.wav"
			"sound_released"	"UI/buttonclickrelease.wav"
			"paintbackground"	"0"

			"image_drawcolor"	"White"
			"image_armedcolor"	"214 206 200 255"

			"SubImage"
			{
				"ControlName"	"ImagePanel"
				"fieldName"		"SubImage"
				"xpos"			"4"
				"ypos"			"4"
				"zpos"			"1"
				"wide"			"12"
				"tall"			"12"
				"visible"		"1"
				"enabled"		"1"
				"image"			"glyph_tf2"
				"scaleImage"	"1"
			}
		}
	}

	"ReplayButton"
	{
		"ControlName"	"EditablePanel"
		"fieldname"		"ReplayButton"
		"xpos"			"30"
		"ypos"			"460"
		"zpos"			"12"
		"wide"			"20"
		"tall"			"20"
		"proportionaltoparent"	"1"
		"SubButton"
		{
			"ControlName"	"CExImageButton"
			"fieldName"		"SubButton"
			"xpos"			"0"
			"ypos"			"0"
			"wide"			"20"
			"tall"			"20"
			"autoResize"	"0"
			"pinCorner"		"3"
			"visible"		"1"
			"enabled"		"1"
			"tabPosition"	"0"
			"textinsetx"	"100"
			"font"			"HudFontSmallBold"
			"textAlignment"	"west"
			"dulltext"		"0"
			"brighttext"	"0"
			"default"		"1"
			"sound_depressed"	"UI/buttonclick.wav"
			"sound_released"	"UI/buttonclickrelease.wav"
			"paintbackground"	"0"

			"image_drawcolor"	"G_White"
			"image_armedcolor"	"214 206 200 255"

			"SubImage"
			{
				"ControlName"	"ImagePanel"
				"fieldName"		"SubImage"
				"xpos"			"4"
				"ypos"			"4"
				"zpos"			"1"
				"wide"			"12"
				"tall"			"12"
				"visible"		"1"
				"enabled"		"1"
				"image"			"glyph_tf2"
				"scaleImage"	"1"
			}
		}
	}
	
	"ConsoleButton"
	{
		"ControlName"	"EditablePanel"
		"fieldname"		"ConsoleButton"
		"xpos"			"45"
		"ypos"			"460"
		"zpos"			"12"
		"wide"			"20"
		"tall"			"20"
		"proportionaltoparent"	"1"
		"SubButton"
		{
			"ControlName"	"CExImageButton"
			"fieldName"		"SubButton"
			"xpos"			"0"
			"ypos"			"0"
			"wide"			"20"
			"tall"			"20"
			"autoResize"	"0"
			"pinCorner"		"3"
			"visible"		"1"
			"enabled"		"1"
			"tabPosition"	"0"
			"textinsetx"	"100"
			"font"			"HudFontSmallBold"
			"textAlignment"	"west"
			"dulltext"		"0"
			"brighttext"	"0"
			"default"		"1"
			"sound_depressed"	"UI/buttonclick.wav"
			"sound_released"	"UI/buttonclickrelease.wav"
			"paintbackground"	"0"

			"image_drawcolor"	"G_White"
			"image_armedcolor"	"214 206 200 255"

			"SubImage"
			{
				"ControlName"	"ImagePanel"
				"fieldName"		"SubImage"
				"xpos"			"4"
				"ypos"			"4"
				"zpos"			"1"
				"wide"			"12"
				"tall"			"12"
				"visible"		"1"
				"enabled"		"1"
				"image"			"glyph_tf2"
				"scaleImage"	"1"
			}
		}
	}
	
	"CallVoteButton"	//IN-GAME BUTTON
	{
		"ControlName"	"EditablePanel"
		"fieldname"		"CallVoteButton"
		"xpos"			"65"
		"ypos"			"463"
		"zpos"			"12"
		"wide"			"14"
		"tall"			"14"
		"visible"		"1"

		"SubButton"
		{
			"ControlName"	"CExImageButton"
			"fieldName"		"SubButton"
			"xpos"			"0"
			"ypos"			"0"
			"wide"			"14"
			"tall"			"14"
			"autoResize"	"0"
			"pinCorner"		"3"
			"visible"		"1"
			"enabled"		"1"
			"tabPosition"	"0"
			"textinsetx"	"10"
			"use_proportional_insets" "1"
			"font"			"LightGravity12"
			"textAlignment"	"west"
			"dulltext"		"0"
			"brighttext"	"0"
			"default"		"1"
			"sound_depressed"	"UI/buttonclick.wav"
			"sound_released"	"UI/buttonclickrelease.wav"
			"paintbackground"	"0"

			"defaultFgColor_override" "46 43 42 255"
			"armedFgColor_override" "46 43 42 255"
			"depressedFgColor_override" "46 43 42 255"

			"image_drawcolor"	"White"
			"image_armedcolor"	"169 123 53 255"

			"SubImage"
			{
				"ControlName"	"ImagePanel"
				"fieldName"		"SubImage"
				"xpos"			"1"
				"ypos"			"1"
				"zpos"			"1"
				"wide"			"12"
				"tall"			"12"
				"visible"		"1"
				"enabled"		"1"
				"image"			"glyph_create"
				"scaleImage"	"1"
			}
		}
	}

	"MutePlayersButton"		//IN-GAME BUTTON
	{
		"ControlName"	"EditablePanel"
		"fieldname"		"MutePlayersButton"
		"xpos"			"80"
		"ypos"			"463"
		"zpos"			"12"
		"wide"			"14"
		"tall"			"14"
		"visible"		"1"

		"SubButton"
		{
			"ControlName"	"CExImageButton"
			"fieldName"		"SubButton"
			"xpos"			"0"
			"ypos"			"0"
			"wide"			"14"
			"tall"			"14"
			"autoResize"	"0"
			"pinCorner"		"3"
			"visible"		"1"
			"enabled"		"1"
			"tabPosition"	"0"
			"textinsetx"	"10"
			"use_proportional_insets" "1"
			"font"			"LightGravity12"
			"textAlignment"	"west"
			"dulltext"		"0"
			"brighttext"	"1"
			"labeltext"		""
			"default"		"1"
			"sound_depressed"	"UI/buttonclick.wav"
			"sound_released"	"UI/buttonclickrelease.wav"
			"paintbackground"	"0"

			"defaultFgColor_override" "46 43 42 255"
			"armedFgColor_override" "46 43 42 255"
			"depressedFgColor_override" "46 43 42 255"
			
			"image_drawcolor"	"White"
			"image_armedcolor"	"169 123 53 255"

			"SubImage"
			{
				"ControlName"	"ImagePanel"
				"fieldName"		"SubImage"
				"xpos"			"1"
				"ypos"			"1"
				"zpos"			"1"
				"wide"			"12"
				"tall"			"12"
				"visible"		"1"
				"enabled"		"1"
				"image"			"glyph_create"
				"scaleImage"	"1"
			}
		}
	}

	"ReportPlayerButton"	//IN-GAME BUTTON
	{
		"ControlName"	"EditablePanel"
		"fieldname"		"ReportPlayerButton"
		"xpos"			"95"
		"ypos"			"463"
		"zpos"			"12"
		"wide"			"14"
		"tall"			"14"
		"visible"		"0"

		"navLeft"		"ResumeGameButton"
		"navRight"		"CallVoteButton"
		"navDown"		"QuickplayChangeButton"
		"navToRelay"	"SubButton"

		"SubButton"
		{
			"ControlName"	"CExImageButton"
			"fieldName"		"SubButton"
			"xpos"			"0"
			"ypos"			"0"
			"wide"			"14"
			"tall"			"14"
			"autoResize"	"0"
			"pinCorner"		"3"
			"visible"		"1"
			"enabled"		"1"
			"tabPosition"	"0"
			"textinsetx"	"0"
			"labelText"		""
			"use_proportional_insets" "1"
			"font"			""
			"textAlignment"	"center"
			"dulltext"		"0"
			"brighttext"	"0"
			"default"		"1"
			"sound_depressed"	"UI/buttonclick.wav"
			"sound_released"	"UI/buttonclickrelease.wav"
			"paintbackground"	"0"
			
			"defaultFgColor_override" "46 43 42 255"
			"armedFgColor_override" "46 43 42 255"
			"depressedFgColor_override" "46 43 42 255"
			
			"image_drawcolor"	"White"
			"image_armedcolor"	"169 123 53 255"
			
			"SubImage"
			{
				"ControlName"	"ImagePanel"
				"fieldName"		"SubImage"
				"xpos"			"1"
				"ypos"			"1"
				"zpos"			"1"
				"wide"			"12"
				"tall"			"12"
				"visible"		"1"
				"enabled"		"1"
				"image"			"glyph_alert"
				"scaleImage"	"1"
			}
		}
	}

	"icon_generator"
	{
		"ControlName"	"CEmbeddedItemModelPanel"
		"fieldName"		"icon_generator"
		"xpos"			"0"
		"ypos"			"0"
		"zpos"			"1"		
		"wide"			"300"
		"tall"			"300"
		"autoResize"	"0"
		"pinCorner"		"0"
		"visible"		"1"
		"enabled"		"1"
		"useparentbg"	"1"
		"inset_eq_x"	"2"
		"inset_eq_y"	"2"
		"fov"			"54"
		"start_framed"	"1"
		"disable_manipulation"	"1"

		"model"
		{
			"angles_x"		"10"
			"angles_y"		"130"
			"angles_z"		"0"
		}
	}
}