"Resource/UI/MvMScoreboard.res"
{
	"WaveStatusPanel"
	{
		"ControlName"		"CWaveStatusPanel"
		"fieldName"			"WaveStatusPanel"
		"xpos"				"0"
		"ypos"				"8"
		"zpos"				"0"
		"wide"				"600"
		"tall"				"67"
		"visible"			"1"
		"enabled"			"1"
		"verbose"			"1"
	}
	
	"PopFileLabel"
	{
		"ControlName"		"CExLabel"
		"fieldName"			"PopFileLabel"
		"font"				"G_FontTiny_2"
		"labelText"			"%popfile%"
		"textAlignment"		"East"
		"xpos"				"-25"
		"ypos"				"74"
		"wide"				"600"
		"tall"				"20"
		"fgcolor"			"White"
	}
	
	"PlayerListBackground"
	{
		"ControlName"		"ScalableImagePanel"
		"fieldName"			"PlayerListBackground"
		"xpos"				"0"
		"ypos"				"0"
		"zpos"				"0"
		"wide"				"0"
		"tall"				"0"
		"visible"			"0"
		"enabled"			"0"
		"image"				"../hud/tournament_panel_brown"
		"scaleImage"		"0"
		"src_corner_height"		"0"
		"src_corner_width"		"0"
		"draw_corner_width"		"0"
		"draw_corner_height" 	"0"
	}
	
	"PlayerListBG"
	{
		"ControlName"		"EditablePanel"
		"fieldName"			"PlayerListBG"
		"xpos"				"25"
		"ypos"				"90"
		"zpos"				"-1"
		"wide"				"550"
		"tall"				"150"
		"visible"			"1"
		"enabled"			"1"	
		"pinCorner"			"0"
		"autoResize"		"0"
		"PaintBackgroundType"	"0"
		"paintbackground"		"1"
		"bgcolor_override"		"25 25 25 200"
	}
	
	"MvMPlayerList"
	{
		"ControlName"		"SectionedListPanel"
		"fieldName"			"MvMPlayerList"
		"xpos"				"35"
		"ypos"				"94"
		"wide"				"530"
		"tall"				"150"
		"pinCorner"			"0"
		"visible"			"1"
		"enabled"			"1"
		"tabPosition"		"0"
		"autoresize"		"3"
		"linespacing"		"22"
		"textcolor"			"White"
	}
	
	"CreditStatsContainer"
	{
		"ControlName"		"EditablePanel"
		"fieldName"			"CreditStatsContainer"
		"xpos"				"25"
		"ypos"				"245"
		"wide"				"400"
		"tall"				"205"
		"visible"			"1"
		
		"CreditStatsBackground"
		{
			"ControlName"	"ScalableImagePanel"
			"fieldName"		"CreditStatsBackground"
			"xpos"			"0"
			"ypos"			"0"
			"zpos"			"0"
			"wide"			"0"
			"tall"			"0"
			"autoResize"	"0"
			"pinCorner"		"0"
			"visible"		"0"
			"enabled"		"0"
			"image"			"../HUD/tournament_panel_brown"
			"src_corner_height"		"0"
			"src_corner_width"		"0"
			"draw_corner_width"		"0"
			"draw_corner_height" 	"0"	
		}
		"CreditStatsBG"
		{
			"ControlName"	"EditablePanel"
			"fieldName"		"CreditStatsBG"
			"xpos"			"0"
			"ypos"			"0"
			"zpos"			"-1"
			"wide"			"275"
			"tall"			"132"
			"visible"		"1"
			"enabled"		"1"	
			"pinCorner"		"0"
			"autoResize"	"0"
			"PaintBackgroundType"	"0"
			"paintbackground"		"1"
			"bgcolor_override"		"25 25 25 200"

		}
		
		"CreditsLabel"
		{
			"ControlName"	"CExLabel"
			"fieldName"		"CreditsLabel"
			"font"			"G_FontMedium"
			"labelText"		"#TF_PVE_Currency"
			"textAlignment" "center"
			"xpos"			"0"
			"ypos"			"5"
			"wide"			"275"
			"tall"			"20"
			"fgcolor"		"White"
		}
		
		"PreviousWaveCreditInfoPanel"
		{
			"ControlName"	"CCreditDisplayPanel"
			"fieldName"		"PreviousWaveCreditInfoPanel"
			"xpos"			"5"
			"ypos"			"30"
			"wide"			"135"
			"tall"			"60"
			"wide"			"200"
			"visible"		"1"
		}
		
		"TotalGameCreditInfoPanel"
		{
			"ControlName"	"CCreditDisplayPanel"
			"fieldName"		"TotalGameCreditInfoPanel"
			"xpos"			"140"
			"ypos"			"30"
			"wide"			"135"
			"tall"			"60"
			"wide"			"200"
			"visible"		"1"
		}
		
		"PreviousWaveCreditSpendPanel"
		{
			"ControlName"	"CCreditSpendPanel"
			"fieldName"		"PreviousWaveCreditSpendPanel"
			"xpos"			"5"
			"ypos"			"72"
			"wide"			"135"
			"tall"			"60"
			"wide"			"200"
			"visible"		"1"
		}
		
		"TotalGameCreditSpendPanel"
		{
			"ControlName"	"CCreditSpendPanel"
			"fieldName"		"TotalGameCreditSpendPanel"
			"xpos"			"140"
			"ypos"			"72"
			"wide"			"135"
			"tall"			"60"
			"wide"			"200"
			"visible"		"1"
		}

		"RespecStatusLabel"
		{
			"ControlName"	"CExLabel"
			"fieldName"		"RespecStatusLabel"
			"font"			"HudFontSmall"
			"labelText"		"%respecstatus%"
			"textAlignment" "north-east"
			"xpos"			"115"
			"ypos"			"8"
			"wide"			"275"
			"tall"			"20"
			"fgcolor"		"tanlight"
		}
	}
}