"Resource/UI/Spectator.res"
{
	"Spectator"
	{
		"ControlName"	"Frame"
		"fieldName"		"Spectator"
		"tall"			"480"
		"autoResize"	"0"
		"pinCorner"		"0"
		"visible"		"1"
		"enabled"		"1"
		"tabPosition"	"0"
	}

	"specgui" { }

	"topbar"
	{
		"ControlName"	"Panel"
		"fieldName"		"TopBar"
		"xpos"			"9999"
		"ypos"			"9999"
		"wide"			"0"
		"tall"			"0"
		"visible"		"0"
		"enabled"		"0"
	}
	"BottomBar"
	{
		"ControlName"	"Frame"
		"fieldName"		"BottomBar"
		"xpos"			"9999"
		"ypos"			"9999"
		"wide"			"0"
		"tall"			"0"
		"visible"		"0"
		"enabled"		"0"
	}
	"bottombarblank"
	{
		"ControlName"	"Panel"
		"fieldName"		"bottombarblank"
		"xpos"			"9999"
		"ypos"			"9999"
		"wide"			"0"
		"tall"			"0"
		"visible"		"0"
		"enabled"		"0"
	}
	"ReinforcementsLabel"
	{
		"ControlName"	"CExLabel"
		"fieldName"		"ReinforcementsLabel"
		"xpos"			"r158"
		"ypos"			"1"
		"wide"			"150"
		"tall"			"18"
		"autoResize"	"0"
		"pinCorner"		"0"
		"visible"		"1"
		"enabled"		"1"
		"labelText"		"#game_respawntime_in_secs"
		"textAlignment"	"east"
		"font"			"G_FontMedium_2"
	}

	"BuyBackLabel"
	{
		"ControlName"	"CExLabel"
		"fieldName"		"BuyBackLabel"
		"xpos"			"-3"
		"ypos"			"0"
		"wide"			"320"
		"tall"			"30"
		"autoResize"	"0"
		"pinCorner"		"0"
		"visible"		"0"
		"enabled"		"1"
		"labelText"		""
		"textAlignment"	"center"
		"font"			"G_FontSmall"
		"wrap"			"1"
		"centerwrap"	"1"
	}

	"MapLabel"
	{
		"ControlName"	"CExLabel"
		"fieldName"		"MapLabel"
		"xpos"			"9999"
		"ypos"			"9999"
		"wide"			"0"
		"tall"			"0"
		"visible"		"0"
		"enabled"		"0"
	}
	"ClassOrTeamLabel"
	{
		"ControlName"	"CExLabel"
		"fieldName"		"ClassOrTeamLabel"
		"xpos"			"9999"
		"ypos"			"9999"
		"wide"			"0"
		"tall"			"0"
		"visible"		"0"
		"enabled"		"0"
	}
	"SwitchCamModeKeyLabel"
	{
		"ControlName"	"CExLabel"
		"fieldName"		"SwitchCamModeKeyLabel"
		"xpos"			"9999"
		"ypos"			"9999"
		"wide"			"0"
		"tall"			"0"
		"visible"		"0"
		"enabled"		"0"
		
	}
	"SwitchCamModeLabel"
	{
		"ControlName"	"CExLabel"
		"fieldName"		"SwitchCamModeLabel"
		"xpos"			"9999"
		"ypos"			"9999"
		"wide"			"0"
		"tall"			"0"
		"visible"		"0"
		"enabled"		"0"
	}
	"CycleTargetFwdKeyLabel"
	{
		"ControlName"	"CExLabel"
		"fieldName"		"CycleTargetFwdKeyLabel"
		"xpos"			"9999"
		"ypos"			"9999"
		"wide"			"0"
		"tall"			"0"
		"visible"		"0"
		"enabled"		"0"
	}
	"CycleTargetFwdLabel"
	{
		"ControlName"	"CExLabel"
		"fieldName"		"CycleTargetFwdLabel"
		"xpos"			"9999"
		"ypos"			"9999"
		"wide"			"0"
		"tall"			"0"
		"visible"		"0"
		"enabled"		"0"
	}
	"CycleTargetRevKeyLabel"
	{
		"ControlName"	"CExLabel"
		"fieldName"		"CycleTargetRevKeyLabel"
		"xpos"			"9999"
		"ypos"			"9999"
		"wide"			"0"
		"tall"			"0"
		"visible"		"0"
		"enabled"		"0"
	}
	"CycleTargetRevLabel"
	{
		"ControlName"	"CExLabel"
		"fieldName"		"CycleTargetRevLabel"
		"xpos"			"9999"
		"ypos"			"9999"
		"wide"			"0"
		"tall"			"0"
		"visible"		"0"
		"enabled"		"0"
	}
	"TipLabel"
	{
		"ControlName"	"CExLabel"
		"fieldName"		"TipLabel"
		"xpos"			"9999"
		"ypos"			"9999"
		"wide"			"0"
		"tall"			"0"
		"visible"		"0"
		"enabled"		"0"
	}
	"itempanel"
	{
		"ControlName"	"CItemModelPanel"
		"fieldName"		"itempanel"
		"xpos"			"0"
		"ypos"			"0"
		"zpos"			"10"
		"wide"			"190"
		"tall"			"100"
		"visible"		"0"
		"bgcolor_override"		"255 255 255 0"
		"PaintBackgroundType"	"0"
		
		"model_ypos"		"10"
		"model_center_x"	"1"
		"model_wide"		"90"
		"model_tall"		"60"
		
		"text_xpos"			"10"
		"text_ypos"			"10"
		"text_wide"			"170"
		"text_center"		"1"
		
		"max_text_height"	"100"
		"padding_height"	"10"
		"resize_to_text"	"1"
		"text_forcesize"	"2"
		
		"itemmodelpanel"
		{
			"fieldName"		"itemmodelpanel"
			"use_item_rendertarget" "0"
			"useparentbg"		"1"
		}

		"ItemBG"
		{
			"ControlName"	"ImagePanel"
			"fieldName"		"ItemBG"
			"xpos"			"0"
			"ypos"			"0"
			"zpos"			"-1"
			"wide"			"200"
			"tall"			"1000"
			"autoResize"	"0"
			"pinCorner"		"0"
			"visible"		"1"
			"enabled"		"1"
			"fillcolor"		"Hudblack"
		}

		"ItemLabel"
		{	
			"ControlName"	"Label"
			"fieldName"		"ItemLabel"
			"font"			"DefaultSmall"
			"xpos"			"10"
			"ypos"			"3"
			"zpos"			"1"
			"wide"			"270"
			"tall"			"9"
			"autoResize"	"0"
			"pinCorner"		"0"
			"visible"		"1"
			"enabled"		"1"
			"labelText"		"#FreezePanel_Item"
			"textAlignment"	"Left"
			"dulltext"		"0"
			"brighttext"	"0"
		}
	}

	"spectator_extras"
	{
		"ControlName"	"EditablePanel"
		"fieldName"		"spectator_extras"
		"xpos"			"0"
		"ypos"			"0"
		"wide"			"f0"
		"tall"			"480"
		"autoResize"	"0"
		"pinCorner"		"0"
		"visible"		"1"
		"enabled"		"1"
	}
}