"Resource/UI/statsummary.res"
{
	"TFStatsSummary"
	{
		"ControlName"	"EditablePanel"
		"fieldName"		"TFStatsSummary"
		"xpos"			"0"
		"ypos"			"0"
		"wide"			"f0"
		"tall"			"480"
		"visible"		"1"
		"enabled"		"1"
		"bgcolor_override"	"DarkGrey"
	}

	"MainBackground"
	{
		"ControlName"	"ImagePanel"
		"fieldName"		"MainBackground"
		"xpos"			"0"
		"ypos"			"0"
		"wide"			"0"
		"tall"			"0"
		"visible"		"0"
		"enabled"		"0"
		"image"			"../console/background_upward"
		"scaleImage"	"1"
	}	

	"MainBG"
	{
		"ControlName"	"ImagePanel"
		"fieldName"		"MainBackground"
		"xpos"			"0"
		"ypos"			"0"
		"wide"			"f0"
		"tall"			"480"
		"visible"		"1"
		"enabled"		"1"
		"image"			"../console/background_upward"
		"scaleImage"	"1"
	}

	"MapInfo"
	{
		"ControlName"	"EditablePanel"
		"fieldName"		"MapInfo"
		"xpos"			"0"
		"ypos"			"0"
		"wide"			"f0"
		"tall"			"480"
		"visible"		"0"
		"enabled"		"1"
		"bgcolor_override"	"DarkGrey"

		"MainBG"
		{
			"ControlName"	"ImagePanel"
			"fieldName"		"MainBackground"
			"xpos"			"0"
			"ypos"			"0"
			"wide"			"f0"
			"tall"			"480"
			"visible"		"1"
			"enabled"		"1"
			"image"			"../console/background_upward"
			"scaleImage"	"1"
		}
		
		"InfoBG"
		{
			"ControlName"		"EditablePanel"
			"fieldName"			"InfoBG"
			"xpos"				"9999"
			"ypos"				"9999"
			"wide"				"0"
			"tall"				"0"
			"autoResize"		"0"
			"pinCorner"			"0"
			"visible"			"0"
			"enabled"			"0"
			"bgcolor_override"	"0 0 0 0"
		}

		"Title"
		{
			"ControlName"	"CExLabel"
			"fieldName"		"Title"
			"font"			"HudFontSmallBold"
			"labelText"		"%title%"
			"textAlignment"	"north"
			"xpos"			"9999"
			"ypos"			"9999"
			"zpos"			"0"
			"wide"			"0"
			"tall"			"0"
			"autoResize"	"0"
			"pinCorner"		"0"
			"visible"		"0"
			"enabled"		"0"
			"fgcolor_override" "255 181 50 255"
		}
		"MapAuthors"
		{
			"ControlName"	"CExLabel"
			"fieldName"		"MapAuthors"
			"font"			"G_FontTiny_2"
			"labelText"		"%authors%"
			"textAlignment"	"west"
			"xpos"			"10"
			"ypos"			"10"
			"zpos"			"2"
			"wide"			"270"
			"tall"			"275"
			"autoResize"	"0"
			"pinCorner"		"0"
			"visible"		"0"
			"enabled"		"0"
			"wrap"			"0"
		}

		"MapLeaderboardTitle"
		{
			"ControlName"	"CExLabel"
			"fieldName"		"MapLeaderboardTitle"
			"font"			"LightGravity24"
			"labelText"		"%map_leaderboard_title%"
			"textAlignment"	"north"
			"xpos"			"9999"
			"ypos"			"9999"
			"zpos"			"0"
			"wide"			"0"
			"tall"			"0"
			"autoResize"	"0"
			"pinCorner"		"0"
			"visible"		"0"
			"enabled"		"0"
			"fgcolor_override" "137 191 60 255"
		}
	}

	"OnYourWayLabel"
	{
		"ControlName"	"CExLabel"
		"fieldName"		"OnYourWayLabel"
		"font"			"G_FontSmall"
		"labelText"		"#LoadingMap"
		"textAlignment"	"center"
		"xpos"			"9999"
		"ypos"			"9999"
		"zpos"			"0"
		"wide"			"0"
		"tall"			"0"
		"autoResize"	"0"
		"pinCorner"		"0"
		"visible"		"0"
		"enabled"		"0"
		"fgcolor_override" "173 168 148 255"
	}
	"LoadingLabel"
	{
		"ControlName"	"CExLabel"
		"fieldName"		"LoadingLabel"
		"font"			"G_FontMedium"
		"labelText"		"Loading..."
		"textAlignment"	"west"
		"xpos"			"10"
		"ypos"			"0"
		"zpos"			"0"
		"wide"			"350"
		"tall"			"35"
		"autoResize"	"0"
		"pinCorner"		"0"
		"visible"		"1"
		"enabled"		"1"
		"fgcolor_override" "White"
	}	
	"MapLabel"
	{
		"ControlName"	"CExLabel"
		"fieldName"		"MapLabel"
		"font"			"G_FontBig"
		"labelText"		"%maplabel%"
		"textAlignment"	"west"
		"xpos"			"10"
		"ypos"			"25"
		"zpos"			"50"
		"wide"			"f0"
		"tall"			"35"
		"autoResize"	"0"
		"pinCorner"		"0"
		"visible"		"1"
		"enabled"		"1"
		"fgcolor_override" "White"
	}
	"MapType"
	{
		"ControlName"	"CExLabel"
		"fieldName"		"MapType"
		"font"			"G_FontSmall"
		"labelText"		"%maptype%"
		"textAlignment"	"west"
		"xpos"			"10"
		"ypos"			"48"
		"zpos"			"50"
		"wide"			"350"
		"tall"			"35"
		"autoResize"	"0"
		"pinCorner"		"0"
		"visible"		"1"
		"enabled"		"1"
		"fgcolor_override" "White"
	}
	"StatData"
	{
		"ControlName"	"EditablePanel"
		"fieldName"		"StatData"
		"xpos"			"9999"
		"ypos"			"9999"
		"zpos"			"1"
		"wide"			"f0"
		"tall"			"480"
		"visible"		"1"
		"enabled"		"1"
		
		"MainBG"
		{
			"ControlName"	"EditablePanel"
			"fieldName"		"MainBG"
			"xpos"			"c-296"
			"ypos"			"180"
			"wide"			"598"
			"tall"			"208"
			"autoResize"	"0"
			"pinCorner"		"0"
			"visible"		"1"
			"enabled"		"1"
			"bgcolor_override"		"0 0 0 80"
		}

		"NonInteractiveHeaders"
		{
			"ControlName"	"EditablePanel"
			"fieldName"		"NonInteractiveHeaders"
			"xpos"			"0"
			"ypos"			"0"
			"zpos"			"2"
			"wide"			"f0"
			"tall"			"480"
			"visible"		"1"
			"enabled"		"1"
	
			"BarChartLabelA"
			{
				"ControlName"	"Label"
				"fieldName"		"BarChartLabelA"
				"font"			"ScoreboardVerySmall"
				"labelText"		"#StatSummary_StatTitle_MostPoints"
				"textAlignment"	"east"
				"xpos"			"c-282"
				"ypos"			"199"
				"zpos"			"5"
				"wide"			"150"
				"tall"			"20"
				"autoResize"	"0"
				"pinCorner"		"0"
				"visible"		"1"
				"enabled"		"1"
			}
			"BarChartLabelB"
			{
				"ControlName"	"Label"
				"fieldName"		"BarChartLabelB"
				"font"			"ScoreboardVerySmall"
				"labelText"		"#StatSummary_StatTitle_TotalPlaytime"
				"textAlignment"	"west"
				"xpos"			"c-127"
				"ypos"			"199"
				"zpos"			"5"
				"wide"			"150"
				"tall"			"20"
				"autoResize"	"0"
				"pinCorner"		"0"
				"visible"		"1"
				"enabled"		"1"
			}			
			"OverallRecordLabel"
			{
				"ControlName"	"Label"
				"fieldName"		"OverallRecordLabel"
				"font"			"ScoreboardVerySmall"
				"labelText"		"#StatSummary_Label_AsAnyClass"
				"textAlignment"	"west"
				"xpos"			"c+130"
				"ypos"			"200"
				"zpos"			"5"
				"wide"			"200"
				"tall"			"20"
				"autoResize"	"0"
				"pinCorner"		"0"
				"visible"		"1"
				"enabled"		"1"
			}				
		}
		"InteractiveHeaders"	
		{
			"ControlName"	"EditablePanel"
			"fieldName"		"InteractiveHeaders"
			"xpos"			"0"
			"ypos"			"0"
			"zpos"			"2"
			"wide"			"f0"
			"tall"			"480"
			"visible"		"1"
			"enabled"		"1"

			"BarChartComboA"
			{
				"ControlName"	"ComboBox"
				"fieldName"		"BarChartComboA"
				"xpos"			"c-285"
				"ypos"			"212"
				"zpos"			"10"
				"wide"			"154"
				"tall"			"14"
				"autoResize"	"0"
				"pinCorner"		"0"
				"visible"		"1"
				"enabled"		"1"
				"tabPosition"	"1"
				"textHidden"	"0"
				"editable"		"0"
				"maxchars"		"-1"
				"NumericInputOnly"		"0"
				"unicode"		"0"
			}
			"BarChartComboB"
			{
				"ControlName"	"ComboBox"
				"fieldName"		"BarChartComboB"
				"xpos"			"c-127"
				"ypos"			"212"
				"zpos"			"10"
				"wide"			"154"
				"tall"			"14"
				"autoResize"	"0"
				"pinCorner"		"0"
				"visible"		"1"
				"enabled"		"1"
				"tabPosition"	"1"
				"textHidden"	"0"
				"editable"		"0"
				"maxchars"		"-1"
				"NumericInputOnly"		"0"
				"unicode"		"0"
			}
			"ClassCombo"
			{
				"ControlName"	"ComboBox"
				"fieldName"		"ClassCombo"
				"xpos"			"c+124"
				"ypos"			"200"
				"zpos"			"10"
				"wide"			"167"
				"tall"			"14"
				"autoResize"	"0"
				"pinCorner"		"0"
				"visible"		"1"
				"enabled"		"1"
				"tabPosition"	"1"
				"textHidden"	"0"
				"editable"		"0"
				"maxchars"		"-1"
				"NumericInputOnly"		"0"
				"unicode"		"0"
			}
		}
		"AveragesBG"
		{
			"ControlName"		"EditablePanel"
			"fieldName"			"AveragesBG"
			"xpos"				"c-295"
			"ypos"				"165"
			"wide"				"406"
			"tall"				"300"
			"autoResize"		"0"
			"pinCorner"			"0"
			"visible"			"0"
			"enabled"			"0"
			"bgcolor_override"	"0 0 0 0"
		}
		"AveragesLabel"
		{
			"ControlName"	"Label"
			"fieldName"		"AveragesLabel"
			"font"			"LightGravity24"
			"labelText"		"#StatSummary_Label_PerformanceReport"
			"textAlignment"	"west"
			"xpos"			"c-285"
			"ypos"			"185"
			"wide"			"300"
			"tall"			"20"
			"autoResize"	"0"
			"pinCorner"		"0"
			"visible"		"1"
			"enabled"		"1"
		}
		"ClassBarBG1A"
		{
			"ControlName"	"ImagePanel"
			"fieldName"		"ClassBarBG1A"
			"xpos"			"c-285"
			"ypos"			"217"
			"zpos"			"2"
			"wide"			"312"
			"tall"			"16"
			"autoResize"	"0"
			"pinCorner"		"0"
			"visible"		"1"
			"enabled"		"1"
			"tabPosition"	"0"	
			"fillcolor"		"0 0 0 80"
			"PaintBackgroundType"	"0"
		}	
		"ClassBarBG1B"
		{
			"ControlName"	"ImagePanel"
			"fieldName"		"ClassBarBG1B"
			"xpos"			"c+30"
			"ypos"			"217"
			"zpos"			"2"
			"wide"			"70"
			"tall"			"16"
			"autoResize"	"0"
			"pinCorner"		"0"
			"visible"		"1"
			"enabled"		"1"
			"tabPosition"	"0"	
			"fillcolor"		"0 0 0 80"
			"PaintBackgroundType"	"0"
		}
		"ClassBar1A"
		{
			"ControlName"	"ImagePanel"
			"fieldName"		"ClassBar1A"
			"xpos"			"c-282"
			"ypos"			"219"
			"zpos"			"3"
			"wide"			"151"
			"tall"			"12"
			"autoResize"	"0"
			"pinCorner"		"0"
			"visible"		"1"
			"enabled"		"1"
			"tabPosition"	"0"	
			"fillcolor"		"162 148 135 255"
			"PaintBackgroundType"	"0"
		}
		"ClassBar1B"
		{
			"ControlName"	"ImagePanel"
			"fieldName"		"ClassBar1B"
			"xpos"			"c-127"
			"ypos"			"219"
			"zpos"			"3"
			"wide"			"151"
			"tall"			"12"
			"autoResize"	"0"
			"pinCorner"		"0"
			"visible"		"1"
			"enabled"		"1"
			"tabPosition"	"0"	
			"fillcolor"		"162 148 135 255"
			"PaintBackgroundType"	"0"
		}	
		"ClassBarLabel1A"
		{
			"ControlName"	"Label"
			"fieldName"		"ClassBarLabel1A"
			"font"			"ScoreboardVerySmall"
			"labelText"		"%classbarlabel1A%"
			"textAlignment"	"west"
			"xpos"			"c-282"
			"ypos"			"215"
			"zpos"			"6"
			"wide"			"100"
			"tall"			"20"
			"autoResize"	"0"
			"pinCorner"		"0"
			"visible"		"1"
			"enabled"		"1"
		}				
		"ClassBarLabel1B"
		{
			"ControlName"	"Label"
			"fieldName"		"ClassBarLabel1B"
			"font"			"ScoreboardVerySmall"
			"labelText"		"%classbarlabel1B%"
			"textAlignment"	"west"
			"xpos"			"c-125"
			"ypos"			"215"
			"zpos"			"6"
			"wide"			"100"
			"tall"			"20"
			"autoResize"	"0"
			"pinCorner"		"0"
			"visible"		"1"
			"enabled"		"1"
		}				
		"ClassLabel1"
		{
			"ControlName"	"Label"
			"fieldName"		"ClassLabel1"
			"font"			"ScoreboardVerySmall"
			"labelText"		"%class1%"
			"textAlignment"	"west"
			"xpos"			"c+34"
			"ypos"			"215"
			"zpos"			"5"
			"wide"			"300"
			"tall"			"20"
			"autoResize"	"0"
			"pinCorner"		"0"
			"visible"		"1"
			"enabled"		"1"
		}				
		"ClassBarBG2A"
		{
			"ControlName"	"ImagePanel"
			"fieldName"		"ClassBarBG2A"
			"xpos"			"c-285"
			"ypos"			"235"
			"zpos"			"2"
			"wide"			"312"
			"tall"			"16"
			"autoResize"	"0"
			"pinCorner"		"0"
			"visible"		"1"
			"enabled"		"1"
			"tabPosition"	"0"	
			"fillcolor"		"0 0 0 80"
			"PaintBackgroundType"	"0"
		}
		"ClassBarBG2B"
		{
			"ControlName"	"ImagePanel"
			"fieldName"		"ClassBarBG2B"
			"xpos"			"c+30"
			"ypos"			"235"
			"zpos"			"2"
			"wide"			"70"
			"tall"			"16"
			"autoResize"	"0"
			"pinCorner"		"0"
			"visible"		"1"
			"enabled"		"1"
			"tabPosition"	"0"	
			"fillcolor"		"0 0 0 80"
			"PaintBackgroundType"	"0"
		}
		"ClassBar2A"
		{
			"ControlName"	"ImagePanel"
			"fieldName"		"ClassBar2A"
			"xpos"			"c-282"
			"ypos"			"237"
			"zpos"			"3"
			"wide"			"151"
			"tall"			"12"
			"autoResize"	"0"
			"pinCorner"		"0"
			"visible"		"1"
			"enabled"		"1"
			"tabPosition"	"0"	
			"fillcolor"		"93 60 27 255"
			"PaintBackgroundType"	"0"
		}	
		"ClassBar2B"
		{
			"ControlName"	"ImagePanel"
			"fieldName"		"ClassBar2B"
			"xpos"			"c-127"
			"ypos"			"237"
			"zpos"			"3"
			"wide"			"151"
			"tall"			"12"
			"autoResize"	"0"
			"pinCorner"		"0"
			"visible"		"1"
			"enabled"		"1"
			"tabPosition"	"0"	
			"fillcolor"		"93 60 27 255"
			"PaintBackgroundType"	"0"
		}	
		"ClassBarLabel2A"
		{
			"ControlName"	"Label"
			"fieldName"		"ClassBarLabel2A"
			"font"			"ScoreboardVerySmall"
			"labelText"		"%classbarlabel2A%"
			"textAlignment"	"west"
			"xpos"			"c-282"
			"ypos"			"233"
			"zpos"			"6"
			"wide"			"100"
			"tall"			"20"
			"autoResize"	"0"
			"pinCorner"		"0"
			"visible"		"1"
			"enabled"		"1"
		}				
		"ClassBarLabel2B"
		{
			"ControlName"	"Label"
			"fieldName"		"ClassBarLabel2B"
			"font"			"ScoreboardVerySmall"
			"labelText"		"%classbarlabel2B%"
			"textAlignment"	"west"
			"xpos"			"c-127"
			"ypos"			"233"
			"zpos"			"6"
			"wide"			"100"
			"tall"			"20"
			"autoResize"	"0"
			"pinCorner"		"0"
			"visible"		"1"
			"enabled"		"1"
		}				
		"ClassLabel2"
		{
			"ControlName"	"Label"
			"fieldName"		"ClassLabel2"
			"font"			"ScoreboardVerySmall"
			"labelText"		"%class2%"
			"textAlignment"	"west"
			"xpos"			"c+34"
			"ypos"			"233"
			"zpos"			"5"
			"wide"			"300"
			"tall"			"20"
			"autoResize"	"0"
			"pinCorner"		"0"
			"visible"		"1"
			"enabled"		"1"
		}				
		"ClassBarBG3A"
		{
			"ControlName"	"ImagePanel"
			"fieldName"		"ClassBarBG3A"
			"xpos"			"c-285"
			"ypos"			"253"
			"zpos"			"2"
			"wide"			"312"
			"tall"			"16"
			"autoResize"	"0"
			"pinCorner"		"0"
			"visible"		"1"
			"enabled"		"1"
			"tabPosition"	"0"	
			"fillcolor"		"0 0 0 80"
			"PaintBackgroundType"	"0"
		}
		"ClassBarBG3B"
		{
			"ControlName"	"ImagePanel"
			"fieldName"		"ClassBarBG3B"
			"xpos"			"c+30"
			"ypos"			"253"
			"zpos"			"2"
			"wide"			"70"
			"tall"			"16"
			"autoResize"	"0"
			"pinCorner"		"0"
			"visible"		"1"
			"enabled"		"1"
			"tabPosition"	"0"	
			"fillcolor"		"0 0 0 80"
			"PaintBackgroundType"	"0"
		}
		"ClassBar3A"
		{
			"ControlName"	"ImagePanel"
			"fieldName"		"ClassBar3A"
			"xpos"			"c-282"
			"ypos"			"255"
			"zpos"			"3"
			"wide"			"151"
			"tall"			"12"
			"autoResize"	"0"
			"pinCorner"		"0"
			"visible"		"1"
			"enabled"		"1"
			"tabPosition"	"0"	
			"fillcolor"		"134 93 39 255"
			"PaintBackgroundType"	"0"
		}	
		"ClassBar3B"
		{
			"ControlName"	"ImagePanel"
			"fieldName"		"ClassBar3B"
			"xpos"			"c-127"
			"ypos"			"255"
			"zpos"			"3"
			"wide"			"151"
			"tall"			"12"
			"autoResize"	"0"
			"pinCorner"		"0"
			"visible"		"1"
			"enabled"		"1"
			"tabPosition"	"0"	
			"fillcolor"		"134 93 39 255"
			"PaintBackgroundType"	"0"
		}	
		"ClassBarLabel3A"
		{
			"ControlName"	"Label"
			"fieldName"		"ClassBarLabel3A"
			"font"			"ScoreboardVerySmall"
			"labelText"		"%classbarlabel3A%"
			"textAlignment"	"west"
			"xpos"			"c-282"
			"ypos"			"251"
			"zpos"			"6"
			"wide"			"100"
			"tall"			"20"
			"autoResize"	"0"
			"pinCorner"		"0"
			"visible"		"1"
			"enabled"		"1"
		}				
		"ClassBarLabel3B"
		{
			"ControlName"	"Label"
			"fieldName"		"ClassBarLabel3B"
			"font"			"ScoreboardVerySmall"
			"labelText"		"%classbarlabel3B%"
			"textAlignment"	"west"
			"xpos"			"c-127"
			"ypos"			"251"
			"zpos"			"6"
			"wide"			"100"
			"tall"			"20"
			"autoResize"	"0"
			"pinCorner"		"0"
			"visible"		"1"
			"enabled"		"1"
		}				
		"ClassLabel3"
		{
			"ControlName"	"Label"
			"fieldName"		"ClassLabel3"
			"font"			"ScoreboardVerySmall"
			"labelText"		"%class3%"
			"textAlignment"	"west"
			"xpos"			"c+34"
			"ypos"			"251"
			"zpos"			"5"
			"wide"			"300"
			"tall"			"20"
			"autoResize"	"0"
			"pinCorner"		"0"
			"visible"		"1"
			"enabled"		"1"
		}				
		"ClassBarBG4A"
		{
			"ControlName"	"ImagePanel"
			"fieldName"		"ClassBarBG4A"
			"xpos"			"c-285"
			"ypos"			"271"
			"zpos"			"2"
			"wide"			"312"
			"tall"			"16"
			"autoResize"	"0"
			"pinCorner"		"0"
			"visible"		"1"
			"enabled"		"1"
			"tabPosition"	"0"	
			"fillcolor"		"0 0 0 80"
			"PaintBackgroundType"	"0"
		}
		"ClassBarBG4B"
		{
			"ControlName"	"ImagePanel"
			"fieldName"		"ClassBarBG4B"
			"xpos"			"c+30"
			"ypos"			"271"
			"zpos"			"2"
			"wide"			"70"
			"tall"			"16"
			"autoResize"	"0"
			"pinCorner"		"0"
			"visible"		"1"
			"enabled"		"1"
			"tabPosition"	"0"	
			"fillcolor"		"0 0 0 80"
			"PaintBackgroundType"	"0"
		}
		"ClassBar4A"
		{
			"ControlName"	"ImagePanel"
			"fieldName"		"ClassBar4A"
			"xpos"			"c-282"
			"ypos"			"273"
			"zpos"			"3"
			"wide"			"151"
			"tall"			"12"
			"autoResize"	"0"
			"pinCorner"		"0"
			"visible"		"1"
			"enabled"		"1"
			"tabPosition"	"0"	
			"fillcolor"		"207 147 95 255"
			"PaintBackgroundType"	"0"
		}	
		"ClassBar4B"
		{
			"ControlName"	"ImagePanel"
			"fieldName"		"ClassBar4B"
			"xpos"			"c-127"
			"ypos"			"273"
			"zpos"			"3"
			"wide"			"151"
			"tall"			"12"
			"autoResize"	"0"
			"pinCorner"		"0"
			"visible"		"1"
			"enabled"		"1"
			"tabPosition"	"0"	
			"fillcolor"		"207 147 95 255"
			"PaintBackgroundType"	"0"
		}	
		"ClassBarLabel4A"
		{
			"ControlName"	"Label"
			"fieldName"		"ClassBarLabel4A"
			"font"			"ScoreboardVerySmall"
			"labelText"		"%classbarlabel4A%"
			"textAlignment"	"west"
			"xpos"			"c-282"
			"ypos"			"269"
			"zpos"			"6"
			"wide"			"100"
			"tall"			"20"
			"autoResize"	"0"
			"pinCorner"		"0"
			"visible"		"1"
			"enabled"		"1"
		}				
		"ClassBarLabel4B"
		{
			"ControlName"	"Label"
			"fieldName"		"ClassBarLabel4B"
			"font"			"ScoreboardVerySmall"
			"labelText"		"%classbarlabel4B%"
			"textAlignment"	"west"
			"xpos"			"c-127"
			"ypos"			"269"
			"zpos"			"6"
			"wide"			"100"
			"tall"			"20"
			"autoResize"	"0"
			"pinCorner"		"0"
			"visible"		"1"
			"enabled"		"1"
		}				
		"ClassLabel4"
		{
			"ControlName"	"Label"
			"fieldName"		"ClassLabel4"
			"font"			"ScoreboardVerySmall"
			"labelText"		"%class4%"
			"textAlignment"	"west"
			"xpos"			"c+34"
			"ypos"			"269"
			"zpos"			"5"
			"wide"			"300"
			"tall"			"20"
			"autoResize"	"0"
			"pinCorner"		"0"
			"visible"		"1"
			"enabled"		"1"
		}				
		"ClassBarBG5A"
		{
			"ControlName"	"ImagePanel"
			"fieldName"		"ClassBarBG5A"
			"xpos"			"c-285"
			"ypos"			"289"
			"zpos"			"2"
			"wide"			"312"
			"tall"			"16"
			"autoResize"	"0"
			"pinCorner"		"0"
			"visible"		"1"
			"enabled"		"1"
			"tabPosition"	"0"	
			"fillcolor"		"0 0 0 80"
			"PaintBackgroundType"	"0"
		}
		"ClassBarBG5B"
		{
			"ControlName"	"ImagePanel"
			"fieldName"		"ClassBarBG5B"
			"xpos"			"c+30"
			"ypos"			"289"
			"zpos"			"2"
			"wide"			"70"
			"tall"			"16"
			"autoResize"	"0"
			"pinCorner"		"0"
			"visible"		"1"
			"enabled"		"1"
			"tabPosition"	"0"	
			"fillcolor"		"0 0 0 80"
			"PaintBackgroundType"	"0"
		}
		"ClassBar5A"
		{
			"ControlName"	"ImagePanel"
			"fieldName"		"ClassBar5A"
			"xpos"			"c-282"
			"ypos"			"291"
			"zpos"			"3"
			"wide"			"151"
			"tall"			"12"
			"autoResize"	"0"
			"pinCorner"		"0"
			"visible"		"1"
			"enabled"		"1"
			"tabPosition"	"0"	
			"fillcolor"		"226 184 146 255"
			"PaintBackgroundType"	"0"
		}	
		"ClassBar5B"
		{
			"ControlName"	"ImagePanel"
			"fieldName"		"ClassBar5B"
			"xpos"			"c-127"
			"ypos"			"291"
			"zpos"			"3"
			"wide"			"151"
			"tall"			"12"
			"autoResize"	"0"
			"pinCorner"		"0"
			"visible"		"1"
			"enabled"		"1"
			"tabPosition"	"0"	
			"fillcolor"		"226 184 146 255"
			"PaintBackgroundType"	"0"
		}	
		"ClassBarLabel5A"
		{
			"ControlName"	"Label"
			"fieldName"		"ClassBarLabel5A"
			"font"			"ScoreboardVerySmall"
			"labelText"		"%classbarlabel5A%"
			"textAlignment"	"west"
			"xpos"			"c-282"
			"ypos"			"287"
			"zpos"			"6"
			"wide"			"100"
			"tall"			"20"
			"autoResize"	"0"
			"pinCorner"		"0"
			"visible"		"1"
			"enabled"		"1"
		}				
		"ClassBarLabel5B"
		{
			"ControlName"	"Label"
			"fieldName"		"ClassBarLabel5B"
			"font"			"ScoreboardVerySmall"
			"labelText"		"%classbarlabel5B%"
			"textAlignment"	"west"
			"xpos"			"c-127"
			"ypos"			"287"
			"zpos"			"6"
			"wide"			"100"
			"tall"			"20"
			"autoResize"	"0"
			"pinCorner"		"0"
			"visible"		"1"
			"enabled"		"1"
		}				
		"ClassLabel5"
		{
			"ControlName"	"Label"
			"fieldName"		"ClassLabel5"
			"font"			"ScoreboardVerySmall"
			"labelText"		"%class5%"
			"textAlignment"	"west"
			"xpos"			"c+34"
			"ypos"			"287"
			"zpos"			"5"
			"wide"			"282"
			"tall"			"20"
			"autoResize"	"0"
			"pinCorner"		"0"
			"visible"		"1"
			"enabled"		"1"
		}				
		"ClassBarBG6A"
		{
			"ControlName"	"ImagePanel"
			"fieldName"		"ClassBarBG6A"
			"xpos"			"c-285"
			"ypos"			"307"
			"zpos"			"2"
			"wide"			"312"
			"tall"			"16"
			"autoResize"	"0"
			"pinCorner"		"0"
			"visible"		"1"
			"enabled"		"1"
			"tabPosition"	"0"	
			"fillcolor"		"0 0 0 80"
			"PaintBackgroundType"	"0"
		}
		"ClassBarBG6B"
		{
			"ControlName"	"ImagePanel"
			"fieldName"		"ClassBarBG6B"
			"xpos"			"c+30"
			"ypos"			"307"
			"zpos"			"2"
			"wide"			"70"
			"tall"			"16"
			"autoResize"	"0"
			"pinCorner"		"0"
			"visible"		"1"
			"enabled"		"1"
			"tabPosition"	"0"	
			"fillcolor"		"0 0 0 80"
			"PaintBackgroundType"	"0"
		}
		"ClassBar6A"
		{
			"ControlName"	"ImagePanel"
			"fieldName"		"ClassBar6A"
			"xpos"			"c-282"
			"ypos"			"309"
			"zpos"			"3"
			"wide"			"151"
			"tall"			"12"
			"autoResize"	"0"
			"pinCorner"		"0"
			"visible"		"1"
			"enabled"		"1"
			"tabPosition"	"0"	
			"fillcolor"		"162 148 135 255"
			"PaintBackgroundType"	"0"
		}	
		"ClassBar6B"
		{
			"ControlName"	"ImagePanel"
			"fieldName"		"ClassBar6B"
			"xpos"			"c-127"
			"ypos"			"309"
			"zpos"			"3"
			"wide"			"151"
			"tall"			"12"
			"autoResize"	"0"
			"pinCorner"		"0"
			"visible"		"1"
			"enabled"		"1"
			"tabPosition"	"0"	
			"fillcolor"		"162 148 135 255"
			"PaintBackgroundType"	"0"
		}	
		"ClassBarLabel6A"
		{
			"ControlName"	"Label"
			"fieldName"		"ClassBarLabel6A"
			"font"			"ScoreboardVerySmall"
			"labelText"		"%classbarlabel6A%"
			"textAlignment"	"west"
			"xpos"			"c-282"
			"ypos"			"305"
			"zpos"			"6"
			"wide"			"100"
			"tall"			"20"
			"autoResize"	"0"
			"pinCorner"		"0"
			"visible"		"1"
			"enabled"		"1"
		}				
		"ClassBarLabel6B"
		{
			"ControlName"	"Label"
			"fieldName"		"ClassBarLabel6B"
			"font"			"ScoreboardVerySmall"
			"labelText"		"%classbarlabel6B%"
			"textAlignment"	"west"
			"xpos"			"c-127"
			"ypos"			"305"
			"zpos"			"6"
			"wide"			"100"
			"tall"			"20"
			"autoResize"	"0"
			"pinCorner"		"0"
			"visible"		"1"
			"enabled"		"1"
		}				
		"ClassLabel6"
		{
			"ControlName"	"Label"
			"fieldName"		"ClassLabel6"
			"font"			"ScoreboardVerySmall"
			"labelText"		"%class6%"
			"textAlignment"	"west"
			"xpos"			"c+34"
			"ypos"			"305"
			"zpos"			"5"
			"wide"			"300"
			"tall"			"20"
			"autoResize"	"0"
			"pinCorner"		"0"
			"visible"		"1"
			"enabled"		"1"
		}				
		"ClassBarBG7A"
		{
			"ControlName"	"ImagePanel"
			"fieldName"		"ClassBarBG7A"
			"xpos"			"c-285"
			"ypos"			"325"
			"zpos"			"2"
			"wide"			"312"
			"tall"			"16"
			"autoResize"	"0"
			"pinCorner"		"0"
			"visible"		"1"
			"enabled"		"1"
			"tabPosition"	"0"	
			"fillcolor"		"0 0 0 80"
			"PaintBackgroundType"	"0"
		}
		"ClassBarBG7B"
		{
			"ControlName"	"ImagePanel"
			"fieldName"		"ClassBarBG7B"
			"xpos"			"c+30"
			"ypos"			"325"
			"zpos"			"2"
			"wide"			"70"
			"tall"			"16"
			"autoResize"	"0"
			"pinCorner"		"0"
			"visible"		"1"
			"enabled"		"1"
			"tabPosition"	"0"	
			"fillcolor"		"0 0 0 80"
			"PaintBackgroundType"	"0"
		}
		"ClassBar7A"
		{
			"ControlName"	"ImagePanel"
			"fieldName"		"ClassBar7A"
			"xpos"			"c-282"
			"ypos"			"327"
			"zpos"			"3"
			"wide"			"151"
			"tall"			"12"
			"autoResize"	"0"
			"pinCorner"		"0"
			"visible"		"1"
			"enabled"		"1"
			"tabPosition"	"0"	
			"fillcolor"		"93 60 27 255"
			"PaintBackgroundType"	"0"
		}	
		"ClassBar7B"
		{
			"ControlName"	"ImagePanel"
			"fieldName"		"ClassBar7B"
			"xpos"			"c-127"
			"ypos"			"327"
			"zpos"			"3"
			"wide"			"151"
			"tall"			"12"
			"autoResize"	"0"
			"pinCorner"		"0"
			"visible"		"1"
			"enabled"		"1"
			"tabPosition"	"0"	
			"fillcolor"		"93 60 27 255"
			"PaintBackgroundType"	"0"
		}	
		"ClassBarLabel7A"
		{
			"ControlName"	"Label"
			"fieldName"		"ClassBarLabel7A"
			"font"			"ScoreboardVerySmall"
			"labelText"		"%classbarlabel7A%"
			"textAlignment"	"west"
			"xpos"			"c-282"
			"ypos"			"323"
			"zpos"			"6"
			"wide"			"100"
			"tall"			"20"
			"autoResize"	"0"
			"pinCorner"		"0"
			"visible"		"1"
			"enabled"		"1"
		}				
		"ClassBarLabel7B"
		{
			"ControlName"	"Label"
			"fieldName"		"ClassBarLabel7B"
			"font"			"ScoreboardVerySmall"
			"labelText"		"%classbarlabel7B%"
			"textAlignment"	"west"
			"xpos"			"c-127"
			"ypos"			"323"
			"zpos"			"6"
			"wide"			"100"
			"tall"			"20"
			"autoResize"	"0"
			"pinCorner"		"0"
			"visible"		"1"
			"enabled"		"1"
		}				
		"ClassLabel7"
		{
			"ControlName"	"Label"
			"fieldName"		"ClassLabel7"
			"font"			"ScoreboardVerySmall"
			"labelText"		"%class7%"
			"textAlignment"	"west"
			"xpos"			"c+34"
			"ypos"			"323"
			"zpos"			"5"
			"wide"			"300"
			"tall"			"20"
			"autoResize"	"0"
			"pinCorner"		"0"
			"visible"		"1"
			"enabled"		"1"
		}		
		"ClassBarBG8A"
		{
			"ControlName"	"ImagePanel"
			"fieldName"		"ClassBarBG8A"
			"xpos"			"c-285"
			"ypos"			"343"
			"zpos"			"2"
			"wide"			"312"
			"tall"			"16"
			"autoResize"	"0"
			"pinCorner"		"0"
			"visible"		"1"
			"enabled"		"1"
			"tabPosition"	"0"	
			"fillcolor"		"0 0 0 80"
			"PaintBackgroundType"	"0"
		}
		"ClassBarBG8B"
		{
			"ControlName"	"ImagePanel"
			"fieldName"		"ClassBarBG8B"
			"xpos"			"c+30"
			"ypos"			"343"
			"zpos"			"2"
			"wide"			"70"
			"tall"			"16"
			"autoResize"	"0"
			"pinCorner"		"0"
			"visible"		"1"
			"enabled"		"1"
			"tabPosition"	"0"	
			"fillcolor"		"0 0 0 80"
			"PaintBackgroundType"	"0"
		}
		"ClassBar8A"
		{
			"ControlName"	"ImagePanel"
			"fieldName"		"ClassBar8A"
			"xpos"			"c-282"
			"ypos"			"345"
			"zpos"			"3"
			"wide"			"151"
			"tall"			"12"
			"autoResize"	"0"
			"pinCorner"		"0"
			"visible"		"1"
			"enabled"		"1"
			"tabPosition"	"0"	
			"fillcolor"		"134 93 39 255"
			"PaintBackgroundType"	"0"
		}	
		"ClassBar8B"
		{
			"ControlName"	"ImagePanel"
			"fieldName"		"ClassBar8B"
			"xpos"			"c-127"
			"ypos"			"345"
			"zpos"			"3"
			"wide"			"151"
			"tall"			"12"
			"autoResize"	"0"
			"pinCorner"		"0"
			"visible"		"1"
			"enabled"		"1"
			"tabPosition"	"0"	
			"fillcolor"		"134 93 39 255"
			"PaintBackgroundType"	"0"
		}	
		"ClassBarLabel8A"
		{
			"ControlName"	"Label"
			"fieldName"		"ClassBarLabel8A"
			"font"			"ScoreboardVerySmall"
			"labelText"		"%classbarlabel8A%"
			"textAlignment"	"west"
			"xpos"			"c-282"
			"ypos"			"341"
			"zpos"			"6"
			"wide"			"100"
			"tall"			"20"
			"autoResize"	"0"
			"pinCorner"		"0"
			"visible"		"1"
			"enabled"		"1"
		}				
		"ClassBarLabel8B"
		{
			"ControlName"	"Label"
			"fieldName"		"ClassBarLabel8B"
			"font"			"ScoreboardVerySmall"
			"labelText"		"%classbarlabel8B%"
			"textAlignment"	"west"
			"xpos"			"c-127"
			"ypos"			"341"
			"zpos"			"6"
			"wide"			"100"
			"tall"			"20"
			"autoResize"	"0"
			"pinCorner"		"0"
			"visible"		"1"
			"enabled"		"1"
		}				
		"ClassLabel8"
		{
			"ControlName"	"Label"
			"fieldName"		"ClassLabel8"
			"font"			"ScoreboardVerySmall"
			"labelText"		"%class8%"
			"textAlignment"	"west"
			"xpos"			"c+34"
			"ypos"			"341"
			"zpos"			"5"
			"wide"			"300"
			"tall"			"20"
			"autoResize"	"0"
			"pinCorner"		"0"
			"visible"		"1"
			"enabled"		"1"
		}		
		"ClassBarBG9A"
		{
			"ControlName"		"ImagePanel"
			"fieldName"		"ClassBarBG9A"
			"xpos"			"c-285"
			"ypos"			"361"
			"zpos"			"2"
			"wide"			"312"
			"tall"			"16"
			"autoResize"	"0"
			"pinCorner"		"0"
			"visible"		"1"
			"enabled"		"1"
			"tabPosition"	"0"	
			"fillcolor"		"0 0 0 80"
			"PaintBackgroundType"	"0"
		}
		"ClassBarBG9B"
		{
			"ControlName"		"ImagePanel"
			"fieldName"		"ClassBarBG9B"
			"xpos"			"c+30"
			"ypos"			"361"
			"zpos"			"2"
			"wide"			"70"
			"tall"			"16"
			"autoResize"	"0"
			"pinCorner"		"0"
			"visible"		"1"
			"enabled"		"1"
			"tabPosition"	"0"	
			"fillcolor"		"0 0 0 80"
			"PaintBackgroundType"	"0"
		}
		"ClassBar9A"
		{
			"ControlName"		"ImagePanel"
			"fieldName"		"ClassBar9A"
			"xpos"			"c-282"
			"ypos"			"363"
			"zpos"			"3"
			"wide"			"151"
			"tall"			"12"
			"autoResize"	"0"
			"pinCorner"		"0"
			"visible"		"1"
			"enabled"		"1"
			"tabPosition"	"0"	
			"fillcolor"		"207 147 95 255"
			"PaintBackgroundType"	"0"
		}	
		"ClassBar9B"
		{
			"ControlName"	"ImagePanel"
			"fieldName"		"ClassBar9B"
			"xpos"			"c-127"
			"ypos"			"363"
			"zpos"			"3"
			"wide"			"151"
			"tall"			"12"
			"autoResize"	"0"
			"pinCorner"		"0"
			"visible"		"1"
			"enabled"		"1"
			"tabPosition"	"0"	
			"fillcolor"		"207 147 95 255"
			"PaintBackgroundType"	"0"
		}	
		"ClassBarLabel9A"
		{
			"ControlName"	"Label"
			"fieldName"		"ClassBarLabel9A"
			"font"			"ScoreboardVerySmall"
			"labelText"		"%classbarlabel9A%"
			"textAlignment"	"west"
			"xpos"			"c-282"
			"ypos"			"359"
			"zpos"			"6"
			"wide"			"100"
			"tall"			"20"
			"autoResize"	"0"
			"pinCorner"		"0"
			"visible"		"1"
			"enabled"		"1"
		}				
		"ClassBarLabel9B"
		{
			"ControlName"	"Label"
			"fieldName"		"ClassBarLabel9B"
			"font"			"ScoreboardVerySmall"
			"labelText"		"%classbarlabel9B%"
			"textAlignment"	"west"
			"xpos"			"c-127"
			"ypos"			"359"
			"zpos"			"6"
			"wide"			"100"
			"tall"			"20"
			"autoResize"	"0"
			"pinCorner"		"0"
			"visible"		"1"
			"enabled"		"1"
		}				
		"ClassLabel9"
		{
			"ControlName"	"Label"
			"fieldName"		"ClassLabel9"
			"font"			"ScoreboardVerySmall"
			"labelText"		"%class9%"
			"textAlignment"	"west"
			"xpos"			"c+34"
			"ypos"			"359"
			"zpos"			"5"
			"wide"			"300"
			"tall"			"20"
			"autoResize"	"0"
			"pinCorner"		"0"
			"visible"		"1"
			"enabled"		"1"
		}		
		"RecordsBG"
		{
			"ControlName"	"EditablePanel"
			"fieldName"		"RecordsBG"
			"xpos"			"c+115"
			"ypos"			"165"
			"wide"			"200"
			"tall"			"260"
			"autoResize"	"0"
			"pinCorner"		"0"
			"visible"		"0"
			"enabled"		"0"
			"bgcolor_override"		"0 0 0 0"
		}
		"RecordsLabel1"
		{
			"ControlName"	"Label"
			"fieldName"		"RecordsLabel1"
			"font"			"LightGravity24"
			"labelText"		"#StatSummary_Label_BestMoments"
			"textAlignment"	"west"
			"xpos"			"c+124"
			"ypos"			"185"
			"wide"			"300"
			"tall"			"20"
			"autoResize"	"0"
			"pinCorner"		"0"
			"visible"		"1"	[$WIN32]
			"enabled"		"1"
		}							
		"RecordsSubBG1"
		{
			"ControlName"	"ImagePanel"
			"fieldName"		"RecordsSubBG1"
			"xpos"			"c+124"
			"ypos"			"217"
			"zpos"			"2"
			"wide"			"167"
			"tall"			"160"
			"autoResize"	"0"
			"pinCorner"		"0"
			"visible"		"1"
			"enabled"		"1"
			"tabPosition"	"0"	
			"fillcolor"		"0 0 0 80"
			"PaintBackgroundType"	"0"
		}
		"RecordsLabel"
		{
			"ControlName"	"Label"
			"fieldName"		"RecordsLabel"
			"font"			"ScoreboardMedium"
			"labelText"		"#StatSummary_Records"
			"textAlignment"	"west"
			"xpos"			"c-265"
			"ypos"			"232"
			"zpos"			"5"
			"wide"			"220"
			"tall"			"20"
			"autoResize"	"0"
			"pinCorner"		"0"
			"visible"		"0"
			"enabled"		"1"
		}	
		"OverallRecord1Label"
		{
			"ControlName"	"Label"
			"fieldName"		"OverallRecord1Label"
			"font"			"ScoreboardVerySmall"
			"labelText"		"%classrecord1label%"
			"textAlignment"	"west"
			"xpos"			"c+128"
			"ypos"			"216"
			"zpos"			"5"
			"wide"			"200"
			"tall"			"20"
			"autoResize"	"0"
			"pinCorner"		"0"
			"visible"		"1"
			"enabled"		"1"
		}							
		"OverallRecord1Value"
		{
			"ControlName"	"Label"
			"fieldName"		"OverallRecord1Value"
			"font"			"ScoreboardVerySmall"
			"labelText"		"%classrecord1value%"
			"textAlignment"	"west"
			"xpos"			"c+210"
			"ypos"			"216"
			"zpos"			"5"
			"wide"			"200"
			"tall"			"20"
			"autoResize"	"0"
			"pinCorner"		"0"
			"visible"		"1"
			"enabled"		"1"
		}							
		"OverallRecord2Label"
		{
			"ControlName"	"Label"
			"fieldName"		"OverallRecord2Label"
			"font"			"ScoreboardVerySmall"
			"labelText"		"%classrecord2label%"
			"textAlignment"	"west"
			"xpos"			"c+128"
			"ypos"			"226"
			"zpos"			"5"
			"wide"			"200"
			"tall"			"20"
			"autoResize"	"0"
			"pinCorner"		"0"
			"visible"		"1"
			"enabled"		"1"
		}							
		"OverallRecord2Value"
		{
			"ControlName"	"Label"
			"fieldName"		"OverallRecord2Value"
			"font"			"ScoreboardVerySmall"
			"labelText"		"%classrecord2value%"
			"textAlignment"	"west"
			"xpos"			"c+210"
			"ypos"			"226"
			"zpos"			"5"
			"wide"			"200"
			"tall"			"20"
			"autoResize"	"0"
			"pinCorner"		"0"
			"visible"		"1"
			"enabled"		"1"
		}							
		"OverallRecord3Label"
		{
			"ControlName"	"Label"
			"fieldName"		"OverallRecord3Label"
			"font"			"ScoreboardVerySmall"
			"labelText"		"%classrecord3label%"
			"textAlignment"	"west"
			"xpos"			"c+128"
			"ypos"			"236"
			"zpos"			"5"
			"wide"			"200"
			"tall"			"20"
			"autoResize"	"0"
			"pinCorner"		"0"
			"visible"		"1"
			"enabled"		"1"
		}							
		"OverallRecord3Value"
		{
			"ControlName"	"Label"
			"fieldName"		"OverallRecord3Value"
			"font"			"ScoreboardVerySmall"
			"labelText"		"%classrecord3value%"
			"textAlignment"	"west"
			"xpos"			"c+210"
			"ypos"			"236"
			"zpos"			"5"
			"wide"			"200"
			"tall"			"20"
			"autoResize"	"0"
			"pinCorner"		"0"
			"visible"		"1"
			"enabled"		"1"
		}							
		"OverallRecord4Label"
		{
			"ControlName"	"Label"
			"fieldName"		"OverallRecord4Label"
			"font"			"ScoreboardVerySmall"
			"labelText"		"%classrecord4label%"
			"textAlignment"	"west"
			"xpos"			"c+128"
			"ypos"			"246"
			"zpos"			"5"
			"wide"			"200"
			"tall"			"20"
			"autoResize"	"0"
			"pinCorner"		"0"
			"visible"		"1"
			"enabled"		"1"
		}							
		"OverallRecord4Value"
		{
			"ControlName"	"Label"
			"fieldName"		"OverallRecord4Value"
			"font"			"ScoreboardVerySmall"
			"labelText"		"%classrecord4value%"
			"textAlignment"	"west"
			"xpos"			"c+210"
			"ypos"			"246"
			"zpos"			"5"
			"wide"			"200"
			"tall"			"20"
			"autoResize"	"0"
			"pinCorner"		"0"
			"visible"		"1"
			"enabled"		"1"
		}							
		"OverallRecord5Label"
		{
			"ControlName"	"Label"
			"fieldName"		"OverallRecord5Label"
			"font"			"ScoreboardVerySmall"
			"labelText"		"%classrecord5label%"
			"textAlignment"	"west"
			"xpos"			"c+128"
			"ypos"			"256"
			"zpos"			"5"
			"wide"			"200"
			"tall"			"20"
			"autoResize"	"0"
			"pinCorner"		"0"
			"visible"		"1"
			"enabled"		"1"
		}							
		"OverallRecord5Value"
		{
			"ControlName"	"Label"
			"fieldName"		"OverallRecord5Value"
			"font"			"ScoreboardVerySmall"
			"labelText"		"%classrecord5value%"
			"textAlignment"	"west"
			"xpos"			"c+210"
			"ypos"			"256"
			"zpos"			"5"
			"wide"			"200"
			"tall"			"20"
			"autoResize"	"0"
			"pinCorner"		"0"
			"visible"		"1"
			"enabled"		"1"
		}							
		"OverallRecord6Label"
		{
			"ControlName"	"Label"
			"fieldName"		"OverallRecord6Label"
			"font"			"ScoreboardVerySmall"
			"labelText"		"%classrecord6label%"
			"textAlignment"	"west"
			"xpos"			"c+128"
			"ypos"			"266"
			"zpos"			"5"
			"wide"			"200"
			"tall"			"20"
			"autoResize"	"0"
			"pinCorner"		"0"
			"visible"		"1"
			"enabled"		"1"
		}							
		"OverallRecord6Value"
		{
			"ControlName"	"Label"
			"fieldName"		"OverallRecord6Value"
			"font"			"ScoreboardVerySmall"
			"labelText"		"%classrecord6value%"
			"textAlignment"	"west"
			"xpos"			"c+210"
			"ypos"			"266"
			"zpos"			"5"
			"wide"			"200"
			"tall"			"20"
			"autoResize"	"0"
			"pinCorner"		"0"
			"visible"		"1"
			"enabled"		"1"
		}							
		"OverallRecord7Label"
		{
			"ControlName"	"Label"
			"fieldName"		"OverallRecord7Label"
			"font"			"ScoreboardVerySmall"
			"labelText"		"%classrecord7label%"
			"textAlignment"	"west"
			"xpos"			"c+128"
			"ypos"			"276"
			"zpos"			"5"
			"wide"			"200"
			"tall"			"20"
			"autoResize"	"0"
			"pinCorner"		"0"
			"visible"		"1"
			"enabled"		"1"
		}							
		"OverallRecord7Value"
		{
			"ControlName"	"Label"
			"fieldName"		"OverallRecord7Value"
			"font"			"ScoreboardVerySmall"
			"labelText"		"%classrecord7value%"
			"textAlignment"	"west"
			"xpos"			"c+210"
			"ypos"			"276"
			"zpos"			"5"
			"wide"			"200"
			"tall"			"20"
			"autoResize"	"0"
			"pinCorner"		"0"
			"visible"		"1"
			"enabled"		"1"
		}							
		"OverallRecord8Label"
		{
			"ControlName"	"Label"
			"fieldName"		"OverallRecord8Label"
			"font"			"ScoreboardVerySmall"
			"labelText"		"%classrecord8label%"
			"textAlignment"	"west"
			"xpos"			"c+128"
			"ypos"			"286"
			"zpos"			"5"
			"wide"			"200"
			"tall"			"20"
			"autoResize"	"0"
			"pinCorner"		"0"
			"visible"		"1"
			"enabled"		"1"
		}							
		"OverallRecord8Value"
		{
			"ControlName"	"Label"
			"fieldName"		"OverallRecord8Value"
			"font"			"ScoreboardVerySmall"
			"labelText"		"%classrecord8value%"
			"textAlignment"	"west"
			"xpos"			"c+210"
			"ypos"			"286"
			"zpos"			"5"
			"wide"			"200"
			"tall"			"20"
			"autoResize"	"0"
			"pinCorner"		"0"
			"visible"		"1"
			"enabled"		"1"
		}
		"OverallRecord9Label"
		{
			"ControlName"	"Label"
			"fieldName"		"OverallRecord9Label"
			"font"			"ScoreboardVerySmall"
			"labelText"		"%classrecord9label%"
			"textAlignment"	"west"
			"xpos"			"c+128"
			"ypos"			"296"
			"zpos"			"5"
			"wide"			"200"
			"tall"			"20"
			"autoResize"	"0"
			"pinCorner"		"0"
			"visible"		"1"
			"enabled"		"1"
		}							
		"OverallRecord9Value"
		{
			"ControlName"	"Label"
			"fieldName"		"OverallRecord9Value"
			"font"			"ScoreboardVerySmall"
			"labelText"		"%classrecord9value%"
			"textAlignment"	"west"
			"xpos"			"c+210"
			"ypos"			"296"
			"zpos"			"5"
			"wide"			"200"
			"tall"			"20"
			"autoResize"	"0"
			"pinCorner"		"0"
			"visible"		"1"
			"enabled"		"1"
		}
		"OverallRecord10Label"
		{
			"ControlName"	"Label"
			"fieldName"		"OverallRecord10Label"
			"font"			"ScoreboardVerySmall"
			"labelText"		"%classrecord10label%"
			"textAlignment"	"west"
			"xpos"			"c+128"
			"ypos"			"306"
			"zpos"			"5"
			"wide"			"200"
			"tall"			"20"
			"autoResize"	"0"
			"pinCorner"		"0"
			"visible"		"1"
			"enabled"		"1"
		}							
		"OverallRecord10Value"
		{
			"ControlName"	"Label"
			"fieldName"		"OverallRecord10Value"
			"font"			"ScoreboardVerySmall"
			"labelText"		"%classrecord10value%"
			"textAlignment"	"west"
			"xpos"			"c+210"
			"ypos"			"306"
			"zpos"			"5"
			"wide"			"200"
			"tall"			"20"
			"autoResize"	"0"
			"pinCorner"		"0"
			"visible"		"1"
			"enabled"		"1"
		}
		"OverallRecord11Label"
		{
			"ControlName"	"Label"
			"fieldName"		"OverallRecord11Label"
			"font"			"ScoreboardVerySmall"
			"labelText"		"%classrecord11label%"
			"textAlignment"	"west"
			"xpos"			"c+128"
			"ypos"			"316"
			"zpos"			"5"
			"wide"			"200"
			"tall"			"20"
			"autoResize"	"0"
			"pinCorner"		"0"
			"visible"		"1"
			"enabled"		"1"
		}							
		"OverallRecord11Value"
		{
			"ControlName"	"Label"
			"fieldName"		"OverallRecord11Value"
			"font"			"ScoreboardVerySmall"
			"labelText"		"%classrecord11value%"
			"textAlignment"	"west"
			"xpos"			"c+210"
			"ypos"			"316"
			"zpos"			"5"
			"wide"			"200"
			"tall"			"20"
			"autoResize"	"0"
			"pinCorner"		"0"
			"visible"		"1"
			"enabled"		"1"
		}
		"OverallRecord12Label"
		{
			"ControlName"	"Label"
			"fieldName"		"OverallRecord12Label"
			"font"			"ScoreboardVerySmall"
			"labelText"		"%classrecord12label%"
			"textAlignment"	"west"
			"xpos"			"c+128"
			"ypos"			"326"
			"zpos"			"5"
			"wide"			"200"
			"tall"			"20"
			"autoResize"	"0"
			"pinCorner"		"0"
			"visible"		"1"
			"enabled"		"1"
		}							
		"OverallRecord12Value"
		{
			"ControlName"	"Label"
			"fieldName"		"OverallRecord12Value"
			"font"			"ScoreboardVerySmall"
			"labelText"		"%classrecord12value%"
			"textAlignment"	"west"
			"xpos"			"c+210"
			"ypos"			"326"
			"zpos"			"5"
			"wide"			"200"
			"tall"			"20"
			"autoResize"	"0"
			"pinCorner"		"0"
			"visible"		"1"
			"enabled"		"1"
		}
		"OverallRecord13Label"
		{
			"ControlName"	"Label"
			"fieldName"		"OverallRecord13Label"
			"font"			"ScoreboardVerySmall"
			"labelText"		"%classrecord13label%"
			"textAlignment"	"west"
			"xpos"			"c+128"
			"ypos"			"336"
			"zpos"			"5"
			"wide"			"200"
			"tall"			"20"
			"autoResize"	"0"
			"pinCorner"		"0"
			"visible"		"1"
			"enabled"		"1"
		}							
		"OverallRecord13Value"
		{
			"ControlName"	"Label"
			"fieldName"		"OverallRecord13Value"
			"font"			"ScoreboardVerySmall"
			"labelText"		"%classrecord13value%"
			"textAlignment"	"west"
			"xpos"			"c+210"
			"ypos"			"336"
			"zpos"			"5"
			"wide"			"200"
			"tall"			"20"
			"autoResize"	"0"
			"pinCorner"		"0"
			"visible"		"1"
			"enabled"		"1"
		}
		"OverallRecord14Label"
		{
			"ControlName"	"Label"
			"fieldName"		"OverallRecord14Label"
			"font"			"ScoreboardVerySmall"
			"labelText"		"%classrecord14label%"
			"textAlignment"	"west"
			"xpos"			"c+128"
			"ypos"			"346"
			"zpos"			"5"
			"wide"			"200"
			"tall"			"20"
			"autoResize"	"0"
			"pinCorner"		"0"
			"visible"		"1"
			"enabled"		"1"
		}							
		"OverallRecord14Value"
		{
			"ControlName"	"Label"
			"fieldName"		"OverallRecord14Value"
			"font"			"ScoreboardVerySmall"
			"labelText"		"%classrecord14value%"
			"textAlignment"	"west"
			"xpos"			"c+210"
			"ypos"			"346"
			"zpos"			"5"
			"wide"			"200"
			"tall"			"20"
			"autoResize"	"0"
			"pinCorner"		"0"
			"visible"		"1"
			"enabled"		"1"
		}
		"OverallRecord15Label"
		{
			"ControlName"	"Label"
			"fieldName"		"OverallRecord15Label"
			"font"			"ScoreboardVerySmall"
			"labelText"		"%classrecord15label%"
			"textAlignment"	"west"
			"xpos"			"c+128"
			"ypos"			"356"
			"zpos"			"5"
			"wide"			"200"
			"tall"			"20"
			"autoResize"	"0"
			"pinCorner"		"0"
			"visible"		"1"
			"enabled"		"1"
		}							
		"OverallRecord15Value"
		{
			"ControlName"	"Label"
			"fieldName"		"OverallRecord15Value"
			"font"			"ScoreboardVerySmall"
			"labelText"		"%classrecord15value%"
			"textAlignment"	"west"
			"xpos"			"c+210"
			"ypos"			"356"
			"zpos"			"5"
			"wide"			"200"
			"tall"			"20"
			"autoResize"	"0"
			"pinCorner"		"0"
			"visible"		"1"
			"enabled"		"1"
		}
	}
	"TipImage"
	{
		"ControlName"	"CTFImagePanel"
		"fieldName"		"TipImage"
		"xpos"			"9999"
		"ypos"			"9999"
		"zpos"			"12"
		"wide"			"35"
		"tall"			"35"
		"visible"		"0"
		"enabled"		"0"
		"image"			""	
		"scaleImage"	"1"	
	}
	"TipText"
	{
		"ControlName"	"Label"
		"fieldName"		"TipText"
		"font"			"ScoreboardVerySmall"
		"labelText"		"%tiptext%"
		"textAlignment"	"west"
		"xpos"			"9999"
		"ypos"			"9999"
		"zpos"			"12"
		"wide"			"350"
		"tall"			"48"
		"autoResize"	"0"
		"pinCorner"		"0"
		"visible"		"0"
		"enabled"		"0"
		"wrap"			"1"
	}
	"NextTipButton" [$WIN32]
	{
		"ControlName"	"Button"
		"fieldName"		"NextTipButton"
		"xpos"			"c-248"
		"ypos"			"310"
		"zpos"			"6"
		"wide"			"90"
		"tall"			"15"
		"autoResize"	"0"
		"pinCorner"		"0"
		"visible"		"1"
		"enabled"		"1"
		"tabPosition"	"0"
		"labelText"		"#TF_NextTip"
		"textAlignment"	"center"
		"dulltext"		"0"
		"brighttext"	"0"
		"Command"		"nexttip"
	}
	"ResetStatsButton" [$WIN32]
	{
		"ControlName"	"Button"
		"fieldName"		"ResetStatsButton"
		"xpos"			"c130"
		"ypos"			"270"
		"zpos"			"6"
		"wide"			"150"
		"tall"			"30"
		"autoResize"	"0"
		"pinCorner"		"0"
		"visible"		"1"
		"enabled"		"1"
		"tabPosition"	"0"
		"labelText"		"#TF_ResetStats"
		"textAlignment"	"center"
		"dulltext"		"0"
		"brighttext"	"0"
		"Command"		"resetstatsbutton"
	}
	"CloseButton" [$WIN32]
	{
		"ControlName"	"Button"
		"fieldName"		"CloseButton"
		"xpos"			"r190"
		"ypos"			"r50"
		"zpos"			"6"
		"wide"			"150"
		"tall"			"30"
		"autoResize"	"0"
		"pinCorner"		"2"
		"visible"		"0"
		"enabled"		"1"
		"tabPosition"	"0"
		"labelText"		"#TF_Close"
		"textAlignment"	"center"
		"dulltext"		"0"
		"brighttext"	"0"
		"Command"		"vguicancel"
	}
}