"Resource/UI/TargetID.res"
{
	"TargetBG"
	{
		"ControlName"		"ImagePanel"
		"fieldName"			"TargetBG"
		"xpos"				"0"
		"ypos"				"36"
		"zpos"				"-1"
		"wide"				"640"
		"tall"				"12"
		"autoResize"		"0"
		"pinCorner"			"0"
		"visible"			"1"
		"enabled"			"1"
		"fillcolor"			"HudBlack"
	}

	"TargetIDBG"
	{
		"ControlName"		"CTFImagePanel"
		"fieldName"			"TargetIDBG"
		"xpos"				"9999"
		"ypos"				"9999"
		"zpos"				"-1"
		"visible"			"0"
		"enabled"			"0"
		"image"				"../hud/color_panel_brown"
		"scaleImage"		"1"
		"teambg_1"			"../hud/color_panel_brown"
		"teambg_2"			"../hud/color_panel_red"
		"teambg_3"			"../hud/color_panel_blu"
		"alpha"				"180"
		"src_corner_height"		"23"
		"src_corner_width"		"23"
		"draw_corner_width"		"0"
		"draw_corner_height" 	"0"
	}
	"TargetIDBG_Spec_Blue"
	{
		"ControlName"		"ImagePanel"
		"fieldName"			"TargetIDBG_Spec_Blue"
		"xpos"				"0"
		"ypos"				"48"
		"zpos"				"-1"
		"wide"				"640"
		"tall"	 			"35"
		"autoResize"		"0"
		"pinCorner"			"0"
		"visible"			"0"
		"enabled"			"1"
		"fillcolor"			"Blue"
		"src_corner_height"		"23"
		"src_corner_width"		"23"
		"draw_corner_width"		"0"
		"draw_corner_height" 	"0"
	}
	"TargetIDBG_Spec_Red"
	{
		"ControlName"		"ImagePanel"
		"fieldName"			"TargetIDBG_Spec_Red"
		"xpos"				"0"
		"ypos"				"48"
		"zpos"				"-1"
		"wide"				"640"
		"tall"	 			"36"
		"autoResize"		"0"
		"pinCorner"			"0"
		"visible"			"0"
		"enabled"			"1"
		"fillcolor"			"Red"
		"src_corner_height"		"23"
		"src_corner_width"		"23"
		"draw_corner_width"		"0"
		"draw_corner_height"	"0"
	}

	"TargetNameLabel"
	{
		"ControlName"		"Label"
		"fieldName"			"TargetNameLabel"
		"font"				"LightGravity10"
		"xpos"				"40"
		"ypos"				"36"
		"zpos"				"1"
		"wide"				"640"
		"tall"				"13"
		"visible"			"1"
		"enabled"			"1"
		"labelText"			"%targetname%"
		"textAlignment"		"west"
		"fgcolor_override"	"255 255 255 255"
	}
	"TargetNameLabelShadow"
	{
		"ControlName"	"Label"
		"fieldName"		"TargetNameLabelShadow"
		"font"			"LightGravity10"
		"xpos"			"-1"
		"ypos"			"-1"
		"zpos"			"1"
		"wide"			"640"
		"tall"			"13"
		"visible"		"1"
		"enabled"		"1"
		"labelText"		"%targetname%"
		"textAlignment"	"west"
		"fgcolor_override"		"ShadowBlack"
		
		"pin_to_sibling"		"TargetNameLabel"
		"pin_corner_to_sibling" "PIN_TOPLEFT"
		"pin_to_sibling_corner" "PIN_TOPLEFT"
	}
	
	"TargetDataLabel"
	{
		"ControlName"		"Label"
		"fieldName"			"TargetDataLabel"
		"font"				"LightGravity8"
		"xpos"				"40"
		"ypos"				"19"
		"zpos"				"1"
		"wide"				"640"
		"tall"				"25"
		"visible"			"1"
		"enabled"			"1"
		"labelText"			"%targetdata%"
		"textAlignment"		"west"
	}

	"SpectatorGUIHealth"
	{
		"ControlName"		"EditablePanel"
		"fieldName"			"SpectatorGUIHealth"
		"xpos"				"0"
		"ypos"				"27"
		"wide"				"44"
		"tall"				"40"
		"visible"			"0"
		"enabled"			"0"
		"HealthBonusPosAdj"			"10"
		"HealthDeathWarning"		"0.49"
		"TFFont"					"HudFontSmall"
		"HealthDeathWarningColor"	"HUDDeathWarning"
		"TextColor"					"HudOffWhite"
	}

	"AmmoIcon"
	{
		"ControlName"		"ImagePanel"
		"fieldName"			"AmmoIcon"
		"xpos"				"48"
		"ypos"				"26"
		"zpos"				"12"
		"wide"				"10"
		"tall"				"10"
		"visible"			"0"
		"enabled"			"1"
		"image"				"../hud/leaderboard_class_heavy"
		"scaleImage"		"1"
    }

	"KillStreakIconAnchor"
	{
		"ControlName"		"EditablePanel"
		"fieldName"			"KillStreakIconAnchor"
		"xpos"				"-5"
		"ypos"				"28"
		"wide"				"8"
		"tall"				"8"
		"visible"			"1"
		"enabled"			"1"
	}

	"KillStreakIcon"
	{
		"ControlName"		"ImagePanel"
		"fieldName"			"KillStreakIcon"
		"xpos"				"0"
		"ypos"				"1"
		"zpos"				"12"
		"wide"				"8"
		"tall"				"8"
		"visible"			"0"
		"enabled"			"1"
		"image"				"../hud/leaderboard_streak"
		"scaleImage"		"1"
		"pin_to_sibling"	"KillStreakIconAnchor"
		"pin_corner_to_sibling" "1"
		"pin_to_sibling_corner" "1"
	}
	
	"MoveableSubPanel"
	{
		"ControlName"		"EditablePanel"
		"fieldName"			"MoveableSubPanel"
		"xpos"				"0"
		"ypos"				"0"
		"zpos"				"0"
		"wide"				"32"
		"tall"				"36"
		"visible"			"1"
		"enabled"			"1"	
		
		"MoveableIconBG"
		{
			"ControlName"	"CIconPanel"
			"fieldName"		"MoveableIconBG"
			"xpos"			"9999"
			"ypos"			"9999"
			"zpos"			"0"
			"wide"			"10"
			"tall"			"36"
			"visible"		"0"
			"enabled"		"0"
			"icon"			"obj_status_alert_background_tall_nocolor"
			"iconColor"		"HudBlack"
			"scaleImage"	"1"
		}
		
		"MoveableIcon"
		{
			"ControlName"	"CIconPanel"
			"fieldName"		"MoveableIcon"
			"xpos"			"9999"
			"ypos"			"9999"
			"zpos"			"11"
			"wide"			"0"
			"tall"			"0"
			"visible"		"0"
			"enabled"		"0"
			"icon"			"obj_status_sentrygun_1"
			"drawcolor"		"White"
			"scaleImage"	"1"
		}
		"MoveableSymbolIcon"
		{
			"ControlName"	"ImagePanel"
			"fieldName"		"MoveableSymbolIcon"
			"xpos"			"16"
			"ypos"			"-2"
			"zpos"			"12"
			"wide"			"16"
			"tall"			"8"
			"visible"		"1"
			"enabled"		"1"
			"image"			"../hud/eng_sel_item_movable"
			"drawcolor"		"White"
			"scaleImage"	"1"
		}

		"MoveableKeyLabel"
		{	
			"ControlName"	"Label"
			"fieldName"		"MoveableKeyLabel"
			"font"			"LightGravity10"
			"xpos"			"0"
			"ypos"			"35"
			"zpos"			"1"
			"wide"			"640"
			"tall"			"24"
			"autoResize"	"0"
			"pinCorner"		"0"
			"visible"		"1"
			"enabled"		"1"
			"labelText"		""
			"textAlignment"	"North"
			"dulltext"		"0"
			"brighttext"	"0"
		}	
	}

	"AvatarImage"
	{
		"ControlName"		"CAvatarImagePanel"
		"fieldName"			"AvatarImage"
		"xpos"				"0"
		"ypos"				"25"
		"zpos"				"99"
		"wide"				"12"
		"tall"				"12"
		"visible"			"1"
		"enabled"			"1"
		"image"				""
		"scaleImage"		"1"	
		"color_outline"		"52 48 45 255"
	}
}